id_center;selection;timestep;x;y;z;id_mother;validation
1;2;0;131;192;180;0;1
2;2;0;141;149;252;0;1
3;2;0;211;180;197;0;1
4;2;0;154;216;247;0;1
5;2;1;211;181;196;3;1
6;2;1;155;216;246;4;1
7;2;1;142;149;251;2;1
8;2;1;132;193;177;1;1
9;2;2;155;215;247;6;1
10;2;2;211;181;198;5;1
11;2;2;144;149;252;7;1
12;2;2;131;191;180;8;1
13;2;3;132;191;180;12;1
14;2;3;154;214;248;9;1
15;2;3;211;179;199;10;1
16;2;3;145;147;253;11;1
17;2;4;154;214;248;14;1
18;2;4;146;147;253;16;1
19;2;4;211;179;201;15;1
20;2;4;133;191;177;13;1
21;2;5;146;147;253;18;1
22;2;5;153;214;248;17;1
23;2;5;210;179;200;19;1
24;2;5;133;191;180;20;1
25;2;6;147;147;253;21;1
26;2;6;211;179;201;23;1
27;2;6;153;213;250;22;1
28;2;6;134;190;182;24;1
29;2;7;133;188;182;28;1
30;2;7;153;212;248;27;1
31;2;7;209;179;198;26;1
32;2;7;149;146;250;25;1
33;2;8;209;180;194;31;1
34;2;8;153;213;244;30;1
35;2;8;149;146;245;32;1
36;2;8;134;190;177;29;1
37;2;9;134;189;173;36;1
38;2;9;209;180;189;33;1
39;2;9;153;214;238;34;1
40;2;9;151;146;239;35;1
41;2;10;136;187;169;37;1
42;2;10;210;180;183;38;1
43;2;10;154;213;232;39;1
44;2;10;152;145;233;40;1
45;2;11;137;185;171;41;1
46;2;11;210;180;186;42;1
47;2;11;153;212;235;43;1
48;2;11;152;144;237;44;1
49;2;12;152;142;241;48;1
50;2;12;137;186;176;45;1
51;2;12;210;179;192;46;1
52;2;12;154;211;241;47;1
53;2;13;137;187;177;50;1
54;2;13;153;212;242;52;1
55;2;13;154;142;242;49;1
56;2;13;209;181;194;51;1
57;2;14;209;182;189;56;1
58;2;14;152;212;236;54;1
59;2;14;153;143;236;55;1
60;2;14;137;189;168;53;1
61;2;15;153;211;238;58;1
62;2;15;209;179;191;57;1
63;2;15;138;187;171;60;1
64;2;15;154;141;239;59;1
65;2;16;155;141;242;64;1
66;2;16;153;210;243;61;1
67;2;16;208;178;196;62;1
68;2;16;138;187;178;63;1
69;2;17;208;179;197;67;1
70;2;17;156;141;243;65;1
71;2;17;153;211;244;66;1
72;2;17;139;186;179;68;1
73;2;18;207;180;194;69;1
74;2;18;155;141;239;70;1
75;2;18;153;212;240;71;1
76;2;18;137;186;175;72;1
77;2;19;137;183;175;76;1
78;2;19;208;178;196;73;1
79;2;19;156;139;241;74;1
80;2;19;153;210;243;75;1
81;2;20;154;210;242;80;1
82;2;20;138;183;177;77;1
83;2;20;158;140;241;79;1
84;2;20;209;180;195;78;1
85;2;21;208;180;194;84;1
86;2;21;153;211;240;81;1
87;2;21;156;140;239;83;1
88;2;21;138;184;173;82;1
89;2;22;153;211;242;86;1
90;2;22;208;180;197;85;1
91;2;22;157;140;243;87;1
92;2;22;137;183;180;88;1
93;2;23;208;180;196;90;1
94;2;23;156;140;240;91;1
95;2;23;155;212;239;89;1
96;2;23;139;185;170;92;1
97;2;24;208;179;198;93;1
98;2;24;155;210;242;95;1
99;2;24;158;139;243;94;1
100;2;24;136;179;170;96;1
101;2;25;155;211;242;98;1
102;2;25;159;141;242;99;1
103;2;25;209;181;196;97;1
104;2;25;140;185;168;100;1
105;2;26;154;209;243;101;1
106;2;26;158;139;244;102;1
107;2;26;137;182;168;104;1
108;2;26;208;187;192;103;1
109;2;27;153;210;242;105;1
110;2;27;158;140;242;106;1
111;2;27;210;182;196;108;1
112;2;27;109;174;181;107;1
113;2;27;165;186;184;107;1
114;2;28;154;209;242;109;1
115;2;28;210;188;192;111;1
116;2;28;168;141;237;110;1
117;2;28;153;188;166;113;1
118;2;28;103;168;226;112;1
119;2;29;152;211;239;114;1
120;2;29;170;146;234;116;1
121;2;29;107;165;216;118;1
122;2;29;140;199;163;117;1
123;2;29;229;171;199;115;1
124;2;29;177;219;188;115;1
125;2;30;151;208;239;119;1
126;2;30;173;148;231;120;1
127;2;30;139;196;169;122;1
128;2;30;109;159;212;121;1
129;2;30;227;176;194;123;1
130;2;30;180;226;182;124;1
131;2;31;151;208;240;125;1
132;2;31;174;148;233;126;1
133;2;31;181;227;185;130;1
134;2;31;108;155;211;128;1
135;2;31;142;191;170;127;1
136;2;31;227;183;191;129;1
137;2;32;179;226;185;133;1
138;2;32;175;147;231;132;1
139;2;32;142;188;169;135;1
140;2;32;107;151;209;134;1
141;2;32;228;188;188;136;1
142;2;32;148;213;237;131;1
143;2;33;105;151;211;140;1
144;2;33;177;227;188;137;1
145;2;33;143;184;167;139;1
146;2;33;178;145;228;138;1
147;2;33;227;194;188;141;1
148;2;33;144;207;244;142;1
149;2;34;143;184;165;145;1
150;2;34;104;153;210;143;1
151;2;34;175;226;186;144;1
152;2;34;227;196;185;147;1
153;2;34;146;208;241;148;1
154;2;34;177;148;234;146;1
155;2;35;177;226;183;151;1
156;2;35;229;195;188;152;1
157;2;35;103;153;214;150;1
158;2;35;146;181;166;149;1
159;2;35;176;143;230;154;1
160;2;35;153;211;206;153;1
161;2;35;136;189;272;153;1
162;2;36;135;192;270;161;1
163;2;36;181;225;181;155;1
164;2;36;150;184;162;158;1
165;2;36;231;193;194;156;1
166;2;36;101;162;212;157;1
167;2;36;148;219;203;160;1
168;2;36;166;144;232;159;1
169;2;36;183;144;221;159;1
170;2;37;101;161;213;166;1
171;2;37;179;225;180;163;1
172;2;37;146;214;203;167;1
173;2;37;140;194;269;162;1
174;2;37;229;201;193;165;1
175;2;37;155;176;165;164;1
176;2;37;205;154;212;169;1
177;2;37;147;132;235;168;1
178;2;38;101;163;214;170;1
179;2;38;143;213;201;172;1
180;2;38;205;152;216;176;1
181;2;38;227;205;192;174;1
182;2;38;176;225;176;171;1
183;2;38;141;199;267;173;1
184;2;38;158;171;166;175;1
185;2;38;150;132;243;177;1
186;2;39;226;205;192;181;1
187;2;39;101;162;213;178;1
188;2;39;142;211;202;179;1
189;2;39;141;202;266;183;1
190;2;39;204;152;221;180;1
191;2;39;175;220;175;182;1
192;2;39;150;135;251;185;1
193;2;39;161;163;170;184;1
194;2;40;176;220;175;191;1
195;2;40;102;162;212;187;1
196;2;40;143;210;204;188;1
197;2;40;226;205;195;186;1
198;2;40;142;205;266;189;1
199;2;40;160;160;174;193;1
200;2;40;205;152;226;190;1
201;2;40;152;140;256;192;1
202;2;41;226;205;195;197;1
203;2;41;142;209;205;196;1
204;2;41;159;158;174;199;1
205;2;41;102;161;210;195;1
206;2;41;175;219;173;194;1
207;2;41;203;151;225;200;1
208;2;41;143;209;263;198;1
209;2;41;153;145;257;201;1
210;2;42;102;161;211;205;1
211;2;42;203;151;227;207;1
212;2;42;153;147;256;209;1
213;2;42;176;217;172;206;1
214;2;42;225;206;197;202;1
215;2;42;145;211;263;208;1
216;2;42;142;206;206;203;1
217;2;42;161;156;178;204;1
218;2;43;225;207;197;214;1
219;2;43;101;160;210;210;1
220;2;43;161;156;176;217;1
221;2;43;142;206;204;216;1
222;2;43;175;218;170;213;1
223;2;43;203;150;224;211;1
224;2;43;145;212;260;215;1
225;2;43;155;149;254;212;1
226;2;44;156;150;255;225;1
227;2;44;146;213;261;224;1
228;2;44;203;151;226;223;1
229;2;44;161;154;179;220;1
230;2;44;225;208;201;218;1
231;2;44;176;214;169;222;1
232;2;44;142;203;207;221;1
233;2;44;102;157;210;219;1
234;2;45;101;158;221;233;1
235;2;45;161;155;178;229;1
236;2;45;176;214;167;231;1
237;2;45;203;151;224;228;1
238;2;45;156;152;255;226;1
239;2;45;224;210;201;230;1
240;2;45;142;205;205;232;1
241;2;45;145;215;259;227;1
242;2;46;146;216;258;241;1
243;2;46;174;214;166;236;1
244;2;46;163;154;178;235;1
245;2;46;102;158;223;234;1
246;2;46;222;212;202;239;1
247;2;46;141;203;207;240;1
248;2;46;206;151;223;237;1
249;2;46;159;153;255;238;1
250;2;47;146;216;257;242;1
251;2;47;175;215;166;243;1
252;2;47;221;213;202;246;1
253;2;47;164;153;177;244;1
254;2;47;102;158;225;245;1
255;2;47;143;204;208;247;1
256;2;47;207;152;221;248;1
257;2;47;159;156;255;249;1
258;2;48;175;214;168;251;1
259;2;48;220;213;204;252;1
260;2;48;209;152;222;256;1
261;2;48;160;154;256;257;1
262;2;48;102;156;227;254;1
263;2;48;165;153;180;253;1
264;2;48;145;213;258;250;1
265;2;48;143;202;211;255;1
266;2;49;161;154;256;261;1
267;2;49;174;214;169;258;1
268;2;49;142;202;212;265;1
269;2;49;210;153;222;260;1
270;2;49;146;214;258;264;1
271;2;49;103;154;227;262;1
272;2;49;164;152;178;263;1
273;2;49;219;214;206;259;1
274;2;50;164;153;178;272;1
275;2;50;146;214;257;270;1
276;2;50;142;201;211;268;1
277;2;50;103;153;226;271;1
278;2;50;161;154;254;266;1
279;2;50;174;216;169;267;1
280;2;50;210;155;220;269;1
281;2;50;219;215;203;273;1
282;2;51;161;155;255;278;1
283;2;51;165;152;179;274;1
284;2;51;219;214;205;281;1
285;2;51;143;199;212;276;1
286;2;51;211;154;222;280;1
287;2;51;145;212;258;275;1
288;2;51;104;151;228;277;1
289;2;51;173;217;172;279;1
290;2;52;165;152;178;283;1
291;2;52;145;212;257;287;1
292;2;52;219;215;204;284;1
293;2;52;143;200;211;285;1
294;2;52;162;154;254;282;1
295;2;52;173;219;172;289;1
296;2;52;105;151;226;288;1
297;2;52;212;154;219;286;1
298;2;53;142;199;211;293;1
299;2;53;161;155;254;294;1
300;2;53;144;212;256;291;1
301;2;53;105;149;226;296;1
302;2;53;217;215;203;292;1
303;2;53;211;155;217;297;1
304;2;53;171;217;174;295;1
305;2;53;165;148;177;290;1
306;2;54;211;155;218;303;1
307;2;54;170;218;175;304;1
308;2;54;218;214;204;302;1
309;2;54;161;156;256;299;1
310;2;54;143;211;258;300;1
311;2;54;142;199;214;298;1
312;2;54;106;150;229;301;1
313;2;54;166;151;179;305;1
314;2;55;106;150;228;312;1
315;2;55;169;218;176;307;1
316;2;55;142;198;213;311;1
317;2;55;160;156;255;309;1
318;2;55;212;156;217;306;1
319;2;55;218;214;202;308;1
320;2;55;165;150;177;313;1
321;2;55;142;211;255;310;1
322;2;56;212;155;217;318;1
323;2;56;217;215;203;319;1
324;2;56;107;149;229;314;1
325;2;56;168;218;178;315;1
326;2;56;166;150;179;320;1
327;2;56;142;197;215;316;1
328;2;56;162;157;256;317;1
329;2;56;140;208;256;321;1
330;2;57;168;219;177;325;1
331;2;57;143;198;215;327;1
332;2;57;107;151;228;324;1
333;2;57;138;208;254;329;1
334;2;57;162;157;253;328;1
335;2;57;166;151;176;326;1
336;2;57;212;158;215;322;1
337;2;57;217;215;199;323;1
338;2;58;142;198;216;331;1
339;2;58;168;219;179;330;1
340;2;58;108;149;227;332;1
341;2;58;161;156;255;334;1
342;2;58;216;215;202;337;1
343;2;58;211;158;218;336;1
344;2;58;137;205;256;333;1
345;2;58;167;149;180;335;1
346;2;59;142;197;216;338;1
347;2;59;161;155;255;341;1
348;2;59;168;220;180;339;1
349;2;59;212;157;218;343;1
350;2;59;109;149;228;340;1
351;2;59;215;214;203;342;1
352;2;59;167;147;180;345;1
353;2;59;136;203;256;344;1
354;2;60;167;148;180;352;1
355;2;60;136;203;255;353;1
356;2;60;167;220;179;348;1
357;2;60;161;156;254;347;1
358;2;60;211;158;217;349;1
359;2;60;141;198;217;346;1
360;2;60;108;149;226;350;1
361;2;60;215;216;201;351;1
362;2;61;167;147;180;354;1
363;2;61;211;159;217;358;1
364;2;61;162;156;254;357;1
365;2;61;214;216;202;361;1
366;2;61;108;150;227;360;1
367;2;61;140;199;218;359;1
368;2;61;136;202;257;355;1
369;2;61;167;222;182;356;1
370;2;62;216;216;201;365;1
371;2;62;211;161;215;363;1
372;2;62;108;153;226;366;1
373;2;62;162;157;251;364;1
374;2;62;139;202;261;368;1
375;2;62;142;203;222;367;1
376;2;62;169;227;189;369;1
377;2;62;169;155;167;362;1
378;2;63;107;153;226;372;1
379;2;63;142;202;225;375;1
380;2;63;210;157;214;371;1
381;2;63;163;153;250;373;1
382;2;63;218;212;203;370;1
383;2;63;139;196;264;374;1
384;2;63;172;228;195;376;1
385;2;63;166;148;170;377;1
386;2;64;212;157;214;380;1
387;2;64;167;149;172;385;1
388;2;64;221;210;202;382;1
389;2;64;166;155;249;381;1
390;2;64;108;153;222;378;1
391;2;64;175;229;197;384;1
392;2;64;145;206;226;379;1
393;2;64;144;198;265;383;1
394;2;64;156;151;169;385;1
395;2;65;108;152;222;390;1
396;2;65;212;157;216;386;1
397;2;65;146;209;220;392;1
398;2;65;176;229;190;391;1
399;2;65;167;163;250;389;1
400;2;65;221;208;194;388;1
401;2;65;145;206;260;393;1
402;2;65;181;141;192;387;1
403;2;65;133;182;161;394;1
404;2;66;145;209;220;397;1
405;2;66;168;162;250;399;1
406;2;66;146;207;260;401;1
407;2;66;219;209;194;400;1
408;2;66;212;159;217;396;1
409;2;66;174;226;190;398;1
410;2;66;112;150;223;395;1
411;2;66;183;144;188;402;1
412;2;66;127;170;165;403;1
413;2;67;146;205;261;406;1
414;2;67;144;207;221;404;1
415;2;67;213;162;217;408;1
416;2;67;173;228;192;409;1
417;2;67;166;159;248;405;1
418;2;67;218;211;198;407;1
419;2;67;130;172;162;412;1
420;2;67;188;149;185;411;1
421;2;67;135;132;200;410;1
422;2;67;111;174;251;410;1
423;2;68;172;226;192;416;1
424;2;68;164;160;248;417;1
425;2;68;144;204;261;413;1
426;2;68;212;163;219;415;1
427;2;68;217;212;201;418;1
428;2;68;190;150;188;420;1
429;2;68;141;204;219;414;1
430;2;68;133;175;161;419;1
431;2;68;108;168;251;422;1
432;2;68;125;139;198;421;1
433;2;69;191;151;188;428;1
434;2;69;211;163;220;426;1
435;2;69;165;159;249;424;1
436;2;69;217;212;203;427;1
437;2;69;172;225;194;423;1
438;2;69;146;204;259;425;1
439;2;69;138;201;219;429;1
440;2;69;129;175;163;430;1
441;2;69;129;138;200;432;1
442;2;69;111;172;253;431;1
443;2;70;165;158;249;435;1
444;2;70;210;161;222;434;1
445;2;70;146;204;256;438;1
446;2;70;113;171;256;442;1
447;2;70;188;148;189;433;1
448;2;70;131;134;203;441;1
449;2;70;220;207;202;436;1
450;2;70;134;195;215;439;1
451;2;70;170;225;183;437;1
452;2;70;128;168;167;440;1
453;2;71;146;205;253;445;1
454;2;71;164;159;253;443;1
455;2;71;114;173;260;446;1
456;2;71;184;149;192;447;1
457;2;71;207;158;226;444;1
458;2;71;132;190;218;450;1
459;2;71;222;200;204;449;1
460;2;71;169;225;174;451;1
461;2;71;129;131;212;448;1
462;2;71;125;167;170;452;1
463;2;72;223;199;205;459;1
464;2;72;205;157;227;457;1
465;2;72;165;161;254;454;1
466;2;72;116;172;261;455;1
467;2;72;181;149;193;456;1
468;2;72;145;206;250;453;1
469;2;72;131;129;215;461;1
470;2;72;128;188;218;458;1
471;2;72;123;162;173;462;1
472;2;72;171;227;186;460;1
473;2;72;161;208;169;460;1
474;2;73;222;201;205;463;1
475;2;73;117;174;262;466;1
476;2;73;165;163;257;465;1
477;2;73;180;147;196;467;1
478;2;73;203;155;230;464;1
479;2;73;125;185;217;470;1
480;2;73;145;208;244;468;1
481;2;73;133;126;224;469;1
482;2;73;124;150;182;471;1
483;2;73;183;223;193;472;1
484;2;73;137;187;157;473;1
485;2;74;126;186;218;479;1
486;2;74;166;164;256;476;1
487;2;74;202;154;228;478;1
488;2;74;137;185;155;484;1
489;2;74;148;208;243;480;1
490;2;74;120;174;263;475;1
491;2;74;178;148;193;477;1
492;2;74;133;125;228;481;1
493;2;74;120;150;184;482;1
494;2;74;224;201;199;474;1
495;2;74;178;215;186;483;1
496;2;75;167;166;255;486;1
497;2;75;200;154;226;487;1
498;2;75;119;176;261;490;1
499;2;75;150;210;241;489;1
500;2;75;134;128;225;492;1
501;2;75;120;153;180;493;1
502;2;75;127;189;213;485;1
503;2;75;139;191;157;488;1
504;2;75;177;154;188;491;1
505;2;75;173;228;184;495;1
506;2;75;233;174;193;494;1
507;2;75;200;229;207;494;1
508;2;76;166;164;256;496;1
509;2;76;129;189;210;502;1
510;2;76;199;157;228;497;1
511;2;76;136;126;222;500;1
512;2;76;179;158;187;504;1
513;2;76;143;194;157;503;1
514;2;76;118;170;259;498;1
515;2;76;147;207;248;499;1
516;2;76;229;179;199;506;1
517;2;76;164;235;196;505;1
518;2;76;186;229;219;507;1
519;2;76;129;151;174;501;1
520;2;77;164;162;255;508;1
521;2;77;197;154;228;510;1
522;2;77;115;169;257;514;1
523;2;77;148;207;253;515;1
524;2;77;135;129;217;511;1
525;2;77;133;193;208;509;1
526;2;77;166;237;202;517;1
527;2;77;182;164;185;512;1
528;2;77;184;227;229;518;1
529;2;77;225;177;209;516;1
530;2;77;154;199;157;513;1
531;2;77;134;152;169;519;1
532;2;78;165;234;205;526;1
533;2;78;197;150;226;521;1
534;2;78;223;174;213;529;1
535;2;78;185;166;180;527;1
536;2;78;163;156;253;520;1
537;2;78;158;205;158;530;1
538;2;78;138;187;206;525;1
539;2;78;140;154;163;531;1
540;2;78;136;128;208;524;1
541;2;78;141;204;248;523;1
542;2;78;179;220;233;528;1
543;2;78;114;158;251;522;1
544;2;79;145;156;164;539;1
545;2;79;171;216;238;542;1
546;2;79;190;176;175;535;1
547;2;79;174;152;248;536;1
548;2;79;146;209;166;537;1
549;2;79;225;189;210;534;1
550;2;79;209;159;219;533;1
551;2;79;141;187;252;541;1
552;2;79;153;126;203;540;1
553;2;79;147;226;212;532;1
554;2;79;126;139;244;543;1
555;1;79;171;180;207;538;1
556;2;79;101;179;216;538;1
557;2;80;209;164;218;550;1
558;1;80;171;180;201;555;1
559;2;80;193;180;170;546;1
560;2;80;166;216;232;545;1
561;2;80;146;205;159;548;1
562;2;80;223;197;211;549;1
563;2;80;133;139;239;554;1
564;2;80;174;160;244;547;1
565;2;80;163;126;204;552;1
566;2;80;103;170;219;556;1
567;2;80;144;225;200;553;1
568;2;80;144;202;269;551;1
569;1;80;131;181;214;551;1
570;2;80;158;153;164;544;1
571;1;81;173;181;202;558;1
572;2;81;163;217;231;560;1
573;2;81;165;126;207;565;1
574;2;81;131;144;239;563;1
575;2;81;220;200;215;562;1
576;2;81;145;224;194;567;1
577;2;81;198;180;174;559;1
578;2;81;170;165;245;564;1
579;2;81;147;196;271;568;1
580;2;81;208;169;224;557;1
581;2;81;106;174;212;566;1
582;2;81;155;204;156;561;1
583;1;81;136;180;203;569;1
584;2;81;166;153;161;570;1
585;2;82;218;201;214;575;1
586;2;82;164;216;229;572;1
587;1;82;173;183;200;571;1
588;2;82;165;128;205;573;1
589;2;82;200;182;173;577;1
590;2;82;144;223;191;576;1
591;2;82;147;198;268;579;1
592;2;82;207;171;221;580;1
593;2;82;158;206;153;582;1
594;2;82;171;156;158;584;1
595;1;82;135;180;195;583;1
596;2;82;162;167;243;578;1
597;2;82;106;176;204;581;1
598;2;82;125;145;229;574;1
599;2;83;200;183;174;589;1
600;2;83;165;128;203;588;1
601;1;83;173;182;202;587;1
602;1;83;137;181;197;595;1
603;2;83;216;200;217;585;1
604;2;83;206;167;221;592;1
605;2;83;161;163;245;596;1
606;2;83;108;176;199;597;1
607;2;83;173;161;157;594;1
608;2;83;143;194;269;591;1
609;2;83;147;223;196;590;1
610;2;83;160;211;157;593;1
611;2;83;123;143;222;598;1
612;2;83;165;212;236;586;1
613;1;84;136;183;196;602;1
614;2;84;200;185;176;599;1
615;2;84;174;164;157;607;1
616;2;84;147;224;199;609;1
617;1;84;172;185;202;601;1
618;2;84;203;166;220;604;1
619;2;84;109;178;196;606;1
620;2;84;163;130;200;600;1
621;2;84;123;142;218;611;1
622;2;84;161;214;160;610;1
623;2;84;144;189;269;608;1
624;2;84;212;199;221;603;1
625;2;84;164;210;242;612;1
626;1;84;156;178;228;605;1
627;2;84;165;144;262;605;1
628;2;85;201;187;178;614;1
629;1;85;171;187;199;617;1
630;1;85;154;181;225;626;1
631;2;85;150;225;204;616;1
632;2;85;123;142;212;621;1
633;1;85;135;187;190;613;1
634;2;85;198;160;220;618;1
635;2;85;176;171;155;615;1
636;2;85;162;131;192;620;1
637;2;85;208;193;225;624;1
638;2;85;164;221;164;622;1
639;2;85;110;181;188;619;1
640;2;85;163;202;247;625;1
641;2;85;144;173;264;623;1
642;2;85;161;126;257;627;1
643;2;86;209;192;224;637;1
644;2;86;198;159;222;634;1
645;2;86;152;224;206;631;1
646;2;86;162;219;166;638;1
647;2;86;199;184;179;628;1
648;1;86;170;185;202;629;1
649;1;86;156;181;229;630;1
650;2;86;163;130;258;642;1
651;2;86;167;204;249;640;1
652;2;86;173;170;158;635;1
653;2;86;112;183;193;639;1
654;2;86;159;130;197;636;1
655;2;86;149;175;267;641;1
656;2;86;122;143;219;632;1
657;1;86;135;187;198;633;1
658;1;87;170;185;203;648;1
659;1;87;157;182;229;649;1
660;1;87;134;187;200;657;1
661;2;87;153;224;204;645;1
662;2;87;198;161;221;644;1
663;2;87;160;217;165;646;1
664;2;87;157;129;199;654;1
665;2;87;122;144;222;656;1
666;2;87;197;183;176;647;1
667;2;87;113;184;197;653;1
668;2;87;171;205;248;651;1
669;2;87;165;132;254;650;1
670;2;87;169;167;158;652;1
671;2;87;211;196;221;643;1
672;2;87;154;178;265;655;1
673;1;88;157;181;229;659;1
674;1;88;134;187;202;660;1
675;1;88;170;183;203;658;1
676;2;88;114;184;195;667;1
677;2;88;156;129;201;664;1
678;2;88;195;182;177;666;1
679;2;88;155;224;202;661;1
680;2;88;158;215;164;663;1
681;2;88;196;160;223;662;1
682;2;88;173;207;247;668;1
683;2;88;154;181;264;672;1
684;2;88;210;199;220;671;1
685;2;88;120;147;223;665;1
686;2;88;169;164;161;670;1
687;2;88;158;134;254;669;1
688;2;89;158;216;165;680;1
689;1;89;157;180;230;673;1
690;2;89;156;223;203;679;1
691;1;89;171;184;204;675;1
692;2;89;211;200;219;684;1
693;1;89;135;189;203;674;1
694;2;89;154;178;264;683;1
695;2;89;172;165;162;686;1
696;2;89;174;204;248;682;1
697;2;89;118;149;221;685;1
698;2;89;198;184;177;678;1
699;2;89;156;131;198;677;1
700;2;89;115;184;191;676;1
701;2;89;154;134;247;687;1
702;1;89;188;161;219;681;1
703;2;89;205;161;232;681;1
704;1;90;156;174;229;689;1
705;2;90;114;154;219;697;1
706;1;90;165;187;201;691;1
707;2;90;212;193;214;692;1
708;1;90;133;193;211;693;1
709;2;90;190;192;173;698;1
710;2;90;162;223;217;690;1
711;2;90;155;227;177;688;1
712;2;90;182;190;248;696;1
713;1;90;171;168;201;702;1
714;2;90;113;192;208;700;1
715;2;90;152;131;228;701;1
716;2;90;143;136;184;699;1
717;2;90;164;163;257;694;1
718;2;90;158;180;158;695;1
719;2;90;220;142;226;703;1
720;2;91;114;190;210;714;1
721;1;91;166;185;204;706;1
722;2;91;212;192;218;707;1
723;1;91;157;171;230;704;1
724;2;91;146;138;181;716;1
725;1;91;135;191;215;708;1
726;2;91;190;195;177;709;1
727;2;91;116;149;219;705;1
728;2;91;158;185;161;718;1
729;1;91;176;167;202;713;1
730;2;91;163;157;258;717;1
731;2;91;180;184;252;712;1
732;2;91;155;126;222;715;1
733;2;91;161;220;225;710;1
734;2;91;155;228;187;711;1
735;2;91;224;151;221;719;1
736;1;92;167;185;204;721;1
737;1;92;135;190;215;725;1
738;2;92;115;190;209;720;1
739;2;92;212;193;219;722;1
740;2;92;180;183;253;731;1
741;1;92;157;169;229;723;1
742;2;92;157;187;162;728;1
743;1;92;178;166;203;729;1
744;2;92;117;150;217;727;1
745;2;92;160;219;227;733;1
746;2;92;190;197;179;726;1
747;2;92;155;228;190;734;1
748;2;92;149;139;179;724;1
749;2;92;161;154;256;730;1
750;2;92;156;127;218;732;1
751;2;92;224;159;218;735;1
752;2;93;212;194;218;739;1
753;2;93;162;155;255;749;1
754;2;93;155;228;188;747;1
755;2;93;157;128;216;750;1
756;2;93;118;152;216;744;1
757;1;93;169;185;202;736;1
758;2;93;192;198;177;746;1
759;1;93;137;189;213;737;1
760;2;93;162;218;225;745;1
761;2;93;180;183;250;740;1
762;2;93;159;189;160;742;1
763;2;93;223;162;216;751;1
764;2;93;116;190;205;738;1
765;1;93;159;167;226;741;1
766;2;93;149;141;175;748;1
767;1;93;182;164;200;743;1
768;1;94;137;190;213;759;1
769;1;94;159;166;226;765;1
770;2;94;150;142;175;766;1
771;1;94;170;185;203;757;1
772;2;94;156;227;189;754;1
773;2;94;161;217;226;760;1
774;1;94;182;164;202;767;1
775;2;94;117;152;214;756;1
776;2;94;155;129;216;755;1
777;2;94;162;189;161;762;1
778;2;94;119;191;204;764;1
779;2;94;158;155;255;753;1
780;2;94;210;194;222;752;1
781;2;94;194;199;181;758;1
782;2;94;176;182;253;761;1
783;2;94;218;160;219;763;1
784;2;95;195;200;181;781;1
785;1;95;171;186;202;771;1
786;2;95;164;190;160;777;1
787;2;95;155;227;186;772;1
788;2;95;209;197;222;780;1
789;1;95;185;165;203;774;1
790;2;95;159;216;223;773;1
791;1;95;136;190;209;768;1
792;2;95;117;153;210;775;1
793;2;95;156;129;212;776;1
794;1;95;159;165;222;769;1
795;2;95;174;184;251;782;1
796;2;95;214;162;218;783;1
797;2;95;152;144;171;770;1
798;2;95;154;156;251;779;1
799;2;95;118;192;197;778;1
800;2;96;159;216;223;790;1
801;1;96;160;165;223;794;1
802;2;96;153;157;251;798;1
803;2;96;173;184;252;795;1
804;2;96;157;130;213;793;1
805;2;96;208;198;223;788;1
806;1;96;138;190;209;791;1
807;2;96;119;153;210;792;1
808;2;96;154;144;172;797;1
809;1;96;172;186;204;785;1
810;2;96;196;199;183;784;1
811;1;96;186;164;205;789;1
812;2;96;213;164;219;796;1
813;2;96;157;225;186;787;1
814;2;96;119;192;194;799;1
815;2;96;167;188;160;786;1
816;1;97;172;186;204;809;1
817;2;97;152;157;251;802;1
818;2;97;155;144;173;808;1
819;2;97;157;224;187;813;1
820;2;97;120;191;194;814;1
821;2;97;158;131;214;804;1
822;1;97;161;164;224;801;1
823;2;97;196;198;185;810;1
824;1;97;186;163;207;811;1
825;1;97;137;190;211;806;1
826;2;97;119;152;212;807;1
827;2;97;168;187;162;815;1
828;2;97;157;215;224;800;1
829;2;97;172;185;254;803;1
830;2;97;205;199;224;805;1
831;2;97;210;165;222;812;1
832;2;98;155;144;173;818;1
833;2;98;197;198;185;823;1
834;2;98;209;165;222;831;1
835;2;98;206;200;223;830;1
836;2;98;170;186;162;827;1
837;1;98;174;187;204;816;1
838;2;98;120;154;212;826;1
839;2;98;157;133;214;821;1
840;1;98;162;166;224;822;1
841;1;98;187;162;209;824;1
842;1;98;139;190;209;825;1
843;2;98;151;160;251;817;1
844;2;98;121;192;191;820;1
845;2;98;159;225;184;819;1
846;2;98;158;217;221;828;1
847;2;98;171;188;252;829;1
848;2;99;120;154;213;838;1
849;1;99;139;191;208;842;1
850;2;99;205;200;222;835;1
851;1;99;174;186;203;837;1
852;2;99;208;166;223;834;1
853;2;99;159;217;219;846;1
854;2;99;122;191;189;844;1
855;1;99;188;161;211;841;1
856;2;99;150;162;250;843;1
857;2;99;159;223;182;845;1
858;2;99;170;183;161;836;1
859;2;99;197;195;184;833;1
860;2;99;172;191;251;847;1
861;2;99;154;142;176;832;1
862;1;99;165;167;226;840;1
863;2;99;157;134;218;839;1
864;2;100;122;191;189;854;1
865;2;100;159;222;181;857;1
866;1;100;138;191;207;849;1
867;1;100;187;160;212;855;1
868;2;100;159;217;217;853;1
869;2;100;121;154;215;848;1
870;2;100;203;200;221;850;1
871;2;100;171;193;251;860;1
872;1;100;173;185;202;851;1
873;2;100;195;193;184;859;1
874;1;100;164;168;229;862;1
875;2;100;206;166;226;852;1
876;2;100;168;180;162;858;1
877;2;100;153;143;180;861;1
878;2;100;158;133;222;863;1
879;2;100;150;165;253;856;1
880;2;101;195;192;183;873;1
881;1;101;187;161;213;867;1
882;2;101;120;155;216;869;1
883;2;101;206;168;226;875;1
884;2;101;159;221;179;865;1
885;2;101;122;190;187;864;1
886;1;101;174;185;200;872;1
887;1;101;138;192;205;866;1
888;1;101;165;170;229;874;1
889;2;101;171;195;250;871;1
890;2;101;168;177;163;876;1
891;2;101;202;203;220;870;1
892;2;101;158;136;224;878;1
893;2;101;158;219;214;868;1
894;2;101;148;168;252;879;1
895;2;101;154;138;183;877;1
896;2;102;168;177;164;890;1
897;2;102;159;220;179;884;1
898;1;102;137;191;205;887;1
899;2;102;155;138;185;895;1
900;2;102;121;188;187;885;1
901;1;102;187;162;215;881;1
902;1;102;165;171;231;888;1
903;2;102;147;168;254;894;1
904;1;102;172;186;201;886;1
905;2;102;155;219;214;893;1
906;2;102;122;154;218;882;1
907;2;102;201;205;222;891;1
908;2;102;194;193;186;880;1
909;2;102;205;169;229;883;1
910;2;102;160;136;227;892;1
911;2;102;168;197;250;889;1
912;2;103;205;170;229;909;1
913;2;103;167;198;250;911;1
914;2;103;154;218;213;905;1
915;2;103;199;204;221;907;1
916;1;103;184;162;217;901;1
917;2;103;160;134;230;910;1
918;1;103;134;190;207;898;1
919;2;103;121;152;221;906;1
920;2;103;156;218;177;897;1
921;2;103;119;185;189;900;1
922;2;103;147;169;258;903;1
923;1;103;164;172;235;902;1
924;2;103;164;174;165;896;1
925;2;103;189;192;187;908;1
926;1;103;167;186;204;904;1
927;2;103;154;138;191;899;1
928;1;104;163;173;236;923;1
929;1;104;164;186;204;926;1
930;2;104;122;150;223;919;1
931;2;104;145;171;259;922;1
932;2;104;161;176;165;924;1
933;2;104;192;192;184;925;1
934;2;104;160;137;233;917;1
935;2;104;116;181;188;921;1
936;2;104;149;217;211;914;1
937;1;104;185;167;219;916;1
938;1;104;130;186;207;918;1
939;2;104;163;202;250;913;1
940;2;104;195;208;222;915;1
941;2;104;204;175;230;912;1
942;2;104;150;215;177;920;1
943;2;104;158;142;195;927;1
944;2;105;150;215;178;942;1
945;1;105;165;186;204;929;1
946;2;105;162;203;249;939;1
947;2;105;147;218;211;936;1
948;2;105;147;172;259;931;1
949;2;105;163;177;166;932;1
950;1;105;165;174;236;928;1
951;1;105;131;183;208;938;1
952;1;105;186;170;221;937;1
953;2;105;193;213;223;940;1
954;2;105;118;175;188;935;1
955;2;105;205;182;230;941;1
956;2;105;162;136;195;943;1
957;2;105;128;146;225;930;1
958;2;105;166;141;236;934;1
959;2;105;197;166;177;933;1
960;2;105;186;217;195;933;1
961;2;106;151;215;179;944;1
962;2;106;118;176;189;954;1
963;2;106;148;172;260;948;1
964;1;106;129;185;207;951;1
965;1;106;168;188;204;945;1
966;2;106;145;217;214;947;1
967;1;106;168;176;238;950;1
968;2;106;159;203;252;946;1
969;1;106;189;174;220;952;1
970;2;106;164;176;171;949;1
971;2;106;193;162;181;959;1
972;2;106;204;189;230;955;1
973;2;106;172;145;237;958;1
974;2;106;130;147;232;957;1
975;2;106;188;218;227;953;1
976;2;106;175;222;204;960;1
977;2;106;138;158;203;956;1
978;2;106;192;133;195;956;1
979;2;107;117;175;187;962;1
980;2;107;170;144;238;973;1
981;1;107;130;183;209;964;1
982;1;107;190;171;220;969;1
983;2;107;204;190;227;972;1
984;1;107;168;175;235;967;1
985;2;107;128;149;234;974;1
986;2;107;135;158;205;977;1
987;2;107;147;174;258;963;1
988;2;107;143;213;210;966;1
989;2;107;159;204;246;968;1
990;2;107;191;157;184;971;1
991;1;107;169;182;203;965;1
992;2;107;174;218;198;976;1
993;2;107;195;135;202;978;1
994;2;107;151;208;175;961;1
995;2;107;163;168;171;970;1
996;2;107;186;218;218;975;1
997;2;108;120;174;187;979;1
998;1;108;193;173;221;982;1
999;2;108;160;201;249;989;1
1000;2;108;195;159;184;990;1
1001;2;108;182;220;220;996;1
1002;1;108;172;174;237;984;1
1003;2;108;205;195;228;983;1
1004;2;108;170;216;201;992;1
1005;2;108;141;208;213;988;1
1006;1;108;131;177;212;981;1
1007;1;108;171;181;210;991;1
1008;2;108;165;162;175;995;1
1009;2;108;150;168;258;987;1
1010;2;108;141;153;205;986;1
1011;2;108;175;141;234;980;1
1012;2;108;152;200;178;994;1
1013;2;108;133;142;232;985;1
1014;2;108;203;141;203;993;1
1015;1;109;173;175;235;1002;1
1016;2;109;149;167;255;1009;1
1017;2;109;168;214;199;1004;1
1018;1;109;172;183;207;1007;1
1019;1;109;195;175;220;998;1
1020;2;109;137;139;230;1013;1
1021;2;109;180;143;233;1011;1
1022;2;109;170;164;173;1008;1
1023;2;109;155;201;246;999;1
1024;2;109;146;150;202;1010;1
1025;2;109;137;203;211;1005;1
1026;2;109;199;166;184;1000;1
1027;2;109;208;147;201;1014;1
1028;2;109;148;199;171;1012;1
1029;1;109;132;171;207;1006;1
1030;2;109;200;202;227;1003;1
1031;2;109;173;220;217;1001;1
1032;2;109;122;165;183;997;1
1033;1;110;172;183;207;1018;1
1034;2;110;170;164;175;1022;1
1035;2;110;137;201;211;1025;1
1036;2;110;135;138;230;1020;1
1037;1;110;171;175;236;1015;1
1038;2;110;147;148;203;1024;1
1039;2;110;178;144;234;1021;1
1040;2;110;147;166;256;1016;1
1041;2;110;169;220;218;1031;1
1042;1;110;133;167;208;1029;1
1043;1;110;194;176;224;1019;1
1044;2;110;151;200;245;1023;1
1045;2;110;207;150;204;1027;1
1046;2;110;200;171;185;1026;1
1047;2;110;197;204;231;1030;1
1048;2;110;118;161;186;1032;1
1049;2;110;167;218;177;1028;1
1050;2;110;128;174;163;1028;1
1051;2;110;172;215;200;1017;1
1052;1;111;171;174;238;1037;1
1053;2;111;136;199;212;1035;1
1054;1;111;195;180;225;1043;1
1055;1;111;138;167;208;1042;1
1056;2;111;124;160;186;1048;1
1057;2;111;149;160;254;1040;1
1058;2;111;184;145;230;1039;1
1059;2;111;194;207;237;1047;1
1060;2;111;148;194;250;1044;1
1061;1;111;173;187;215;1033;1
1062;2;111;209;160;201;1045;1
1063;2;111;142;135;222;1036;1
1064;2;111;157;153;199;1038;1
1065;2;111;165;222;229;1041;1
1066;2;111;197;185;186;1046;1
1067;2;111;165;224;193;1049;1
1068;2;111;186;151;157;1034;1
1069;2;111;160;194;185;1034;1
1070;2;111;174;224;207;1051;1
1071;2;111;136;171;176;1050;1
1072;1;112;196;184;220;1054;1
1073;1;112;173;183;208;1061;1
1074;2;112;183;205;239;1059;1
1075;2;112;156;171;253;1060;1
1076;1;112;145;157;203;1055;1
1077;1;112;179;167;232;1052;1
1078;2;112;150;185;188;1069;1
1079;2;112;190;197;182;1066;1
1080;2;112;215;175;195;1062;1
1081;2;112;201;148;221;1058;1
1082;2;112;136;144;184;1056;1
1083;2;112;173;150;187;1064;1
1084;2;112;157;216;211;1070;1
1085;2;112;203;162;162;1068;1
1086;2;112;146;211;198;1067;1
1087;2;112;150;206;232;1065;1
1088;1;112;150;167;232;1053;1
1089;2;112;168;142;246;1057;1
1090;2;112;140;164;168;1071;1
1091;2;112;167;126;212;1063;1
1092;2;112;117;197;188;1053;1
1093;1;113;144;157;203;1076;1
1094;2;113;140;163;167;1090;1
1095;2;113;168;127;212;1091;1
1096;2;113;174;151;187;1083;1
1097;2;113;149;204;231;1087;1
1098;2;113;136;142;186;1082;1
1099;2;113;181;207;239;1074;1
1100;2;113;188;200;183;1079;1
1101;2;113;151;182;186;1078;1
1102;1;113;180;169;229;1077;1
1103;2;113;157;217;207;1084;1
1104;2;113;215;178;192;1080;1
1105;2;113;143;208;198;1086;1
1106;2;113;200;163;165;1085;1
1107;2;113;159;172;250;1075;1
1108;1;113;171;184;204;1073;1
1109;1;113;153;170;230;1088;1
1110;1;113;197;188;217;1072;1
1111;2;113;203;152;218;1081;1
1112;2;113;118;191;188;1092;1
1113;2;113;174;144;245;1089;1
1114;2;114;143;208;197;1105;1
1115;1;114;196;188;217;1110;1
1116;2;114;152;182;185;1101;1
1117;2;114;119;192;188;1112;1
1118;2;114;180;207;240;1099;1
1119;1;114;142;157;203;1093;1
1120;2;114;138;163;168;1094;1
1121;2;114;189;200;185;1100;1
1122;2;114;158;174;250;1107;1
1123;2;114;148;205;229;1097;1
1124;1;114;178;170;230;1102;1
1125;1;114;171;184;201;1108;1
1126;2;114;172;146;247;1113;1
1127;2;114;214;175;194;1104;1
1128;1;114;151;173;229;1109;1
1129;2;114;134;141;190;1098;1
1130;2;114;159;218;203;1103;1
1131;2;114;201;151;222;1111;1
1132;2;114;174;148;191;1096;1
1133;2;114;164;126;217;1095;1
1134;2;114;197;160;171;1106;1
1135;2;115;190;201;184;1121;1
1136;2;115;120;194;188;1117;1
1137;2;115;199;149;221;1131;1
1138;2;115;169;146;246;1126;1
1139;2;115;173;146;188;1132;1
1140;1;115;171;183;197;1125;1
1141;2;115;181;207;236;1118;1
1142;1;115;195;186;213;1115;1
1143;2;115;130;144;190;1129;1
1144;1;115;139;159;199;1119;1
1145;2;115;159;128;217;1133;1
1146;2;115;150;208;225;1123;1
1147;2;115;192;159;169;1134;1
1148;2;115;213;171;192;1127;1
1149;1;115;180;169;225;1124;1
1150;2;115;134;166;165;1120;1
1151;2;115;157;178;246;1122;1
1152;2;115;152;183;178;1116;1
1153;2;115;143;213;191;1114;1
1154;2;115;163;221;196;1130;1
1155;1;115;150;176;219;1128;1
1156;2;116;153;184;178;1152;1
1157;2;116;143;212;192;1153;1
1158;1;116;171;181;198;1140;1
1159;1;116;148;177;219;1155;1
1160;1;116;137;160;200;1144;1
1161;2;116;120;196;190;1136;1
1162;2;116;152;206;226;1146;1
1163;2;116;127;145;191;1143;1
1164;2;116;170;143;247;1138;1
1165;1;116;195;184;216;1142;1
1166;2;116;156;128;219;1145;1
1167;2;116;199;147;224;1137;1
1168;2;116;132;169;166;1150;1
1169;1;116;179;166;227;1149;1
1170;2;116;173;143;191;1139;1
1171;2;116;181;204;239;1141;1
1172;2;116;211;167;193;1148;1
1173;2;116;167;220;198;1154;1
1174;2;116;156;174;248;1151;1
1175;2;116;192;199;188;1135;1
1176;2;116;187;158;170;1147;1
1177;2;117;168;221;199;1173;1
1178;2;117;173;144;189;1170;1
1179;2;117;126;143;191;1163;1
1180;2;117;211;166;191;1172;1
1181;2;117;199;148;222;1167;1
1182;1;117;180;165;225;1169;1
1183;2;117;154;206;224;1162;1
1184;2;117;120;196;193;1161;1
1185;2;117;129;170;166;1168;1
1186;2;117;153;185;175;1156;1
1187;1;117;195;185;213;1165;1
1188;2;117;193;202;187;1175;1
1189;2;117;183;202;241;1171;1
1190;2;117;170;147;247;1164;1
1191;2;117;184;160;168;1176;1
1192;2;117;141;212;188;1157;1
1193;2;117;155;132;217;1166;1
1194;1;117;173;182;192;1158;1
1195;1;117;135;161;194;1160;1
1196;1;117;145;180;211;1159;1
1197;1;117;160;177;224;1174;1
1198;2;117;144;167;270;1174;1
1199;2;118;168;221;199;1177;1
1200;2;118;194;202;188;1188;1
1201;1;118;174;182;191;1194;1
1202;2;118;185;159;169;1191;1
1203;1;118;181;165;227;1182;1
1204;2;118;181;202;240;1189;1
1205;2;118;212;165;193;1180;1
1206;2;118;174;142;190;1178;1
1207;1;118;194;187;215;1187;1
1208;2;118;140;213;185;1192;1
1209;2;118;152;134;218;1193;1
1210;2;118;128;142;187;1179;1
1211;2;118;197;149;226;1181;1
1212;2;118;168;151;250;1190;1
1213;2;118;121;198;188;1184;1
1214;2;118;157;185;171;1186;1
1215;2;118;149;206;229;1183;1
1216;1;118;164;178;218;1197;1
1217;1;118;142;183;205;1196;1
1218;1;118;138;162;187;1195;1
1219;2;118;133;171;159;1185;1
1220;2;118;134;165;266;1198;1
1221;2;119;196;148;226;1211;1
1222;2;119;174;141;192;1206;1
1223;2;119;134;174;158;1219;1
1224;2;119;159;188;168;1214;1
1225;1;119;177;181;188;1201;1
1226;1;119;143;188;206;1217;1
1227;1;119;168;180;215;1216;1
1228;2;119;183;154;168;1202;1
1229;2;119;125;147;188;1210;1
1230;1;119;199;186;212;1207;1
1231;2;119;212;159;193;1205;1
1232;1;119;184;170;229;1203;1
1233;2;119;186;204;237;1204;1
1234;2;119;144;216;181;1208;1
1235;2;119;125;202;185;1213;1
1236;1;119;137;167;183;1218;1
1237;2;119;200;201;185;1200;1
1238;2;119;167;158;249;1212;1
1239;2;119;175;224;194;1199;1
1240;2;119;142;173;263;1220;1
1241;2;119;136;217;238;1215;1
1242;1;119;171;203;212;1215;1
1243;2;119;146;116;231;1209;1
1244;1;119;159;158;205;1209;1
1245;2;120;167;158;249;1238;1
1246;2;120;160;188;169;1224;1
1247;1;120;183;169;230;1232;1
1248;2;120;195;145;226;1221;1
1249;1;120;161;155;205;1244;1
1250;1;120;177;177;189;1225;1
1251;1;120;165;179;218;1227;1
1252;1;120;138;170;187;1236;1
1253;2;120;180;223;195;1239;1
1254;2;120;202;196;184;1237;1
1255;1;120;201;181;211;1230;1
1256;2;120;191;201;238;1233;1
1257;2;120;148;174;263;1240;1
1258;2;120;177;153;169;1228;1
1259;2;120;123;152;191;1229;1
1260;2;120;129;203;190;1235;1
1261;2;120;170;138;196;1222;1
1262;2;120;131;212;239;1241;1
1263;2;120;148;220;186;1234;1
1264;1;120;144;193;212;1226;1
1265;1;120;176;198;209;1242;1
1266;2;120;132;181;161;1223;1
1267;2;120;208;151;191;1231;1
1268;2;120;139;120;242;1243;1
1269;1;121;183;170;229;1247;1
1270;2;121;167;157;248;1245;1
1271;2;121;191;202;236;1256;1
1272;2;121;181;225;196;1253;1
1273;2;121;131;205;190;1260;1
1274;2;121;170;140;194;1261;1
1275;2;121;176;155;167;1258;1
1276;2;121;204;198;183;1254;1
1277;1;121;178;201;209;1265;1
1278;2;121;133;213;236;1262;1
1279;2;121;195;145;222;1248;1
1280;2;121;133;185;161;1266;1
1281;1;121;177;181;188;1250;1
1282;1;121;163;158;207;1249;1
1283;1;121;201;180;207;1255;1
1284;1;121;146;197;212;1264;1
1285;2;121;163;191;167;1246;1
1286;2;121;151;222;183;1263;1
1287;2;121;150;175;259;1257;1
1288;1;121;166;183;221;1251;1
1289;2;121;207;152;186;1267;1
1290;2;121;141;121;235;1268;1
1291;2;121;127;156;196;1259;1
1292;1;121;143;175;186;1252;1
1293;2;122;150;175;258;1287;1
1294;2;122;130;204;189;1273;1
1295;2;122;133;183;162;1280;1
1296;2;122;176;154;169;1275;1
1297;1;122;178;202;211;1277;1
1298;2;122;196;145;224;1279;1
1299;2;122;166;156;250;1270;1
1300;2;122;182;224;199;1272;1
1301;2;122;210;152;188;1289;1
1302;2;122;165;190;170;1285;1
1303;2;122;133;213;232;1278;1
1304;2;122;188;202;239;1271;1
1305;2;122;152;219;180;1286;1
1306;1;122;144;197;216;1284;1
1307;2;122;174;139;196;1274;1
1308;1;122;181;181;191;1281;1
1309;1;122;182;171;234;1269;1
1310;2;122;208;197;187;1276;1
1311;1;122;203;182;213;1283;1
1312;1;122;167;156;212;1282;1
1313;1;122;165;186;227;1288;1
1314;2;122;134;155;197;1291;1
1315;1;122;149;179;189;1292;1
1316;2;122;141;132;231;1290;1
1317;2;123;165;189;171;1302;1
1318;2;123;196;146;225;1298;1
1319;2;123;132;212;231;1303;1
1320;1;123;181;182;193;1308;1
1321;2;123;177;155;171;1296;1
1322;2;123;176;139;196;1307;1
1323;2;123;149;173;258;1293;1
1324;2;123;128;201;190;1294;1
1325;1;123;180;172;237;1309;1
1326;2;123;164;153;251;1299;1
1327;1;123;140;198;216;1306;1
1328;2;123;149;216;180;1305;1
1329;1;123;168;154;216;1312;1
1330;1;123;201;183;217;1311;1
1331;2;123;212;155;191;1301;1
1332;2;123;206;199;191;1310;1
1333;1;123;152;178;193;1315;1
1334;2;123;133;178;164;1295;1
1335;1;123;162;188;231;1313;1
1336;2;123;143;130;226;1316;1
1337;2;123;183;203;242;1304;1
1338;1;123;174;204;215;1297;1
1339;2;123;176;226;200;1300;1
1340;2;123;126;160;207;1314;1
1341;2;123;147;152;186;1314;1
1342;2;124;143;130;225;1336;1
1343;2;124;148;174;259;1323;1
1344;1;124;199;183;217;1330;1
1345;2;124;132;214;230;1319;1
1346;2;124;162;152;249;1326;1
1347;2;124;193;147;224;1318;1
1348;2;124;178;139;193;1322;1
1349;2;124;125;198;191;1324;1
1350;1;124;136;196;214;1327;1
1351;2;124;178;203;242;1337;1
1352;1;124;157;186;231;1335;1
1353;2;124;172;224;199;1339;1
1354;2;124;202;203;193;1332;1
1355;2;124;212;161;192;1331;1
1356;1;124;162;153;216;1329;1
1357;2;124;160;186;169;1317;1
1358;1;124;169;203;217;1338;1
1359;1;124;174;171;235;1325;1
1360;2;124;144;211;179;1328;1
1361;2;124;181;161;169;1321;1
1362;1;124;175;187;193;1320;1
1363;2;124;131;172;168;1334;1
1364;2;124;119;164;216;1340;1
1365;1;124;142;168;192;1333;1
1366;2;124;160;151;171;1341;1
1367;2;125;193;147;224;1347;1
1368;2;125;145;211;179;1360;1
1369;2;125;143;129;225;1342;1
1370;2;125;161;151;249;1346;1
1371;2;125;149;174;258;1343;1
1372;2;125;161;150;170;1366;1
1373;1;125;198;182;218;1344;1
1374;2;125;126;198;189;1349;1
1375;2;125;162;187;168;1357;1
1376;2;125;213;163;193;1355;1
1377;1;125;168;201;216;1358;1
1378;2;125;176;202;241;1351;1
1379;1;125;142;166;190;1365;1
1380;2;125;202;201;195;1354;1
1381;2;125;172;221;199;1353;1
1382;1;125;174;169;233;1359;1
1383;2;125;181;140;192;1348;1
1384;2;125;184;163;169;1361;1
1385;2;125;134;171;166;1363;1
1386;1;125;135;193;212;1350;1
1387;1;125;174;183;194;1362;1
1388;1;125;159;150;215;1356;1
1389;2;125;135;213;226;1345;1
1390;2;125;117;160;213;1364;1
1391;1;125;153;182;229;1352;1
1392;1;126;174;169;233;1382;1
1393;1;126;152;182;230;1391;1
1394;2;126;160;152;249;1370;1
1395;2;126;178;204;241;1378;1
1396;2;126;171;219;197;1381;1
1397;2;126;151;175;259;1371;1
1398;2;126;184;140;193;1383;1
1399;2;126;164;149;171;1372;1
1400;2;126;196;148;225;1367;1
1401;2;126;136;169;168;1385;1
1402;2;126;202;203;198;1380;1
1403;1;126;133;190;213;1386;1
1404;1;126;168;201;212;1377;1
1405;1;126;198;181;214;1373;1
1406;2;126;187;160;169;1384;1
1407;2;126;146;208;176;1368;1
1408;2;126;125;195;186;1374;1
1409;1;126;161;146;217;1388;1
1410;2;126;139;214;223;1389;1
1411;2;126;216;161;197;1376;1
1412;2;126;147;126;227;1369;1
1413;2;126;167;184;171;1375;1
1414;1;126;146;164;195;1379;1
1415;2;126;117;154;210;1390;1
1416;1;126;152;186;204;1387;1
1417;1;126;202;182;186;1387;1
1418;1;127;161;146;217;1409;1
1419;2;127;171;220;196;1396;1
1420;2;127;159;153;249;1394;1
1421;2;127;164;147;172;1399;1
1422;2;127;169;183;170;1413;1
1423;2;127;146;208;173;1407;1
1424;2;127;186;142;194;1398;1
1425;1;127;151;182;227;1393;1
1426;2;127;194;151;224;1400;1
1427;2;127;150;177;256;1397;1
1428;2;127;139;214;219;1410;1
1429;2;127;200;205;195;1402;1
1430;2;127;190;160;166;1406;1
1431;2;127;218;165;198;1411;1
1432;2;127;118;150;208;1415;1
1433;2;127;139;167;164;1401;1
1434;1;127;151;184;199;1416;1
1435;1;127;202;181;180;1417;1
1436;2;127;124;194;180;1408;1
1437;1;127;196;184;209;1405;1
1438;1;127;170;171;228;1392;1
1439;1;127;166;204;206;1404;1
1440;1;127;145;157;193;1414;1
1441;2;127;152;122;223;1412;1
1442;1;127;135;186;206;1403;1
1443;2;127;186;202;249;1395;1
1444;2;127;167;202;229;1395;1
1445;2;128;192;159;166;1430;1
1446;1;128;150;181;225;1425;1
1447;2;128;168;180;168;1422;1
1448;1;128;200;184;177;1435;1
1449;2;128;143;162;166;1433;1
1450;2;128;197;210;191;1429;1
1451;2;128;165;141;176;1421;1
1452;2;128;193;204;249;1443;1
1453;1;128;162;204;199;1439;1
1454;1;128;135;179;202;1442;1
1455;2;128;133;212;214;1428;1
1456;2;128;166;222;189;1419;1
1457;2;128;221;172;193;1431;1
1458;2;128;195;143;196;1424;1
1459;1;128;195;192;204;1437;1
1460;2;128;121;185;179;1436;1
1461;1;128;167;149;224;1418;1
1462;1;128;155;176;195;1434;1
1463;2;128;142;200;168;1423;1
1464;1;128;173;180;226;1438;1
1465;2;128;153;187;253;1427;1
1466;2;128;166;162;248;1420;1
1467;2;128;125;147;217;1432;1
1468;2;128;162;127;229;1441;1
1469;2;128;202;163;228;1426;1
1470;2;128;152;205;221;1444;1
1471;1;128;171;153;201;1440;1
1472;1;128;125;150;186;1440;1
1473;1;129;195;188;201;1459;1
1474;1;129;153;177;200;1462;1
1475;1;129;162;150;221;1461;1
1476;2;129;191;212;189;1450;1
1477;1;129;166;151;197;1471;1
1478;1;129;179;178;227;1464;1
1479;1;129;153;180;232;1446;1
1480;2;129;169;125;225;1468;1
1481;2;129;130;148;224;1467;1
1482;1;129;161;205;209;1453;1
1483;1;129;122;149;196;1472;1
1484;2;129;162;221;200;1456;1
1485;1;129;178;158;208;1469;1
1486;2;129;160;203;230;1470;1
1487;2;129;176;157;246;1466;1
1488;2;129;153;143;174;1451;1
1489;2;129;157;186;171;1447;1
1490;1;129;188;189;174;1448;1
1491;2;129;189;144;184;1458;1
1492;1;129;134;179;216;1454;1
1493;2;129;131;164;174;1449;1
1494;2;129;166;180;257;1465;1
1495;2;129;215;175;179;1457;1
1496;2;129;137;208;229;1455;1
1497;2;129;177;165;160;1445;1
1498;2;129;134;203;183;1463;1
1499;2;129;205;193;241;1452;1
1500;2;129;116;185;198;1460;1
1501;2;129;230;161;218;1469;1
1502;1;130;154;180;232;1479;1
1503;2;130;129;149;223;1481;1
1504;2;130;158;188;172;1489;1
1505;2;130;174;155;246;1487;1
1506;2;130;168;180;255;1494;1
1507;1;130;155;179;201;1474;1
1508;2;130;228;163;217;1501;1
1509;2;130;174;164;161;1497;1
1510;2;130;139;211;229;1496;1
1511;2;130;214;173;177;1495;1
1512;1;130;159;149;219;1475;1
1513;2;130;193;210;186;1476;1
1514;2;130;204;193;237;1499;1
1515;2;130;185;143;186;1491;1
1516;1;130;162;153;198;1477;1
1517;2;130;129;168;176;1493;1
1518;2;130;167;221;199;1484;1
1519;1;130;179;154;205;1485;1
1520;2;130;116;190;200;1500;1
1521;1;130;136;184;216;1492;1
1522;1;130;179;174;229;1478;1
1523;2;130;148;142;176;1488;1
1524;2;130;136;208;184;1498;1
1525;1;130;188;183;173;1490;1
1526;2;130;163;124;225;1480;1
1527;1;130;201;186;202;1473;1
1528;2;130;167;203;230;1486;1
1529;1;130;166;204;215;1482;1
1530;1;130;122;157;200;1483;1
1531;2;131;159;188;171;1504;1
1532;2;131;147;142;175;1523;1
1533;1;131;123;156;200;1530;1
1534;2;131;185;143;184;1515;1
1535;1;131;154;180;230;1502;1
1536;1;131;186;183;172;1525;1
1537;2;131;169;203;231;1528;1
1538;2;131;202;193;238;1514;1
1539;1;131;156;181;200;1507;1
1540;1;131;181;153;204;1519;1
1541;1;131;137;186;215;1521;1
1542;1;131;168;203;216;1529;1
1543;2;131;140;213;230;1510;1
1544;2;131;167;178;256;1506;1
1545;2;131;176;165;159;1509;1
1546;2;131;131;169;174;1517;1
1547;2;131;116;193;199;1520;1
1548;2;131;138;210;182;1524;1
1549;2;131;127;149;220;1503;1
1550;2;131;214;172;181;1511;1
1551;2;131;168;221;203;1518;1
1552;2;131;171;154;245;1505;1
1553;1;131;157;148;215;1512;1
1554;1;131;181;173;225;1522;1
1555;1;131;161;157;195;1516;1
1556;2;131;161;122;219;1526;1
1557;2;131;223;158;218;1508;1
1558;1;131;188;200;185;1527;1
1559;1;131;216;172;218;1527;1
1560;2;131;190;213;186;1513;1
1561;2;132;185;144;184;1534;1
1562;2;132;177;166;159;1545;1
1563;2;132;147;143;174;1532;1
1564;2;132;168;178;257;1544;1
1565;2;132;128;148;221;1549;1
1566;2;132;132;171;174;1546;1
1567;2;132;214;171;183;1550;1
1568;1;132;157;183;200;1539;1
1569;2;132;117;193;201;1547;1
1570;1;132;159;149;213;1553;1
1571;1;132;135;187;217;1541;1
1572;2;132;201;191;236;1538;1
1573;2;132;162;123;216;1556;1
1574;2;132;162;190;172;1531;1
1575;2;132;139;213;184;1548;1
1576;1;132;153;183;232;1535;1
1577;2;132;138;214;233;1543;1
1578;2;132;169;206;234;1537;1
1579;1;132;162;160;198;1555;1
1580;1;132;184;150;203;1540;1
1581;1;132;167;208;215;1542;1
1582;2;132;172;222;207;1551;1
1583;1;132;217;167;215;1559;1
1584;2;132;175;153;242;1552;1
1585;1;132;189;201;191;1558;1
1586;1;132;126;161;198;1533;1
1587;2;132;221;150;218;1557;1
1588;1;132;188;182;180;1536;1
1589;2;132;193;209;191;1560;1
1590;1;132;166;187;229;1554;1
1591;1;132;198;158;216;1554;1
1592;1;133;157;184;199;1568;1
1593;1;133;136;189;216;1571;1
1594;2;133;147;145;172;1563;1
1595;2;133;216;172;185;1567;1
1596;2;133;140;213;235;1577;1
1597;2;133;162;124;213;1573;1
1598;1;133;167;190;230;1590;1
1599;2;133;184;146;181;1561;1
1600;1;133;189;185;182;1588;1
1601;1;133;185;152;200;1580;1
1602;1;133;214;169;214;1583;1
1603;1;133;149;183;233;1576;1
1604;1;133;170;208;218;1581;1
1605;2;133;118;196;198;1569;1
1606;2;133;217;148;218;1587;1
1607;2;133;126;150;217;1565;1
1608;2;133;201;186;237;1572;1
1609;1;133;162;162;193;1579;1
1610;2;133;168;174;255;1564;1
1611;1;133;127;165;194;1586;1
1612;2;133;180;171;158;1562;1
1613;2;133;143;216;188;1575;1
1614;1;133;157;148;207;1570;1
1615;2;133;172;203;239;1578;1
1616;2;133;174;220;213;1582;1
1617;2;133;134;175;170;1566;1
1618;2;133;165;196;173;1574;1
1619;2;133;196;210;197;1589;1
1620;1;133;193;196;196;1585;1
1621;1;133;204;151;218;1591;1
1622;1;133;159;163;228;1584;1
1623;2;133;199;143;249;1584;1
1624;1;134;212;170;214;1602;1
1625;1;134;189;187;180;1600;1
1626;1;134;187;154;199;1601;1
1627;1;134;139;189;217;1593;1
1628;2;134;120;199;199;1605;1
1629;1;134;159;187;200;1592;1
1630;2;134;128;151;214;1607;1
1631;2;134;219;149;215;1606;1
1632;1;134;200;151;217;1621;1
1633;1;134;173;206;220;1604;1
1634;1;134;194;195;200;1620;1
1635;1;134;158;149;203;1614;1
1636;2;134;203;182;238;1608;1
1637;1;134;130;169;193;1611;1
1638;2;134;219;174;182;1595;1
1639;2;134;184;148;176;1599;1
1640;1;134;152;179;231;1603;1
1641;2;134;142;209;238;1596;1
1642;2;134;175;219;218;1616;1
1643;1;134;165;165;189;1609;1
1644;2;134;167;201;176;1618;1
1645;2;134;136;181;169;1617;1
1646;2;134;148;149;167;1594;1
1647;1;134;170;184;230;1598;1
1648;2;134;165;125;207;1597;1
1649;2;134;180;177;156;1612;1
1650;2;134;145;220;194;1613;1
1651;2;134;174;197;243;1615;1
1652;2;134;171;166;253;1610;1
1653;1;134;165;160;222;1622;1
1654;2;134;201;209;205;1619;1
1655;2;134;205;137;241;1623;1
1656;1;135;194;195;200;1634;1
1657;1;135;159;186;200;1629;1
1658;1;135;130;168;194;1637;1
1659;1;135;199;152;217;1632;1
1660;1;135;160;149;204;1635;1
1661;2;135;177;218;218;1642;1
1662;1;135;174;205;220;1633;1
1663;1;135;188;155;197;1626;1
1664;1;135;140;189;220;1627;1
1665;2;135;166;204;175;1644;1
1666;1;135;211;171;211;1624;1
1667;2;135;182;150;174;1639;1
1668;1;135;163;168;187;1643;1
1669;1;135;156;178;231;1640;1
1670;2;135;177;197;244;1651;1
1671;2;135;166;124;203;1648;1
1672;2;135;119;198;203;1628;1
1673;2;135;129;152;218;1630;1
1674;2;135;206;182;235;1636;1
1675;2;135;144;209;242;1641;1
1676;2;135;135;185;171;1645;1
1677;2;135;221;152;212;1631;1
1678;2;135;216;174;178;1638;1
1679;2;135;144;150;170;1646;1
1680;2;135;205;206;206;1654;1
1681;1;135;169;157;223;1653;1
1682;2;135;146;221;199;1650;1
1683;1;135;185;189;177;1625;1
1684;2;135;175;165;251;1652;1
1685;2;135;175;179;154;1649;1
1686;1;135;177;181;226;1647;1
1687;2;135;198;135;234;1655;1
1688;1;136;194;194;200;1656;1
1689;2;136;206;205;206;1680;1
1690;1;136;158;187;201;1657;1
1691;1;136;130;168;196;1658;1
1692;1;136;183;189;178;1683;1
1693;2;136;165;124;201;1671;1
1694;2;136;118;198;205;1672;1
1695;2;136;178;218;220;1661;1
1696;2;136;215;175;176;1678;1
1697;1;136;161;167;186;1668;1
1698;2;136;222;154;211;1677;1
1699;1;136;188;155;194;1663;1
1700;1;136;209;173;210;1666;1
1701;2;136;179;195;245;1670;1
1702;2;136;141;151;170;1679;1
1703;2;136;145;221;202;1682;1
1704;2;136;129;151;221;1673;1
1705;1;136;141;188;223;1664;1
1706;1;136;159;147;201;1660;1
1707;1;136;158;175;230;1669;1
1708;2;136;177;162;250;1684;1
1709;2;136;180;152;171;1667;1
1710;2;136;164;207;177;1665;1
1711;1;136;199;156;216;1659;1
1712;2;136;210;182;234;1674;1
1713;1;136;175;201;221;1662;1
1714;2;136;132;187;174;1676;1
1715;1;136;180;179;223;1686;1
1716;2;136;146;206;245;1675;1
1717;1;136;169;152;225;1681;1
1718;2;136;171;183;153;1685;1
1719;2;136;193;134;229;1687;1
1720;2;137;164;124;201;1693;1
1721;1;137;158;187;202;1690;1
1722;2;137;222;153;211;1698;1
1723;1;137;182;189;177;1692;1
1724;1;137;189;155;193;1699;1
1725;1;137;159;175;231;1707;1
1726;2;137;179;153;172;1709;1
1727;2;137;214;176;175;1696;1
1728;1;137;197;157;216;1711;1
1729;2;137;178;160;250;1708;1
1730;2;137;169;184;154;1718;1
1731;1;137;208;174;209;1700;1
1732;1;137;176;200;223;1713;1
1733;1;137;168;150;224;1717;1
1734;1;137;159;169;186;1697;1
1735;2;137;129;153;223;1704;1
1736;2;137;165;209;179;1710;1
1737;1;137;132;170;197;1691;1
1738;1;137;158;149;203;1706;1
1739;1;137;143;190;224;1705;1
1740;2;137;132;190;175;1714;1
1741;2;137;192;134;226;1719;1
1742;2;137;138;152;171;1702;1
1743;2;137;212;180;232;1712;1
1744;1;137;197;192;200;1688;1
1745;2;137;209;203;206;1689;1
1746;2;137;149;206;247;1716;1
1747;2;137;182;194;247;1701;1
1748;2;137;182;218;222;1695;1
1749;1;137;183;175;222;1715;1
1750;2;137;119;200;210;1694;1
1751;2;137;149;221;206;1703;1
1752;1;138;183;175;222;1749;1
1753;2;138;222;153;212;1722;1
1754;1;138;159;175;232;1725;1
1755;2;138;213;180;232;1743;1
1756;2;138;178;160;251;1729;1
1757;1;138;196;157;217;1728;1
1758;2;138;183;194;248;1747;1
1759;2;138;132;192;175;1740;1
1760;2;138;167;185;154;1730;1
1761;1;138;187;154;193;1724;1
1762;1;138;157;189;202;1721;1
1763;2;138;137;154;172;1742;1
1764;2;138;213;174;176;1727;1
1765;2;138;166;210;181;1736;1
1766;1;138;157;170;187;1734;1
1767;1;138;195;191;199;1744;1
1768;2;138;162;125;202;1720;1
1769;1;138;206;174;210;1731;1
1770;1;138;178;199;224;1732;1
1771;1;138;180;188;179;1723;1
1772;1;138;131;172;199;1737;1
1773;2;138;212;202;206;1745;1
1774;2;138;185;218;223;1748;1
1775;1;138;165;150;225;1733;1
1776;1;138;144;193;225;1739;1
1777;1;138;156;151;205;1738;1
1778;2;138;120;202;213;1750;1
1779;2;138;128;155;226;1735;1
1780;2;138;152;207;249;1746;1
1781;2;138;175;153;172;1726;1
1782;2;138;188;133;227;1741;1
1783;2;138;152;222;211;1751;1
1784;2;139;120;202;213;1778;1
1785;1;139;144;193;224;1776;1
1786;2;139;174;153;171;1781;1
1787;1;139;131;173;198;1772;1
1788;2;139;178;159;250;1756;1
1789;2;139;166;186;153;1760;1
1790;1;139;164;151;224;1775;1
1791;1;139;157;189;200;1762;1
1792;2;139;212;202;204;1773;1
1793;2;139;185;218;221;1774;1
1794;1;139;159;175;230;1754;1
1795;2;139;152;207;247;1780;1
1796;1;139;157;172;186;1766;1
1797;2;139;161;125;200;1768;1
1798;2;139;222;154;210;1753;1
1799;2;139;127;155;224;1779;1
1800;2;139;183;192;247;1758;1
1801;2;139;136;155;170;1763;1
1802;2;139;168;211;182;1765;1
1803;1;139;186;153;191;1761;1
1804;1;139;155;150;203;1777;1
1805;2;139;189;134;225;1782;1
1806;2;139;132;194;173;1759;1
1807;1;139;206;175;208;1769;1
1808;1;139;182;174;220;1752;1
1809;1;139;197;157;214;1757;1
1810;1;139;181;187;176;1771;1
1811;1;139;179;198;221;1770;1
1812;2;139;150;222;208;1783;1
1813;1;139;196;188;197;1767;1
1814;2;139;214;180;228;1755;1
1815;2;139;212;174;172;1764;1
1816;2;140;174;153;171;1786;1
1817;2;140;212;174;172;1815;1
1818;1;140;131;174;198;1787;1
1819;1;140;206;175;207;1807;1
1820;1;140;178;198;221;1811;1
1821;1;140;144;194;224;1785;1
1822;2;140;179;159;250;1788;1
1823;2;140;137;155;169;1801;1
1824;1;140;180;188;176;1810;1
1825;1;140;195;189;197;1813;1
1826;2;140;213;201;204;1792;1
1827;1;140;159;174;231;1794;1
1828;2;140;167;187;152;1789;1
1829;2;140;133;195;172;1806;1
1830;2;140;160;126;201;1797;1
1831;1;140;158;190;201;1791;1
1832;2;140;151;223;209;1812;1
1833;2;140;215;179;229;1814;1
1834;2;140;153;206;248;1795;1
1835;1;140;188;153;191;1803;1
1836;2;140;120;202;211;1784;1
1837;2;140;185;218;223;1793;1
1838;2;140;169;213;182;1802;1
1839;1;140;153;150;202;1804;1
1840;2;140;222;153;208;1798;1
1841;1;140;184;173;220;1808;1
1842;2;140;128;155;226;1799;1
1843;2;140;185;192;248;1800;1
1844;1;140;196;159;215;1809;1
1845;1;140;155;174;186;1796;1
1846;1;140;164;149;226;1790;1
1847;2;140;191;132;223;1805;1
1848;2;141;133;195;173;1829;1
1849;2;141;160;125;201;1830;1
1850;1;141;158;189;201;1831;1
1851;1;141;153;151;202;1839;1
1852;2;141;223;153;208;1840;1
1853;1;141;159;174;231;1827;1
1854;2;141;179;158;250;1822;1
1855;2;141;167;188;153;1828;1
1856;2;141;136;155;170;1823;1
1857;2;141;174;154;171;1816;1
1858;2;141;213;200;205;1826;1
1859;1;141;184;172;219;1841;1
1860;1;141;179;197;221;1820;1
1861;2;141;185;217;224;1837;1
1862;1;141;144;193;225;1821;1
1863;1;141;187;152;192;1835;1
1864;1;141;130;174;199;1818;1
1865;2;141;127;156;227;1842;1
1866;2;141;169;213;184;1838;1
1867;1;141;179;188;178;1824;1
1868;1;141;196;157;214;1844;1
1869;2;141;190;130;223;1847;1
1870;1;141;164;147;227;1846;1
1871;2;141;216;177;229;1833;1
1872;2;141;185;190;249;1843;1
1873;2;141;211;175;171;1817;1
1874;2;141;154;204;249;1834;1
1875;1;141;155;175;188;1845;1
1876;2;141;153;222;211;1832;1
1877;2;141;121;202;214;1836;1
1878;1;141;195;187;200;1825;1
1879;1;141;203;175;205;1819;1
1880;2;142;136;155;170;1856;1
1881;2;142;170;213;184;1866;1
1882;2;142;121;203;214;1877;1
1883;1;142;184;172;220;1859;1
1884;1;142;179;198;221;1860;1
1885;2;142;174;153;172;1857;1
1886;1;142;196;186;201;1878;1
1887;1;142;179;188;180;1867;1
1888;1;142;155;174;188;1875;1
1889;2;142;190;130;225;1869;1
1890;1;142;164;147;229;1870;1
1891;2;142;216;177;231;1871;1
1892;1;142;187;153;194;1863;1
1893;1;142;131;174;201;1864;1
1894;1;142;196;156;216;1868;1
1895;2;142;187;217;225;1861;1
1896;2;142;187;190;250;1872;1
1897;2;142;168;187;155;1855;1
1898;2;142;155;223;212;1876;1
1899;2;142;128;157;229;1865;1
1900;1;142;160;174;233;1853;1
1901;2;142;211;174;173;1873;1
1902;2;142;134;197;175;1848;1
1903;1;142;153;151;205;1851;1
1904;2;142;156;205;251;1874;1
1905;2;142;179;158;253;1854;1
1906;1;142;204;176;208;1879;1
1907;2;142;215;198;207;1858;1
1908;2;142;221;151;210;1852;1
1909;2;142;157;127;202;1849;1
1910;1;142;158;190;205;1850;1
1911;1;142;145;193;229;1862;1
1912;2;143;136;155;169;1880;1
1913;1;143;152;151;205;1903;1
1914;1;143;163;147;229;1890;1
1915;1;143;130;174;200;1893;1
1916;2;143;158;127;201;1909;1
1917;2;143;155;224;211;1898;1
1918;1;143;186;154;193;1892;1
1919;2;143;120;204;213;1882;1
1920;2;143;127;156;228;1899;1
1921;1;143;159;175;232;1900;1
1922;2;143;172;154;171;1885;1
1923;1;143;154;174;186;1888;1
1924;1;143;184;174;218;1883;1
1925;2;143;187;219;223;1895;1
1926;2;143;187;192;248;1896;1
1927;2;143;166;186;153;1897;1
1928;2;143;168;214;182;1881;1
1929;1;143;202;178;207;1906;1
1930;1;143;177;199;219;1884;1
1931;2;143;217;179;229;1891;1
1932;1;143;195;159;216;1894;1
1933;2;143;190;131;222;1889;1
1934;2;143;180;159;250;1905;1
1935;2;143;132;196;172;1902;1
1936;2;143;155;208;249;1904;1
1937;1;143;156;192;202;1910;1
1938;1;143;143;195;226;1911;1
1939;2;143;214;200;203;1907;1
1940;2;143;222;153;206;1908;1
1941;1;143;176;190;177;1887;1
1942;2;143;205;175;173;1901;1
1943;1;143;193;192;202;1886;1
1944;2;144;166;186;153;1927;1
1945;2;144;214;200;203;1939;1
1946;2;144;172;154;170;1922;1
1947;1;144;130;174;200;1915;1
1948;1;144;152;150;205;1913;1
1949;2;144;222;153;205;1940;1
1950;1;144;184;174;219;1924;1
1951;2;144;217;179;228;1931;1
1952;2;144;135;155;168;1912;1
1953;2;144;131;196;173;1935;1
1954;2;144;169;214;183;1928;1
1955;2;144;186;219;224;1925;1
1956;2;144;188;191;248;1926;1
1957;1;144;175;189;178;1941;1
1958;1;144;192;191;201;1943;1
1959;1;144;184;154;193;1918;1
1960;1;144;176;199;221;1930;1
1961;2;144;128;154;228;1920;1
1962;2;144;181;157;250;1934;1
1963;2;144;159;125;200;1916;1
1964;1;144;155;190;203;1937;1
1965;1;144;201;177;209;1929;1
1966;1;144;194;158;214;1932;1
1967;2;144;191;130;220;1933;1
1968;2;144;154;206;250;1936;1
1969;2;144;153;222;211;1917;1
1970;1;144;157;174;232;1921;1
1971;2;144;118;202;214;1919;1
1972;2;144;206;176;170;1942;1
1973;1;144;152;172;187;1923;1
1974;1;144;142;193;229;1938;1
1975;1;144;164;143;230;1914;1
1976;1;145;192;191;202;1958;1
1977;1;145;201;177;210;1965;1
1978;2;145;169;215;182;1954;1
1979;2;145;160;125;201;1963;1
1980;1;145;131;174;201;1947;1
1981;2;145;128;153;229;1961;1
1982;2;145;217;178;229;1951;1
1983;2;145;135;153;169;1952;1
1984;2;145;172;153;172;1946;1
1985;1;145;183;154;195;1959;1
1986;1;145;154;190;205;1964;1
1987;2;145;152;220;211;1969;1
1988;1;145;182;174;220;1950;1
1989;2;145;187;219;226;1955;1
1990;2;145;153;206;252;1968;1
1991;2;145;212;200;205;1945;1
1992;1;145;164;141;232;1975;1
1993;2;145;188;189;250;1956;1
1994;1;145;152;172;190;1973;1
1995;2;145;222;153;208;1949;1
1996;2;145;117;200;216;1971;1
1997;1;145;174;198;223;1960;1
1998;2;145;180;155;252;1962;1
1999;1;145;153;149;208;1948;1
2000;1;145;156;173;235;1970;1
2001;1;145;194;155;216;1966;1
2002;2;145;191;128;223;1967;1
2003;2;145;130;194;176;1953;1
2004;1;145;140;192;232;1974;1
2005;2;145;169;188;155;1944;1
2006;1;145;174;189;182;1957;1
2007;2;145;212;197;161;1972;1
2008;2;145;207;154;182;1972;1
2009;2;146;212;199;205;1991;1
2010;1;146;154;189;206;1986;1
2011;2;146;117;199;215;1996;1
2012;1;146;174;197;223;1997;1
2013;1;146;139;191;232;2004;1
2014;1;146;191;190;203;1976;1
2015;1;146;174;189;184;2006;1
2016;1;146;131;172;201;1980;1
2017;2;146;131;194;174;2003;1
2018;2;146;186;217;226;1989;1
2019;1;146;154;173;236;2000;1
2020;2;146;158;126;200;1979;1
2021;2;146;221;151;209;1995;1
2022;2;146;216;177;231;1982;1
2023;2;146;152;204;253;1990;1
2024;2;146;150;220;213;1987;1
2025;2;146;169;215;185;1978;1
2026;1;146;200;175;212;1977;1
2027;2;146;125;153;229;1981;1
2028;2;146;172;188;156;2005;1
2029;1;146;152;174;191;1994;1
2030;1;146;161;142;232;1992;1
2031;2;146;185;189;251;1993;1
2032;1;146;150;150;209;1999;1
2033;2;146;137;154;166;1983;1
2034;2;146;177;154;254;1998;1
2035;1;146;181;173;224;1988;1
2036;2;146;187;127;225;2002;1
2037;1;146;191;156;220;2001;1
2038;1;146;182;154;201;1985;1
2039;2;146;171;159;174;1984;1
2040;2;146;203;150;185;2008;1
2041;2;146;207;201;160;2007;1
2042;1;147;174;189;184;2015;1
2043;2;147;126;152;229;2027;1
2044;2;147;176;154;255;2034;1
2045;1;147;132;171;200;2016;1
2046;1;147;153;188;207;2010;1
2047;2;147;188;128;226;2036;1
2048;1;147;160;141;233;2030;1
2049;1;147;153;172;237;2019;1
2050;1;147;139;189;232;2013;1
2051;2;147;139;153;166;2033;1
2052;1;147;182;156;202;2038;1
2053;1;147;200;176;214;2026;1
2054;1;147;191;158;221;2037;1
2055;2;147;215;179;231;2022;1
2056;1;147;153;174;189;2029;1
2057;2;147;210;200;204;2009;1
2058;1;147;151;149;207;2032;1
2059;2;147;220;152;211;2021;1
2060;2;147;184;188;253;2031;1
2061;2;147;160;128;200;2020;1
2062;2;147;170;189;158;2028;1
2063;2;147;131;194;177;2017;1
2064;1;147;180;171;226;2035;1
2065;2;147;206;200;163;2041;1
2066;1;147;189;192;206;2014;1
2067;2;147;115;196;213;2011;1
2068;2;147;148;218;216;2024;1
2069;2;147;149;202;255;2023;1
2070;1;147;173;196;227;2012;1
2071;2;147;183;217;229;2018;1
2072;2;147;166;214;188;2025;1
2073;2;147;208;151;185;2040;1
2074;2;147;174;155;173;2039;1
2075;2;148;215;179;232;2055;1
2076;2;148;187;127;225;2047;1
2077;2;148;219;154;210;2059;1
2078;1;148;189;156;222;2054;1
2079;1;148;180;168;226;2064;1
2080;2;148;183;186;255;2060;1
2081;1;148;151;171;189;2056;1
2082;1;148;197;176;216;2053;1
2083;1;148;148;147;209;2058;1
2084;2;148;176;150;256;2044;1
2085;2;148;113;195;217;2067;1
2086;2;148;122;151;231;2043;1
2087;1;148;130;168;203;2045;1
2088;1;148;150;186;210;2046;1
2089;1;148;171;194;231;2070;1
2090;1;148;158;137;235;2048;1
2091;1;148;179;156;198;2052;1
2092;1;148;153;168;240;2049;1
2093;2;148;135;156;167;2051;1
2094;1;148;170;191;186;2042;1
2095;2;148;156;124;203;2061;1
2096;2;148;148;198;260;2069;1
2097;2;148;126;192;181;2063;1
2098;2;148;205;206;166;2065;1
2099;2;148;180;216;235;2071;1
2100;2;148;161;214;193;2072;1
2101;1;148;140;183;236;2050;1
2102;2;148;165;194;160;2062;1
2103;2;148;145;217;223;2068;1
2104;1;148;182;190;209;2066;1
2105;2;148;205;204;210;2057;1
2106;2;148;209;161;181;2073;1
2107;2;148;187;178;167;2074;1
2108;2;148;154;136;178;2074;1
2109;2;149;208;161;181;2106;1
2110;1;149;128;168;205;2087;1
2111;1;149;148;184;211;2088;1
2112;1;149;140;182;239;2101;1
2113;2;149;132;155;169;2093;1
2114;2;149;203;207;169;2098;1
2115;2;149;186;124;227;2076;1
2116;2;149;154;136;182;2108;1
2117;2;149;183;177;167;2107;1
2118;1;149;146;144;211;2083;1
2119;2;149;214;175;232;2075;1
2120;1;149;177;152;198;2091;1
2121;2;149;161;192;161;2102;1
2122;1;149;156;136;239;2090;1
2123;1;149;154;164;242;2092;1
2124;2;149;175;146;258;2084;1
2125;2;149;152;197;262;2096;1
2126;2;149;158;211;195;2100;1
2127;1;149;148;167;189;2081;1
2128;2;149;125;193;186;2097;1
2129;1;149;180;163;228;2079;1
2130;2;149;120;147;234;2086;1
2131;2;149;185;181;256;2080;1
2132;2;149;217;149;208;2077;1
2133;1;149;165;188;187;2094;1
2134;2;149;152;122;207;2095;1
2135;1;149;197;171;215;2082;1
2136;2;149;181;210;235;2099;1
2137;2;149;147;216;229;2103;1
2138;1;149;188;149;221;2078;1
2139;1;149;180;183;207;2104;1
2140;1;149;170;186;232;2089;1
2141;2;149;199;202;204;2105;1
2142;2;149;130;209;231;2085;1
2143;2;149;108;171;225;2085;1
2144;1;150;169;186;231;2140;1
2145;1;150;166;189;186;2133;1
2146;2;150;159;193;161;2121;1
2147;2;150;154;137;180;2116;1
2148;1;150;147;169;189;2127;1
2149;1;150;146;146;212;2118;1
2150;1;150;155;138;240;2122;1
2151;2;150;184;126;227;2115;1
2152;1;150;187;151;219;2138;1
2153;1;150;140;185;240;2112;1
2154;2;150;151;125;208;2134;1
2155;1;150;175;154;196;2120;1
2156;2;150;177;148;256;2124;1
2157;2;150;180;177;165;2117;1
2158;2;150;205;160;179;2109;1
2159;2;150;123;194;189;2128;1
2160;1;150;178;184;204;2139;1
2161;2;150;214;148;206;2132;1
2162;1;150;146;187;212;2111;1
2163;2;150;187;182;253;2131;1
2164;1;150;179;164;224;2129;1
2165;2;150;129;154;172;2113;1
2166;2;150;160;215;195;2126;1
2167;1;150;153;168;244;2123;1
2168;2;150;150;220;229;2137;1
2169;2;150;213;175;227;2119;1
2170;1;150;198;174;211;2135;1
2171;2;150;157;200;261;2125;1
2172;2;150;106;174;221;2143;1
2173;2;150;186;213;233;2136;1
2174;1;150;126;172;211;2110;1
2175;2;150;121;148;242;2130;1
2176;2;150;200;203;162;2114;1
2177;2;150;132;218;230;2142;1
2178;2;150;180;196;208;2141;1
2179;2;150;221;198;177;2141;1
2180;2;151;179;176;165;2157;1
2181;2;151;131;216;230;2177;1
2182;2;151;158;195;160;2146;1
2183;1;151;126;174;210;2174;1
2184;2;151;199;202;159;2176;1
2185;1;151;148;172;188;2148;1
2186;1;151;180;186;202;2160;1
2187;2;151;182;126;224;2151;1
2188;2;151;177;151;254;2156;1
2189;2;151;162;216;192;2166;1
2190;1;151;174;156;193;2155;1
2191;1;151;168;192;184;2145;1
2192;1;151;185;151;215;2152;1
2193;1;151;140;189;238;2153;1
2194;2;151;203;159;175;2158;1
2195;2;151;213;146;202;2161;1
2196;2;151;150;224;226;2168;1
2197;1;151;179;165;219;2164;1
2198;1;151;199;174;206;2170;1
2199;2;151;149;128;204;2154;1
2200;2;151;216;174;223;2169;1
2201;1;151;171;190;228;2144;1
2202;1;151;155;169;239;2167;1
2203;2;151;129;158;168;2165;1
2204;1;151;145;150;208;2149;1
2205;2;151;154;142;177;2147;1
2206;1;151;154;143;237;2150;1
2207;2;151;162;201;258;2171;1
2208;2;151;124;200;191;2159;1
2209;1;151;149;191;208;2162;1
2210;2;151;122;153;238;2175;1
2211;2;151;189;180;247;2163;1
2212;2;151;222;191;174;2179;1
2213;2;151;110;182;228;2172;1
2214;2;151;184;206;202;2178;1
2215;2;151;174;227;223;2173;1
2216;2;151;202;195;226;2173;1
2217;2;152;212;145;202;2195;1
2218;1;152;179;166;218;2197;1
2219;2;152;181;126;223;2187;1
2220;1;152;200;173;205;2198;1
2221;2;152;160;195;159;2182;1
2222;2;152;201;201;159;2184;1
2223;2;152;201;158;175;2194;1
2224;1;152;169;192;182;2191;1
2225;1;152;149;172;186;2185;1
2226;1;152;151;191;207;2209;1
2227;1;152;187;150;215;2192;1
2228;2;152;131;215;228;2181;1
2229;2;152;178;151;252;2188;1
2230;1;152;146;151;206;2204;1
2231;2;152;155;144;175;2205;1
2232;2;152;150;130;202;2199;1
2233;1;152;183;186;202;2186;1
2234;1;152;128;176;209;2183;1
2235;2;152;130;161;168;2203;1
2236;2;152;222;190;177;2212;1
2237;2;152;192;180;246;2211;1
2238;1;152;174;158;190;2190;1
2239;2;152;177;174;164;2180;1
2240;2;152;126;201;188;2208;1
2241;2;152;151;222;223;2196;1
2242;2;152;125;154;236;2210;1
2243;1;152;156;145;234;2206;1
2244;1;152;157;172;237;2202;1
2245;2;152;113;185;228;2213;1
2246;1;152;144;190;235;2193;1
2247;2;152;165;218;188;2189;1
2248;2;152;165;203;254;2207;1
2249;2;152;219;170;220;2200;1
2250;2;152;190;207;202;2214;1
2251;1;152;175;193;226;2201;1
2252;2;152;177;227;216;2215;1
2253;2;152;209;193;220;2216;1
2254;2;153;221;190;177;2236;1
2255;2;153;165;217;188;2247;1
2256;2;153;150;129;202;2232;1
2257;2;153;181;125;223;2219;1
2258;2;153;212;144;201;2217;1
2259;1;153;201;174;205;2220;1
2260;1;153;187;149;216;2227;1
2261;2;153;112;185;229;2245;1
2262;1;153;145;190;236;2246;1
2263;2;153;179;151;253;2229;1
2264;2;153;129;162;169;2235;1
2265;1;153;147;150;207;2230;1
2266;1;153;180;165;219;2218;1
2267;2;153;150;221;222;2241;1
2268;2;153;130;214;229;2228;1
2269;2;153;201;156;174;2223;1
2270;2;153;192;208;202;2250;1
2271;1;153;185;186;203;2233;1
2272;1;153;153;190;207;2226;1
2273;2;153;194;180;247;2237;1
2274;2;153;157;143;174;2231;1
2275;2;153;221;169;219;2249;1
2276;1;153;158;144;235;2243;1
2277;2;153;166;202;256;2248;1
2278;2;153;199;201;161;2222;1
2279;1;153;151;171;188;2225;1
2280;1;153;169;193;185;2224;1
2281;1;153;175;158;193;2238;1
2282;1;153;160;172;239;2244;1
2283;2;153;157;193;160;2221;1
2284;2;153;126;154;240;2242;1
2285;2;153;177;171;167;2239;1
2286;1;153;179;194;227;2251;1
2287;2;153;209;197;222;2253;1
2288;1;153;131;174;213;2234;1
2289;2;153;180;223;219;2252;1
2290;2;153;127;194;189;2240;1
2291;2;154;177;171;166;2285;1
2292;1;154;151;171;189;2279;1
2293;1;154;176;158;194;2281;1
2294;1;154;188;149;217;2260;1
2295;2;154;222;169;220;2275;1
2296;2;154;180;151;254;2263;1
2297;2;154;165;202;257;2277;1
2298;2;154;200;155;175;2269;1
2299;1;154;168;192;186;2280;1
2300;1;154;186;187;204;2271;1
2301;1;154;201;174;207;2259;1
2302;2;154;212;143;203;2258;1
2303;2;154;151;129;204;2256;1
2304;1;154;180;163;220;2266;1
2305;2;154;180;221;220;2289;1
2306;1;154;161;172;241;2282;1
2307;2;154;196;180;248;2273;1
2308;2;154;130;160;170;2264;1
2309;2;154;159;142;175;2274;1
2310;2;154;182;124;225;2257;1
2311;2;154;189;208;202;2270;1
2312;1;154;148;148;209;2265;1
2313;1;154;160;143;237;2276;1
2314;2;154;127;152;242;2284;1
2315;2;154;154;193;161;2283;1
2316;1;154;178;194;230;2286;1
2317;2;154;220;193;176;2254;1
2318;2;154;148;219;224;2267;1
2319;2;154;162;216;190;2255;1
2320;1;154;134;173;215;2288;1
2321;1;154;143;188;239;2262;1
2322;2;154;206;200;223;2287;1
2323;1;154;154;188;211;2272;1
2324;2;154;195;204;160;2278;1
2325;2;154;111;180;231;2261;1
2326;2;154;126;210;229;2268;1
2327;2;154;124;192;194;2290;1
2328;2;155;222;169;220;2295;1
2329;1;155;178;194;231;2316;1
2330;2;155;164;202;257;2297;1
2331;2;155;220;192;177;2317;1
2332;2;155;190;207;202;2311;1
2333;2;155;212;142;204;2302;1
2334;2;155;206;199;224;2322;1
2335;2;155;160;141;176;2309;1
2336;2;155;195;181;249;2307;1
2337;2;155;199;153;175;2298;1
2338;1;155;148;146;210;2312;1
2339;2;155;181;223;220;2305;1
2340;1;155;180;162;222;2304;1
2341;1;155;160;142;239;2313;1
2342;2;155;179;151;256;2296;1
2343;2;155;176;169;167;2291;1
2344;2;155;150;220;225;2318;1
2345;2;155;125;209;227;2326;1
2346;1;155;159;171;240;2306;1
2347;1;155;132;171;215;2320;1
2348;1;155;185;185;206;2300;1
2349;1;155;188;149;220;2294;1
2350;2;155;131;157;170;2308;1
2351;1;155;151;187;211;2323;1
2352;2;155;192;205;159;2324;1
2353;1;155;202;173;210;2301;1
2354;1;155;176;156;197;2293;1
2355;2;155;151;127;207;2303;1
2356;1;155;149;169;192;2292;1
2357;2;155;182;123;229;2310;1
2358;1;155;141;186;236;2321;1
2359;2;155;127;148;244;2314;1
2360;2;155;109;176;228;2325;1
2361;2;155;149;191;162;2315;1
2362;2;155;164;217;195;2319;1
2363;1;155;165;188;189;2299;1
2364;2;155;135;210;196;2327;1
2365;2;155;118;165;197;2327;1
2366;2;156;182;123;230;2357;1
2367;2;156;195;181;250;2336;1
2368;2;156;192;206;160;2352;1
2369;2;156;159;140;177;2335;1
2370;2;156;165;218;194;2362;1
2371;2;156;191;206;203;2332;1
2372;2;156;126;149;243;2359;1
2373;2;156;178;152;257;2342;1
2374;1;156;149;171;192;2356;1
2375;1;156;149;187;211;2351;1
2376;2;156;153;126;207;2355;1
2377;1;156;202;172;212;2353;1
2378;1;156;187;149;222;2349;1
2379;2;156;149;220;223;2344;1
2380;2;156;123;209;226;2345;1
2381;1;156;177;194;233;2329;1
2382;1;156;139;187;236;2358;1
2383;1;156;159;144;239;2341;1
2384;2;156;162;202;258;2330;1
2385;2;156;221;191;179;2331;1
2386;2;156;183;222;221;2339;1
2387;1;156;179;163;224;2340;1
2388;2;156;208;198;225;2334;1
2389;2;156;176;167;169;2343;1
2390;2;156;133;158;168;2350;1
2391;1;156;176;156;200;2354;1
2392;1;156;146;148;211;2338;1
2393;2;156;222;169;223;2328;1
2394;1;156;157;172;242;2346;1
2395;2;156;198;150;176;2337;1
2396;2;156;211;141;207;2333;1
2397;1;156;131;172;212;2347;1
2398;1;156;184;183;209;2348;1
2399;1;156;165;188;193;2363;1
2400;2;156;109;175;222;2360;1
2401;2;156;117;161;192;2365;1
2402;2;156;156;194;161;2361;1
2403;2;156;136;215;185;2364;1
2404;2;157;159;140;176;2369;1
2405;1;157;149;171;191;2374;1
2406;2;157;207;198;225;2388;1
2407;2;157;222;190;179;2385;1
2408;1;157;175;156;199;2391;1
2409;1;157;202;171;213;2377;1
2410;2;157;222;168;222;2393;1
2411;2;157;181;123;229;2366;1
2412;2;157;210;140;206;2396;1
2413;2;157;122;210;225;2380;1
2414;1;157;176;193;232;2381;1
2415;2;157;151;126;206;2376;1
2416;1;157;144;148;210;2392;1
2417;1;157;130;172;210;2397;1
2418;2;157;185;222;220;2386;1
2419;1;157;187;147;223;2378;1
2420;1;157;158;144;237;2383;1
2421;2;157;166;217;192;2370;1
2422;1;157;177;164;225;2387;1
2423;2;157;194;206;158;2368;1
2424;2;157;191;204;201;2371;1
2425;2;157;198;147;176;2395;1
2426;2;157;134;216;187;2403;1
2427;1;157;166;186;191;2399;1
2428;1;157;185;181;207;2398;1
2429;2;157;124;150;241;2372;1
2430;2;157;176;150;256;2373;1
2431;2;157;107;175;219;2400;1
2432;1;157;155;172;245;2394;1
2433;2;157;159;202;256;2384;1
2434;1;157;148;187;207;2375;1
2435;2;157;191;181;251;2367;1
2436;2;157;175;164;166;2389;1
2437;2;157;151;217;220;2379;1
2438;2;157;116;165;189;2401;1
2439;1;157;135;188;233;2382;1
2440;2;157;136;160;163;2390;1
2441;2;157;146;209;171;2402;1
2442;2;157;181;181;153;2402;1
2443;1;158;175;156;199;2408;1
2444;2;158;191;204;200;2424;1
2445;1;158;185;182;207;2428;1
2446;1;158;131;172;210;2417;1
2447;1;158;188;147;223;2419;1
2448;1;158;177;164;224;2422;1
2449;2;158;207;198;226;2406;1
2450;1;158;176;192;232;2414;1
2451;2;158;125;150;241;2429;1
2452;2;158;159;202;255;2433;1
2453;2;158;194;207;159;2423;1
2454;2;158;152;127;206;2415;1
2455;2;158;192;180;251;2435;1
2456;1;158;145;149;209;2416;1
2457;1;158;157;143;236;2420;1
2458;1;158;150;187;207;2434;1
2459;2;158;107;175;221;2431;1
2460;2;158;185;222;222;2418;1
2461;2;158;124;210;225;2413;1
2462;2;158;180;123;231;2411;1
2463;2;158;174;150;257;2430;1
2464;2;158;138;159;162;2440;1
2465;2;158;115;163;190;2438;1
2466;1;158;203;172;215;2409;1
2467;1;158;136;190;232;2439;1
2468;1;158;151;170;189;2405;1
2469;2;158;211;140;209;2412;1
2470;2;158;223;168;225;2410;1
2471;2;158;163;139;177;2404;1
2472;2;158;168;217;188;2421;1
2473;2;158;201;145;179;2425;1
2474;2;158;178;160;166;2436;1
2475;2;158;149;205;172;2441;1
2476;1;158;151;170;242;2432;1
2477;1;158;168;188;186;2427;1
2478;2;158;134;215;193;2426;1
2479;2;158;152;223;219;2437;1
2480;2;158;226;188;184;2407;1
2481;2;158;186;177;147;2442;1
2482;2;159;152;127;206;2454;1
2483;2;159;192;180;251;2455;1
2484;2;159;186;177;148;2481;1
2485;1;159;202;172;215;2466;1
2486;2;159;207;198;227;2449;1
2487;2;159;164;138;177;2471;1
2488;2;159;202;145;180;2473;1
2489;2;159;114;162;190;2465;1
2490;2;159;191;203;201;2444;1
2491;1;159;188;148;224;2447;1
2492;2;159;179;123;232;2462;1
2493;2;159;106;176;220;2459;1
2494;2;159;123;209;226;2461;1
2495;2;159;211;140;211;2469;1
2496;2;159;180;159;166;2474;1
2497;1;159;177;156;200;2443;1
2498;1;159;186;182;209;2445;1
2499;1;159;175;165;224;2448;1
2500;2;159;223;169;227;2470;1
2501;1;159;175;194;232;2450;1
2502;2;159;123;149;241;2451;1
2503;2;159;159;204;254;2452;1
2504;2;159;175;150;255;2463;1
2505;1;159;152;168;190;2468;1
2506;2;159;187;221;223;2460;1
2507;1;159;145;147;207;2456;1
2508;2;159;192;208;161;2453;1
2509;1;159;170;186;187;2477;1
2510;1;159;129;171;208;2446;1
2511;2;159;227;189;187;2480;1
2512;1;159;137;187;233;2467;1
2513;1;159;157;146;234;2457;1
2514;2;159;134;215;189;2478;1
2515;1;159;151;184;210;2458;1
2516;2;159;141;157;158;2464;1
2517;2;159;151;210;169;2475;1
2518;2;159;168;220;194;2472;1
2519;1;159;138;159;231;2476;1
2520;2;159;143;205;211;2479;1
2521;1;159;173;179;253;2476;1
2522;2;159;164;233;235;2479;1
2523;1;160;202;172;215;2485;1
2524;1;160;151;184;211;2515;1
2525;1;160;187;148;224;2491;1
2526;2;160;123;149;242;2502;1
2527;2;160;203;145;179;2488;1
2528;2;160;192;203;200;2490;1
2529;1;160;146;148;207;2507;1
2530;1;160;156;146;233;2513;1
2531;2;160;193;180;250;2483;1
2532;2;160;165;232;236;2522;1
2533;2;160;211;140;213;2495;1
2534;2;160;106;176;222;2493;1
2535;2;160;123;209;228;2494;1
2536;1;160;179;156;201;2497;1
2537;1;160;129;172;210;2510;1
2538;2;160;179;124;234;2492;1
2539;2;160;166;219;195;2518;1
2540;2;160;186;223;224;2506;1
2541;2;160;221;168;228;2500;1
2542;2;160;208;200;228;2486;1
2543;1;160;172;188;187;2509;1
2544;1;160;186;184;211;2498;1
2545;1;160;139;187;235;2512;1
2546;2;160;167;138;177;2487;1
2547;1;160;174;167;225;2499;1
2548;2;160;157;205;256;2503;1
2549;1;160;155;169;190;2505;1
2550;2;160;230;190;188;2511;1
2551;2;160;155;126;207;2482;1
2552;1;160;139;162;230;2519;1
2553;1;160;174;197;231;2501;1
2554;1;160;171;182;252;2521;1
2555;2;160;145;157;158;2516;1
2556;2;160;130;215;189;2514;1
2557;2;160;183;161;164;2496;1
2558;2;160;190;212;161;2508;1
2559;2;160;182;178;150;2484;1
2560;2;160;115;157;191;2489;1
2561;2;160;153;211;164;2517;1
2562;2;160;170;150;256;2504;1
2563;2;160;136;202;211;2520;1
2564;2;161;179;123;234;2538;1
2565;2;161;130;216;190;2556;1
2566;2;161;107;176;223;2534;1
2567;1;161;174;167;226;2547;1
2568;2;161;114;156;192;2560;1
2569;2;161;156;125;208;2551;1
2570;2;161;212;139;214;2533;1
2571;1;161;144;148;206;2529;1
2572;1;161;189;148;225;2525;1
2573;2;161;186;224;226;2540;1
2574;1;161;141;163;230;2552;1
2575;1;161;174;199;232;2553;1
2576;1;161;181;157;202;2536;1
2577;1;161;155;147;231;2530;1
2578;1;161;173;183;251;2554;1
2579;2;161;193;178;252;2531;1
2580;2;161;169;137;179;2546;1
2581;1;161;153;186;212;2524;1
2582;2;161;125;211;229;2535;1
2583;2;161;125;148;244;2526;1
2584;2;161;186;162;164;2557;1
2585;2;161;208;199;231;2542;1
2586;2;161;158;205;259;2548;1
2587;1;161;187;187;212;2544;1
2588;2;161;137;205;212;2563;1
2589;2;161;222;167;231;2541;1
2590;1;161;158;169;192;2549;1
2591;1;161;204;172;218;2523;1
2592;2;161;205;144;182;2527;1
2593;1;161;174;187;190;2543;1
2594;2;161;232;191;191;2550;1
2595;1;161;128;174;213;2537;1
2596;2;161;149;157;158;2555;1
2597;2;161;193;207;200;2528;1
2598;2;161;157;213;164;2561;1
2599;2;161;179;181;153;2559;1
2600;1;161;138;189;240;2545;1
2601;2;161;163;230;241;2532;1
2602;2;161;188;215;166;2558;1
2603;2;161;180;144;245;2562;1
2604;2;161;173;234;202;2539;1
2605;2;161;155;205;186;2539;1
2606;2;161;161;168;262;2562;1
2607;2;162;205;145;182;2592;1
2608;2;162;208;199;232;2585;1
2609;2;162;170;138;180;2580;1
2610;2;162;223;169;231;2589;1
2611;2;162;181;124;234;2564;1
2612;2;162;194;209;201;2597;1
2613;2;162;158;126;209;2569;1
2614;2;162;214;140;213;2570;1
2615;2;162;188;225;227;2573;1
2616;2;162;126;149;246;2583;1
2617;1;162;171;184;252;2578;1
2618;2;162;234;191;193;2594;1
2619;1;162;189;150;227;2572;1
2620;2;162;160;213;163;2598;1
2621;1;162;186;190;212;2587;1
2622;1;162;205;174;218;2591;1
2623;1;162;174;202;232;2575;1
2624;2;162;191;216;167;2602;1
2625;2;162;159;208;260;2586;1
2626;1;162;183;159;204;2576;1
2627;1;162;153;188;215;2581;1
2628;1;162;130;174;216;2595;1
2629;2;162;127;214;229;2582;1
2630;2;162;116;155;195;2568;1
2631;2;162;182;183;155;2599;1
2632;2;162;153;156;158;2596;1
2633;2;162;187;166;163;2584;1
2634;1;162;147;148;209;2571;1
2635;1;162;174;170;229;2567;1
2636;2;162;108;179;226;2566;1
2637;2;162;162;232;237;2601;1
2638;1;162;162;169;195;2590;1
2639;2;162;131;219;194;2565;1
2640;2;162;189;175;255;2579;1
2641;1;162;176;192;191;2593;1
2642;2;162;185;148;243;2603;1
2643;1;162;159;147;237;2577;1
2644;2;162;179;239;202;2604;1
2645;2;162;144;211;215;2588;1
2646;2;162;165;204;188;2605;1
2647;2;162;152;172;268;2606;1
2648;1;162;138;174;239;2600;1
2649;1;162;137;210;244;2600;1
2650;1;162;145;163;232;2574;1
2651;2;163;187;166;163;2633;1
2652;1;163;186;190;212;2621;1
2653;1;163;184;159;204;2626;1
2654;1;163;130;173;216;2628;1
2655;2;163;233;191;194;2618;1
2656;1;163;163;168;195;2638;1
2657;1;163;148;147;209;2634;1
2658;1;163;188;149;227;2619;1
2659;2;163;190;217;166;2624;1
2660;2;163;195;208;200;2612;1
2661;1;163;158;146;238;2643;1
2662;2;163;179;237;202;2644;1
2663;2;163;188;223;226;2615;1
2664;2;163;157;207;260;2625;1
2665;2;163;155;155;157;2632;1
2666;2;163;169;136;179;2609;1
2667;2;163;203;144;181;2607;1
2668;2;163;159;125;207;2613;1
2669;2;163;213;139;211;2614;1
2670;2;163;222;168;229;2610;1
2671;1;163;174;168;230;2635;1
2672;2;163;207;197;231;2608;1
2673;1;163;174;200;233;2623;1
2674;1;163;138;212;245;2649;1
2675;2;163;153;173;266;2647;1
2676;2;163;187;174;254;2640;1
2677;2;163;113;155;196;2630;1
2678;2;163;181;184;152;2631;1
2679;1;163;177;193;194;2641;1
2680;1;163;152;185;216;2627;1
2681;2;163;126;215;226;2629;1
2682;1;163;203;173;216;2622;1
2683;2;163;181;122;231;2611;1
2684;2;163;160;232;234;2637;1
2685;2;163;125;146;244;2616;1
2686;2;163;129;219;198;2639;1
2687;2;163;161;211;159;2620;1
2688;2;163;107;181;222;2636;1
2689;2;163;182;146;246;2642;1
2690;2;163;149;211;214;2645;1
2691;1;163;166;183;253;2617;1
2692;2;163;164;210;186;2646;1
2693;1;163;131;170;242;2648;1
2694;1;163;144;162;233;2650;1
2695;2;164;188;223;226;2663;1
2696;2;164;160;211;159;2687;1
2697;2;164;126;215;227;2681;1
2698;1;164;188;149;228;2658;1
2699;1;164;157;146;238;2661;1
2700;2;164;182;183;152;2678;1
2701;2;164;168;137;179;2666;1
2702;2;164;204;144;182;2667;1
2703;2;164;158;125;208;2668;1
2704;2;164;222;167;230;2670;1
2705;2;164;124;145;244;2685;1
2706;2;164;156;156;156;2665;1
2707;2;164;188;165;164;2651;1
2708;1;164;147;148;210;2657;1
2709;2;164;195;210;200;2660;1
2710;1;164;184;159;206;2653;1
2711;1;164;165;168;196;2656;1
2712;2;164;179;122;232;2683;1
2713;2;164;158;231;234;2684;1
2714;1;164;174;199;235;2673;1
2715;1;164;164;182;253;2691;1
2716;2;164;189;218;168;2659;1
2717;2;164;130;221;199;2686;1
2718;1;164;153;184;218;2680;1
2719;1;164;174;167;232;2671;1
2720;2;164;206;196;233;2672;1
2721;1;164;145;164;234;2694;1
2722;2;164;155;206;261;2664;1
2723;1;164;203;171;218;2682;1
2724;2;164;211;137;212;2669;1
2725;1;164;133;172;243;2693;1
2726;2;164;186;172;256;2676;1
2727;1;164;186;189;215;2652;1
2728;2;164;106;181;225;2688;1
2729;1;164;178;194;197;2679;1
2730;2;164;177;234;202;2662;1
2731;2;164;151;212;217;2690;1
2732;1;164;135;210;244;2674;1
2733;2;164;166;213;188;2692;1
2734;2;164;233;190;198;2655;1
2735;2;164;110;155;199;2677;1
2736;1;164;129;174;220;2654;1
2737;2;164;154;168;266;2675;1
2738;2;164;179;142;250;2689;1
2739;1;165;203;171;218;2723;1
2740;2;165;183;183;152;2700;1
2741;2;165;189;218;169;2716;1
2742;2;165;179;121;232;2712;1
2743;1;165;157;146;239;2699;1
2744;2;165;157;156;157;2706;1
2745;2;165;210;136;212;2724;1
2746;1;165;152;184;219;2718;1
2747;1;165;189;149;229;2698;1
2748;2;165;221;166;230;2704;1
2749;2;165;187;166;165;2707;1
2750;2;165;167;136;180;2701;1
2751;1;165;177;193;198;2729;1
2752;1;165;174;166;233;2719;1
2753;2;165;185;171;257;2726;1
2754;1;165;165;168;198;2711;1
2755;1;165;186;189;217;2727;1
2756;2;165;206;196;235;2720;1
2757;2;165;234;190;200;2734;1
2758;1;165;185;159;208;2710;1
2759;2;165;158;123;209;2703;1
2760;1;165;146;148;212;2708;1
2761;2;165;152;212;219;2731;1
2762;2;165;187;223;228;2695;1
2763;2;165;176;236;201;2730;1
2764;1;165;128;174;222;2736;1
2765;2;165;105;179;226;2728;1
2766;2;165;157;230;236;2713;1
2767;2;165;123;143;243;2705;1
2768;1;165;163;181;255;2715;1
2769;2;165;202;142;182;2702;1
2770;1;165;131;172;245;2725;1
2771;2;165;157;211;159;2696;1
2772;2;165;166;216;188;2733;1
2773;2;165;108;156;201;2735;1
2774;2;165;195;210;203;2709;1
2775;1;165;144;162;236;2721;1
2776;2;165;154;205;264;2722;1
2777;1;165;172;198;238;2714;1
2778;2;165;176;140;251;2738;1
2779;1;165;133;206;243;2732;1
2780;2;165;153;163;265;2737;1
2781;2;165;125;211;231;2697;1
2782;2;165;130;222;206;2717;1
2783;2;166;152;212;219;2761;1
2784;2;166;234;189;200;2757;1
2785;1;166;164;168;197;2754;1
2786;1;166;177;194;197;2751;1
2787;2;166;195;211;202;2774;1
2788;2;166;220;167;230;2748;1
2789;2;166;205;195;235;2756;1
2790;2;166;167;136;178;2750;1
2791;2;166;155;230;236;2766;1
2792;1;166;131;172;243;2770;1
2793;2;166;158;156;155;2744;1
2794;1;166;185;161;207;2758;1
2795;1;166;145;148;210;2760;1
2796;1;166;203;172;216;2739;1
2797;1;166;151;184;217;2746;1
2798;2;166;186;223;226;2762;1
2799;1;166;174;167;231;2752;1
2800;2;166;186;165;163;2749;1
2801;2;166;209;135;210;2745;1
2802;1;166;127;173;220;2764;1
2803;2;166;183;170;256;2753;1
2804;2;166;200;142;180;2769;1
2805;2;166;166;219;188;2772;1
2806;2;166;175;138;249;2778;1
2807;2;166;151;161;264;2780;1
2808;2;166;188;218;166;2741;1
2809;2;166;129;225;206;2782;1
2810;2;166;179;122;229;2742;1
2811;1;166;144;163;233;2775;1
2812;1;166;133;203;242;2779;1
2813;2;166;158;212;156;2771;1
2814;2;166;174;237;200;2763;1
2815;2;166;157;124;206;2759;1
2816;2;166;122;210;230;2781;1
2817;1;166;156;145;236;2743;1
2818;1;166;169;199;239;2777;1
2819;1;166;185;191;214;2755;1
2820;2;166;104;181;223;2765;1
2821;2;166;151;203;263;2776;1
2822;1;166;189;147;225;2747;1
2823;2;166;184;182;147;2740;1
2824;1;166;159;177;254;2768;1
2825;2;166;104;159;198;2773;1
2826;2;166;122;140;238;2767;1
2827;2;167;219;167;230;2788;1
2828;1;167;174;167;231;2799;1
2829;1;167;169;199;237;2818;1
2830;1;167;144;148;210;2795;1
2831;2;167;150;202;262;2821;1
2832;2;167;167;138;177;2790;1
2833;2;167;154;230;234;2791;1
2834;1;167;188;146;225;2822;1
2835;2;167;153;212;220;2783;1
2836;2;167;131;224;207;2809;1
2837;2;167;203;196;234;2789;1
2838;2;167;182;169;257;2803;1
2839;2;167;158;125;203;2815;1
2840;1;167;158;144;237;2817;1
2841;1;167;153;185;216;2797;1
2842;1;167;204;171;217;2796;1
2843;2;167;173;238;198;2814;1
2844;2;167;208;133;211;2801;1
2845;2;167;105;180;220;2820;1
2846;2;167;157;213;154;2813;1
2847;2;167;184;163;164;2800;1
2848;2;167;149;160;263;2807;1
2849;1;167;146;165;235;2811;1
2850;2;167;122;208;227;2816;1
2851;2;167;108;159;198;2825;1
2852;2;167;166;218;191;2805;1
2853;1;167;186;188;216;2819;1
2854;1;167;129;171;217;2802;1
2855;2;167;184;179;143;2823;1
2856;2;167;175;135;251;2806;1
2857;2;167;176;121;226;2810;1
2858;1;167;135;199;239;2812;1
2859;1;167;132;175;240;2792;1
2860;1;167;164;173;197;2785;1
2861;1;167;158;176;249;2824;1
2862;1;167;174;198;197;2786;1
2863;2;167;196;139;178;2804;1
2864;2;167;123;139;232;2826;1
2865;2;167;199;210;206;2787;1
2866;2;167;236;193;197;2784;1
2867;2;167;184;220;161;2808;1
2868;2;167;184;223;219;2798;1
2869;1;167;179;160;202;2794;1
2870;2;167;155;154;164;2793;1
