id_center;selection;timestep;x;y;z;id_mother;validation
1;2;0;180;147;186;0;1
2;2;0;147;123;240;0;1
3;2;0;156;212;207;0;1
4;2;0;182;161;250;0;1
5;2;1;155;208;210;3;1
6;2;1;147;128;239;2;1
7;2;1;187;149;193;1;1
8;2;1;189;164;258;4;1
9;2;2;190;150;193;7;1
10;2;2;145;128;235;6;1
11;2;2;187;168;258;8;1
12;2;2;147;202;211;5;1
13;2;3;146;127;234;10;1
14;2;3;187;170;256;11;1
15;2;3;193;150;194;9;1
16;2;3;142;198;211;12;1
17;2;4;193;151;194;15;1
18;2;4;147;126;234;13;1
19;2;4;186;170;255;14;1
20;2;4;140;196;209;16;1
21;2;5;147;126;234;18;1
22;2;5;194;151;194;17;1
23;2;5;139;194;209;20;1
24;2;5;186;169;253;19;1
25;2;6;138;193;209;23;1
26;2;6;148;126;233;21;1
27;2;6;184;170;253;24;1
28;2;6;196;152;195;22;1
29;2;7;140;189;209;25;1
30;2;7;148;127;233;26;1
31;2;7;184;170;253;27;1
32;2;7;196;152;194;28;1
33;2;8;196;152;193;32;1
34;2;8;137;194;204;29;1
35;2;8;147;127;230;30;1
36;2;8;181;171;248;31;1
37;2;9;138;193;201;34;1
38;2;9;148;126;226;35;1
39;2;9;182;171;243;36;1
40;2;9;197;151;195;33;1
41;2;10;199;148;188;40;1
42;2;10;185;168;240;39;1
43;2;10;142;190;199;37;1
44;2;10;153;123;224;38;1
45;2;11;199;147;190;41;1
46;2;11;142;189;201;43;1
47;2;11;154;121;226;44;1
48;2;11;186;166;243;42;1
49;2;12;142;189;202;46;1
50;2;12;154;122;228;47;1
51;2;12;185;168;243;48;1
52;2;12;199;147;193;45;1
53;2;13;154;122;225;50;1
54;2;13;199;147;189;52;1
55;2;13;142;189;198;49;1
56;2;13;185;169;239;51;1
57;2;14;199;146;190;54;1
58;2;14;154;120;225;53;1
59;2;14;185;167;240;56;1
60;2;14;141;187;199;55;1
61;2;15;183;167;242;59;1
62;2;15;152;119;227;58;1
63;2;15;199;145;193;57;1
64;2;15;141;185;202;60;1
65;2;16;183;167;244;61;1
66;2;16;141;183;203;64;1
67;2;16;153;119;229;62;1
68;2;16;200;145;198;63;1
69;2;17;199;145;201;68;1
70;2;17;182;167;247;65;1
71;2;17;142;174;207;66;1
72;2;17;154;119;233;67;1
73;2;18;153;120;231;72;1
74;2;18;198;147;198;69;1
75;2;18;140;175;203;71;1
76;2;18;180;171;244;70;1
77;2;19;152;120;224;73;1
78;2;19;181;170;237;76;1
79;2;19;199;147;190;74;1
80;2;19;141;175;195;75;1
81;2;20;181;169;239;78;1
82;2;20;153;119;226;77;1
83;2;20;141;174;197;80;1
84;2;20;199;144;193;79;1
85;2;21;154;118;227;82;1
86;2;21;141;173;199;83;1
87;2;21;180;169;241;81;1
88;2;21;200;143;195;84;1
89;2;22;143;173;200;86;1
90;2;22;153;118;229;85;1
91;2;22;179;170;243;87;1
92;2;22;200;143;198;88;1
93;2;23;179;169;245;91;1
94;2;23;153;118;232;90;1
95;2;23;142;172;203;89;1
96;2;23;200;142;202;92;1
97;2;24;142;172;205;95;1
98;2;24;178;169;247;93;1
99;2;24;199;141;204;96;1
100;2;24;153;119;235;94;1
101;2;25;141;174;203;97;1
102;2;25;198;144;202;99;1
103;2;25;176;172;245;98;1
104;2;25;152;120;231;100;1
105;2;26;153;118;229;104;1
106;2;26;198;143;198;102;1
107;2;26;141;173;199;101;1
108;2;26;176;170;241;103;1
109;2;27;153;118;229;105;1
110;2;27;142;172;199;107;1
111;2;27;176;169;242;108;1
112;2;27;198;142;200;106;1
113;2;28;176;169;243;111;1
114;2;28;143;172;200;110;1
115;2;28;152;118;227;109;1
116;2;28;200;141;202;112;1
117;2;29;143;172;201;114;1
118;2;29;201;142;203;116;1
119;2;29;175;170;244;113;1
120;2;29;152;119;225;115;1
121;2;30;142;172;198;117;1
122;2;30;174;169;241;119;1
123;2;30;150;119;222;120;1
124;2;30;201;143;199;118;1
125;2;31;142;171;198;121;1
126;2;31;174;168;242;122;1
127;2;31;202;141;201;124;1
128;2;31;150;116;222;123;1
129;2;32;143;170;198;125;1
130;2;32;202;140;202;127;1
131;2;32;174;168;243;126;1
132;2;32;148;117;223;128;1
133;2;33;202;141;200;130;1
134;2;33;172;169;241;131;1
135;2;33;148;118;220;132;1
136;2;33;144;172;194;129;1
137;2;34;171;169;241;134;1
138;2;34;145;170;195;136;1
139;2;34;148;115;220;135;1
140;2;34;203;139;203;133;1
141;2;35;148;115;221;139;1
142;2;35;146;169;195;138;1
143;2;35;170;167;243;137;1
144;2;35;203;137;206;140;1
145;2;36;203;137;206;144;1
146;2;36;169;169;241;143;1
147;2;36;147;169;191;142;1
148;2;36;147;112;218;141;1
149;2;37;148;169;191;147;1
150;2;37;147;113;218;148;1
151;2;37;204;137;208;145;1
152;2;37;167;169;242;146;1
153;2;38;147;112;217;150;1
154;2;38;204;137;210;151;1
155;2;38;150;170;192;149;1
156;2;38;165;168;244;152;1
157;2;39;205;136;212;154;1
158;2;39;163;169;242;156;1
159;2;39;144;113;214;153;1
160;2;39;153;168;189;155;1
161;2;40;153;169;190;160;1
162;2;40;145;112;212;159;1
163;2;40;206;137;214;157;1
164;2;40;161;167;244;158;1
165;2;41;206;138;214;163;1
166;2;41;159;168;243;164;1
167;2;41;155;171;190;161;1
168;2;41;144;115;209;162;1
169;2;42;154;179;188;167;1
170;2;42;143;113;207;168;1
171;2;42;205;134;216;165;1
172;2;42;155;163;243;166;1
173;2;43;156;175;190;169;1
174;2;43;144;115;207;170;1
175;2;43;154;164;243;172;1
176;2;43;208;135;216;171;1
177;2;44;153;181;188;173;1
178;2;44;137;115;205;174;1
179;2;44;208;135;215;176;1
180;2;44;152;167;244;175;1
181;2;45;207;133;216;179;1
182;2;45;154;160;245;180;1
183;2;45;143;110;207;178;1
184;2;45;161;179;189;177;1
185;2;46;144;110;208;183;1
186;2;46;163;176;189;184;1
187;2;46;152;167;250;182;1
188;2;46;213;149;243;181;1
189;2;46;204;124;185;181;1
190;2;47;147;169;248;187;1
191;2;47;145;108;214;185;1
192;2;47;205;116;193;189;1
193;2;47;218;154;230;188;1
194;2;47;170;186;171;186;1
195;2;47;164;160;209;186;1
196;2;48;174;170;249;190;1
197;2;48;155;163;220;195;1
198;2;48;172;176;165;194;1
199;2;48;142;130;235;191;1
200;2;48;159;99;182;191;1
201;2;48;128;166;248;190;1
202;2;48;210;120;193;192;1
203;2;48;217;161;221;193;1
204;2;49;184;170;253;196;1
205;2;49;150;156;219;197;1
206;2;49;145;124;248;199;1
207;2;49;217;161;216;203;1
208;2;49;115;165;233;201;1
209;2;49;167;174;171;198;1
210;2;49;206;116;200;202;1
211;2;49;158;107;182;200;1
212;2;50;167;174;169;209;1
213;2;50;182;168;252;204;1
214;2;50;150;159;218;205;1
215;2;50;215;161;213;207;1
216;2;50;147;126;251;206;1
217;2;50;199;113;199;210;1
218;2;50;117;171;227;208;1
219;2;50;147;108;185;211;1
220;2;51;147;125;252;216;1
221;2;51;152;159;218;214;1
222;2;51;169;173;170;212;1
223;2;51;217;158;212;215;1
224;2;51;116;171;223;218;1
225;2;51;181;164;252;213;1
226;2;51;194;109;201;217;1
227;2;51;138;110;185;219;1
228;2;52;115;170;223;224;1
229;2;52;180;164;253;225;1
230;2;52;217;156;213;223;1
231;2;52;154;159;219;221;1
232;2;52;147;123;251;220;1
233;2;52;191;108;203;226;1
234;2;52;172;170;169;222;1
235;2;52;132;114;184;227;1
236;2;53;218;156;213;230;1
237;2;53;114;170;223;228;1
238;2;53;174;170;169;234;1
239;2;53;189;108;203;233;1
240;2;53;178;164;252;229;1
241;2;53;147;125;248;232;1
242;2;53;156;162;218;231;1
243;2;53;130;118;185;235;1
244;2;54;114;169;222;237;1
245;2;54;188;107;202;239;1
246;2;54;156;163;216;242;1
247;2;54;177;162;251;240;1
248;2;54;175;168;168;238;1
249;2;54;147;125;245;241;1
250;2;54;218;153;214;236;1
251;2;54;127;119;187;243;1
252;2;55;187;107;203;245;1
253;2;55;114;171;222;244;1
254;2;55;126;121;188;251;1
255;2;55;156;166;216;246;1
256;2;55;218;150;215;250;1
257;2;55;176;159;251;247;1
258;2;55;176;165;170;248;1
259;2;55;145;125;240;249;1
260;2;56;176;159;251;257;1
261;2;56;145;126;240;259;1
262;2;56;116;171;223;253;1
263;2;56;157;168;215;255;1
264;2;56;124;122;190;254;1
265;2;56;184;105;204;252;1
266;2;56;218;146;216;256;1
267;2;56;179;162;171;258;1
268;2;57;179;161;170;267;1
269;2;57;117;172;223;262;1
270;2;57;176;158;249;260;1
271;2;57;159;170;214;263;1
272;2;57;143;128;238;261;1
273;2;57;122;125;189;264;1
274;2;57;180;104;203;265;1
275;2;57;217;142;215;266;1
276;2;58;177;157;249;270;1
277;2;58;180;158;171;268;1
278;2;58;162;168;215;271;1
279;2;58;141;130;241;272;1
280;2;58;177;101;204;274;1
281;2;58;216;137;215;275;1
282;2;58;120;132;189;273;1
283;2;58;120;178;227;269;1
284;2;59;141;132;241;279;1
285;2;59;178;155;249;276;1
286;2;59;181;156;172;277;1
287;2;59;165;169;216;278;1
288;2;59;174;100;204;280;1
289;2;59;215;133;216;281;1
290;2;59;124;181;228;283;1
291;2;59;119;137;192;282;1
292;2;60;178;154;249;285;1
293;2;60;141;133;242;284;1
294;2;60;167;168;216;287;1
295;2;60;182;153;173;286;1
296;2;60;214;130;217;289;1
297;2;60;127;182;229;290;1
298;2;60;119;141;195;291;1
299;2;60;168;98;205;288;1
300;2;61;178;153;249;292;1
301;2;61;168;169;216;294;1
302;2;61;213;128;218;296;1
303;2;61;165;98;205;299;1
304;2;61;182;150;174;295;1
305;2;61;118;144;196;298;1
306;2;61;140;134;239;293;1
307;2;61;131;183;231;297;1
308;2;62;181;150;173;304;1
309;2;62;211;128;218;302;1
310;2;62;178;154;247;300;1
311;2;62;171;170;216;301;1
312;2;62;162;100;204;303;1
313;2;62;139;137;237;306;1
314;2;62;134;186;230;307;1
315;2;62;118;150;194;305;1
316;2;63;138;137;239;313;1
317;2;63;119;152;195;315;1
318;2;63;172;172;215;311;1
319;2;63;178;151;247;310;1
320;2;63;182;147;174;308;1
321;2;63;158;99;203;312;1
322;2;63;210;124;217;309;1
323;2;63;138;187;231;314;1
324;2;64;182;145;175;320;1
325;2;64;136;137;238;316;1
326;2;64;177;149;249;319;1
327;2;64;120;155;195;317;1
328;2;64;208;122;219;322;1
329;2;64;174;169;216;318;1
330;2;64;141;189;232;323;1
331;2;64;154;99;203;321;1
332;2;65;176;150;249;326;1
333;2;65;174;170;215;329;1
334;2;65;183;143;175;324;1
335;2;65;143;190;232;330;1
336;2;65;135;139;236;325;1
337;2;65;205;121;218;328;1
338;2;65;150;104;201;331;1
339;2;65;122;162;194;327;1
340;2;66;135;139;235;336;1
341;2;66;184;142;176;334;1
342;2;66;148;105;201;338;1
343;2;66;124;163;195;339;1
344;2;66;146;189;233;335;1
345;2;66;175;147;250;332;1
346;2;66;176;168;217;333;1
347;2;66;203;118;218;337;1
348;2;67;177;168;217;346;1
349;2;67;182;142;175;341;1
350;2;67;201;118;219;347;1
351;2;67;174;148;250;345;1
352;2;67;148;191;232;344;1
353;2;67;134;142;234;340;1
354;2;67;145;107;201;342;1
355;2;67;126;168;192;343;1
356;2;68;127;166;192;355;1
357;2;68;176;166;217;348;1
358;2;68;149;189;232;352;1
359;2;68;144;105;202;354;1
360;2;68;132;141;233;353;1
361;2;68;171;146;250;351;1
362;2;68;183;139;177;349;1
363;2;68;199;113;221;350;1
364;2;69;149;189;232;358;1
365;2;69;170;146;250;361;1
366;2;69;143;106;202;359;1
367;2;69;177;165;218;357;1
368;2;69;199;112;223;363;1
369;2;69;132;143;232;360;1
370;2;69;184;137;178;362;1
371;2;69;130;168;190;356;1
372;2;70;143;106;201;366;1
373;2;70;185;137;177;370;1
374;2;70;176;166;217;367;1
375;2;70;198;113;224;368;1
376;2;70;150;189;230;364;1
377;2;70;131;167;188;371;1
378;2;70;168;148;251;365;1
379;2;70;131;144;229;369;1
380;2;71;144;106;201;372;1
381;2;71;131;143;229;379;1
382;2;71;177;165;218;374;1
383;2;71;187;137;178;373;1
384;2;71;149;187;230;376;1
385;2;71;197;111;225;375;1
386;2;71;167;146;250;378;1
387;2;71;134;165;187;377;1
388;2;72;135;164;187;387;1
389;2;72;150;187;229;384;1
390;2;72;130;143;230;381;1
391;2;72;176;164;219;382;1
392;2;72;143;106;203;380;1
393;2;72;165;147;251;386;1
394;2;72;195;111;227;385;1
395;2;72;187;135;181;383;1
396;2;73;136;164;188;388;1
397;2;73;149;186;228;389;1
398;2;73;195;111;229;394;1
399;2;73;178;165;219;391;1
400;2;73;164;149;251;393;1
401;2;73;146;107;202;392;1
402;2;73;131;142;227;390;1
403;2;73;190;136;183;395;1
404;2;74;149;186;229;397;1
405;2;74;132;141;226;402;1
406;2;74;191;136;185;403;1
407;2;74;138;165;187;396;1
408;2;74;162;148;252;400;1
409;2;74;193;111;231;398;1
410;2;74;180;167;221;399;1
411;2;74;149;109;201;401;1
412;2;75;180;167;222;410;1
413;2;75;148;187;228;404;1
414;2;75;160;149;251;408;1
415;2;75;148;111;199;411;1
416;2;75;130;142;224;405;1
417;2;75;193;139;186;406;1
418;2;75;140;168;186;407;1
419;2;75;189;111;230;409;1
420;2;76;149;186;228;413;1
421;2;76;195;138;186;417;1
422;2;76;187;110;230;419;1
423;2;76;181;166;224;412;1
424;2;76;130;143;221;416;1
425;2;76;148;112;195;415;1
426;2;76;157;146;249;414;1
427;2;76;146;170;186;418;1
428;2;77;147;170;185;427;1
429;2;77;150;185;228;420;1
430;2;77;197;139;186;421;1
431;2;77;179;166;223;423;1
432;2;77;185;110;229;422;1
433;2;77;155;145;248;426;1
434;2;77;129;145;219;424;1
435;2;77;150;113;192;425;1
436;2;78;179;165;223;431;1
437;2;78;198;140;186;430;1
438;2;78;129;145;216;434;1
439;2;78;153;146;246;433;1
440;2;78;149;185;225;429;1
441;2;78;149;172;183;428;1
442;2;78;181;108;227;432;1
443;2;78;149;115;187;435;1
444;2;79;199;139;185;437;1
445;2;79;179;164;221;436;1
446;2;79;129;147;214;438;1
447;2;79;152;186;224;440;1
448;2;79;152;149;244;439;1
449;2;79;149;117;183;443;1
450;2;79;177;107;225;442;1
451;2;79;152;174;181;441;1
452;2;80;201;138;185;444;1
453;2;80;180;165;219;445;1
454;2;80;152;149;241;448;1
455;2;80;154;186;221;447;1
456;2;80;176;109;222;450;1
457;2;80;129;148;210;446;1
458;2;80;151;117;179;449;1
459;2;80;156;178;177;451;1
460;2;81;202;137;184;452;1
461;2;81;180;166;217;453;1
462;2;81;156;187;218;455;1
463;2;81;149;152;239;454;1
464;2;81;161;180;175;459;1
465;2;81;128;151;205;457;1
466;2;81;151;122;174;458;1
467;2;81;169;114;217;456;1
468;2;82;204;135;185;460;1
469;2;82;183;166;217;461;1
470;2;82;147;153;237;463;1
471;2;82;158;187;215;462;1
472;2;82;165;180;173;464;1
473;2;82;154;122;170;466;1
474;2;82;131;152;198;465;1
475;2;82;172;102;217;467;1
476;1;82;164;132;214;467;1
477;2;83;162;187;216;471;1
478;2;83;169;182;173;472;1
479;2;83;143;154;235;470;1
480;2;83;186;163;219;469;1
481;2;83;200;132;183;468;1
482;2;83;151;127;166;473;1
483;2;83;127;160;194;474;1
484;2;83;168;95;203;475;1
485;1;83;160;150;206;476;1
486;2;84;144;152;235;479;1
487;2;84;165;186;218;477;1
488;2;84;171;97;201;484;1
489;2;84;187;160;222;480;1
490;1;84;160;146;210;485;1
491;2;84;129;163;199;483;1
492;2;84;201;129;189;481;1
493;2;84;150;128;177;482;1
494;2;84;170;179;186;478;1
495;2;85;166;185;218;487;1
496;2;85;132;163;199;491;1
497;2;85;188;157;218;489;1
498;2;85;146;147;234;486;1
499;2;85;174;98;195;488;1
500;1;85;158;140;207;490;1
501;2;85;202;125;183;492;1
502;2;85;152;126;170;493;1
503;2;85;174;176;174;494;1
504;2;86;165;185;217;495;1
505;2;86;172;96;195;499;1
506;2;86;203;122;184;501;1
507;2;86;147;148;231;498;1
508;2;86;132;159;195;496;1
509;2;86;192;148;218;497;1
510;1;86;159;130;212;500;1
511;2;86;143;119;155;502;1
512;1;86;163;133;188;502;1
513;2;86;172;186;153;503;1
514;1;86;184;159;192;503;1
515;2;87;197;121;184;506;1
516;2;87;166;97;195;505;1
517;2;87;148;154;230;507;1
518;1;87;162;126;217;510;1
519;2;87;138;164;193;508;1
520;2;87;140;122;146;511;1
521;2;87;169;192;210;504;1
522;1;87;171;133;199;512;1
523;2;87;167;177;144;513;1
524;1;87;194;169;190;514;1
525;2;87;206;152;216;509;1
526;1;87;177;161;215;509;1
527;2;88;166;177;146;523;1
528;1;88;164;128;216;518;1
529;1;88;198;166;189;524;1
530;2;88;161;96;198;516;1
531;1;88;168;128;202;522;1
532;2;88;150;161;226;517;1
533;2;88;191;120;177;515;1
534;2;88;176;193;202;521;1
535;2;88;133;159;184;519;1
536;1;88;174;174;213;526;1
537;2;88;132;114;155;520;1
538;2;88;221;147;199;525;1
539;2;89;156;92;198;530;1
540;2;89;220;141;191;538;1
541;1;89;178;166;207;536;1
542;2;89;126;116;164;537;1
543;1;89;202;155;189;529;1
544;2;89;173;166;143;527;1
545;1;89;162;121;229;528;1
546;1;89;162;143;220;532;1
547;1;89;162;112;207;531;1
548;2;89;179;183;185;534;1
549;1;89;165;145;189;535;1
550;2;89;119;175;171;535;1
551;2;89;186;103;155;533;1
552;1;89;195;123;214;533;1
553;2;89;134;190;218;532;1
554;1;90;161;113;208;547;1
555;2;90;173;166;146;544;1
556;2;90;178;182;189;548;1
557;2;90;218;137;189;540;1
558;1;90;199;151;189;543;1
559;1;90;162;139;223;546;1
560;2;90;156;94;204;539;1
561;2;90;123;175;176;550;1
562;1;90;195;127;219;552;1
563;1;90;166;137;192;549;1
564;1;90;167;125;235;545;1
565;1;90;176;159;213;541;1
566;2;90;141;195;214;553;1
567;2;90;176;105;153;551;1
568;2;90;123;117;176;542;1
569;1;91;196;127;218;562;1
570;2;91;216;135;187;557;1
571;2;91;121;120;176;568;1
572;1;91;168;122;233;564;1
573;1;91;160;111;203;554;1
574;2;91;170;170;149;555;1
575;2;91;156;93;198;560;1
576;1;91;158;137;218;559;1
577;2;91;171;103;156;567;1
578;1;91;197;144;185;558;1
579;2;91;142;189;221;566;1
580;1;91;174;150;209;565;1
581;2;91;125;183;186;561;1
582;1;91;157;131;183;563;1
583;1;91;174;149;175;556;1
584;2;91;177;197;209;556;1
585;2;92;216;134;186;570;1
586;2;92;155;95;198;575;1
587;2;92;127;185;186;581;1
588;1;92;194;129;215;569;1
589;2;92;146;188;223;579;1
590;2;92;174;172;147;574;1
591;1;92;172;152;171;583;1
592;1;92;169;126;229;572;1
593;2;92;121;125;179;571;1
594;2;92;167;99;158;577;1
595;1;92;158;115;198;573;1
596;1;92;196;146;178;578;1
597;1;92;154;137;177;582;1
598;1;92;161;144;213;576;1
599;1;92;178;157;202;580;1
600;2;92;180;186;219;584;1
601;2;93;122;126;179;593;1
602;2;93;216;131;187;585;1
603;2;93;182;184;217;600;1
604;2;93;174;169;145;590;1
605;1;93;193;145;175;596;1
606;2;93;144;189;219;589;1
607;2;93;164;97;161;594;1
608;1;93;169;156;170;591;1
609;1;93;191;132;212;588;1
610;1;93;153;143;175;597;1
611;1;93;181;161;198;599;1
612;1;93;162;150;211;598;1
613;2;93;157;97;204;586;1
614;1;93;169;132;226;592;1
615;1;93;156;121;194;595;1
616;2;93;133;189;181;587;1
617;2;94;164;97;162;607;1
618;2;94;215;131;188;602;1
619;2;94;145;190;218;606;1
620;2;94;172;168;145;604;1
621;1;94;151;145;174;610;1
622;2;94;184;183;215;603;1
623;1;94;184;163;198;611;1
624;1;94;190;144;173;605;1
625;2;94;136;189;177;616;1
626;1;94;163;154;208;612;1
627;1;94;170;135;222;614;1
628;1;94;168;161;171;608;1
629;1;94;156;123;189;615;1
630;1;94;189;133;207;609;1
631;2;94;158;101;208;613;1
632;2;94;123;126;185;601;1
633;1;95;156;124;189;629;1
634;1;95;170;136;221;627;1
635;2;95;137;187;177;625;1
636;2;95;123;128;186;632;1
637;2;95;216;133;188;618;1
638;2;95;185;183;213;622;1
639;2;95;165;98;164;617;1
640;1;95;188;143;172;624;1
641;2;95;170;167;147;620;1
642;1;95;149;147;175;621;1
643;1;95;188;132;204;630;1
644;1;95;164;157;209;626;1
645;1;95;167;163;174;628;1
646;1;95;185;159;197;623;1
647;2;95;159;104;211;631;1
648;2;95;149;188;219;619;1
649;2;96;217;132;188;637;1
650;1;96;155;125;189;633;1
651;2;96;158;105;211;647;1
652;1;96;168;165;175;645;1
653;1;96;171;137;219;634;1
654;2;96;163;100;165;639;1
655;1;96;187;157;198;646;1
656;2;96;140;186;178;635;1
657;1;96;185;141;172;640;1
658;1;96;149;150;177;642;1
659;2;96;167;166;149;641;1
660;1;96;166;160;211;644;1
661;2;96;153;188;220;648;1
662;2;96;189;184;211;638;1
663;1;96;188;128;201;643;1
664;2;96;124;131;190;636;1
665;2;97;216;131;188;649;1
666;1;97;154;125;190;650;1
667;1;97;188;156;198;655;1
668;1;97;171;136;218;653;1
669;1;97;166;160;213;660;1
670;1;97;183;141;171;657;1
671;2;97;123;133;190;664;1
672;2;97;166;168;150;659;1
673;2;97;156;106;212;651;1
674;2;97;165;102;165;654;1
675;1;97;149;152;179;658;1
676;2;97;191;182;212;662;1
677;1;97;169;166;178;652;1
678;1;97;186;126;199;663;1
679;2;97;141;187;182;656;1
680;2;97;155;186;225;661;1
681;1;98;183;141;172;670;1
682;1;98;153;125;189;666;1
683;2;98;123;132;189;671;1
684;1;98;168;160;214;669;1
685;2;98;164;104;164;674;1
686;2;98;192;180;214;676;1
687;1;98;169;135;216;668;1
688;2;98;216;130;191;665;1
689;2;98;153;106;211;673;1
690;1;98;150;153;182;675;1
691;1;98;184;124;197;678;1
692;1;98;172;166;180;677;1
693;1;98;187;153;200;667;1
694;2;98;144;187;186;679;1
695;2;98;155;182;228;680;1
696;2;98;170;169;154;672;1
697;1;99;152;124;189;682;1
698;2;99;164;106;164;685;1
699;1;99;183;140;174;681;1
700;1;99;183;122;197;691;1
701;2;99;171;170;156;696;1
702;2;99;215;129;193;688;1
703;2;99;151;105;210;689;1
704;1;99;187;151;202;693;1
705;1;99;167;133;215;687;1
706;2;99;122;135;190;683;1
707;1;99;169;159;217;684;1
708;1;99;174;166;183;692;1
709;1;99;151;156;184;690;1
710;2;99;193;177;217;686;1
711;2;99;147;188;190;694;1
712;2;99;155;179;233;695;1
713;1;100;152;123;190;697;1
714;2;100;121;136;190;706;1
715;2;100;171;170;158;701;1
716;1;100;151;156;186;709;1
717;2;100;147;187;192;711;1
718;1;100;182;122;199;700;1
719;2;100;166;106;166;698;1
720;1;100;167;160;219;707;1
721;2;100;193;177;220;710;1
722;1;100;183;141;177;699;1
723;1;100;174;166;186;708;1
724;2;100;150;105;213;703;1
725;1;100;186;150;205;704;1
726;2;100;153;178;236;712;1
727;1;100;162;135;216;705;1
728;2;100;213;129;199;702;1
729;1;101;151;156;187;716;1
730;1;101;175;166;187;723;1
731;1;101;153;123;189;713;1
732;2;101;172;171;159;715;1
733;2;101;146;186;193;717;1
734;2;101;168;106;167;719;1
735;2;101;122;135;188;714;1
736;1;101;165;161;220;720;1
737;2;101;148;105;211;724;1
738;1;101;181;120;201;718;1
739;1;101;184;142;180;722;1
740;2;101;151;176;238;726;1
741;2;101;191;176;223;721;1
742;1;101;158;135;216;727;1
743;2;101;212;130;204;728;1
744;1;101;183;148;209;725;1
745;2;102;148;105;212;737;1
746;1;102;176;166;188;730;1
747;1;102;154;122;189;731;1
748;1;102;183;149;210;744;1
749;2;102;147;187;194;733;1
750;1;102;164;162;219;736;1
751;1;102;153;155;186;729;1
752;2;102;174;171;161;732;1
753;2;102;189;177;225;741;1
754;2;102;212;131;207;743;1
755;1;102;186;142;183;739;1
756;1;102;155;137;216;742;1
757;2;102;123;133;185;735;1
758;1;102;181;121;205;738;1
759;2;102;172;106;169;734;1
760;2;102;147;174;237;740;1
761;1;103;153;155;186;751;1
762;2;103;173;171;161;752;1
763;1;103;155;122;189;747;1
764;2;103;124;132;185;757;1
765;2;103;147;186;193;749;1
766;1;103;181;122;206;758;1
767;2;103;149;106;212;745;1
768;1;103;163;162;218;750;1
769;1;103;186;142;185;755;1
770;1;103;178;167;188;746;1
771;1;103;182;150;212;748;1
772;2;103;187;178;226;753;1
773;2;103;212;133;209;754;1
774;1;103;153;136;214;756;1
775;2;103;145;173;238;760;1
776;2;103;174;105;172;759;1
777;1;104;178;167;188;770;1
778;1;104;154;154;186;761;1
779;1;104;162;162;217;768;1
780;2;104;148;185;192;765;1
781;1;104;152;135;215;774;1
782;2;104;173;169;161;762;1
783;1;104;182;151;214;771;1
784;2;104;187;179;224;772;1
785;2;104;145;171;239;775;1
786;1;104;187;141;187;769;1
787;1;104;157;121;190;763;1
788;1;104;182;121;208;766;1
789;2;104;212;135;211;773;1
790;2;104;125;130;187;764;1
791;2;104;177;104;175;776;1
792;2;104;149;100;210;767;1
793;1;105;182;121;208;788;1
794;1;105;154;154;187;778;1
795;1;105;161;162;217;779;1
796;1;105;186;141;188;786;1
797;2;105;147;184;193;780;1
798;1;105;151;134;216;781;1
799;1;105;178;167;190;777;1
800;1;105;180;151;214;783;1
801;2;105;143;171;239;785;1
802;2;105;126;130;189;790;1
803;2;105;171;170;162;782;1
804;2;105;211;136;213;789;1
805;2;105;186;181;225;784;1
806;1;105;159;119;191;787;1
807;2;105;180;105;176;791;1
808;2;105;151;98;207;792;1
809;2;106;171;170;162;803;1
810;1;106;178;167;190;799;1
811;2;106;180;104;176;807;1
812;1;106;154;154;188;794;1
813;2;106;126;129;189;802;1
814;1;106;180;151;213;800;1
815;1;106;185;141;189;796;1
816;2;106;150;98;208;808;1
817;1;106;160;163;217;795;1
818;2;106;185;182;224;805;1
819;1;106;159;117;191;806;1
820;2;106;147;186;193;797;1
821;1;106;182;122;210;793;1
822;2;106;211;137;215;804;1
823;1;106;150;136;217;798;1
824;2;106;143;169;241;801;1
825;1;107;154;154;187;812;1
826;1;107;186;141;189;815;1
827;1;107;178;168;190;810;1
828;2;107;147;185;193;820;1
829;1;107;182;122;211;821;1
830;1;107;149;136;217;823;1
831;2;107;151;98;207;816;1
832;1;107;160;118;190;819;1
833;2;107;184;183;225;818;1
834;2;107;173;171;163;809;1
835;2;107;182;105;177;811;1
836;1;107;179;150;215;814;1
837;2;107;209;137;217;822;1
838;1;107;161;166;216;817;1
839;2;107;142;166;243;824;1
840;2;107;126;124;189;813;1
841;2;108;151;98;207;831;1
842;1;108;186;142;190;826;1
843;1;108;160;119;191;832;1
844;2;108;183;183;226;833;1
845;2;108;148;186;194;828;1
846;1;108;178;151;216;836;1
847;1;108;150;135;218;830;1
848;1;108;154;155;189;825;1
849;1;108;178;169;192;827;1
850;1;108;182;124;210;829;1
851;2;108;184;106;178;835;1
852;2;108;127;122;190;840;1
853;1;108;159;165;217;838;1
854;2;108;210;140;218;837;1
855;2;108;142;163;245;839;1
856;2;108;169;170;163;834;1
857;1;109;178;151;216;846;1
858;2;109;169;171;163;856;1
859;1;109;154;155;188;848;1
860;1;109;182;123;210;850;1
861;1;109;150;136;218;847;1
862;2;109;210;140;219;854;1
863;2;109;142;162;245;855;1
864;1;109;177;169;191;849;1
865;2;109;152;98;206;841;1
866;2;109;185;107;179;851;1
867;1;109;185;143;189;842;1
868;2;109;147;187;193;845;1
869;1;109;160;120;189;843;1
870;2;109;182;184;224;844;1
871;1;109;157;165;215;853;1
872;2;109;126;125;189;852;1
873;1;110;158;165;214;871;1
874;1;110;178;152;215;857;1
875;1;110;186;144;188;867;1
876;1;110;154;155;186;859;1
877;2;110;152;98;204;865;1
878;2;110;168;171;161;858;1
879;2;110;185;106;177;866;1
880;2;110;126;127;188;872;1
881;1;110;176;169;189;864;1
882;2;110;147;189;192;868;1
883;1;110;149;136;216;861;1
884;2;110;181;184;222;870;1
885;2;110;144;161;244;863;1
886;1;110;160;120;186;869;1
887;1;110;183;123;207;860;1
888;2;110;210;141;216;862;1
889;1;111;149;136;215;883;1
890;2;111;185;107;176;879;1
891;1;111;178;151;214;874;1
892;2;111;209;141;215;888;1
893;1;111;175;170;188;881;1
894;2;111;147;189;190;882;1
895;2;111;169;171;159;878;1
896;1;111;159;121;184;886;1
897;1;111;153;156;184;876;1
898;2;111;125;125;187;880;1
899;2;111;151;99;202;877;1
900;1;111;182;122;205;887;1
901;1;111;184;144;186;875;1
902;2;111;181;184;219;884;1
903;2;111;146;159;243;885;1
904;1;111;155;165;211;873;1
905;1;112;182;121;203;900;1
906;1;112;179;151;212;891;1
907;2;112;210;140;212;892;1
908;1;112;155;156;181;897;1
909;2;112;184;105;173;890;1
910;1;112;186;143;183;901;1
911;2;112;149;190;187;894;1
912;1;112;159;121;180;896;1
913;2;112;170;171;155;895;1
914;2;112;151;98;198;899;1
915;1;112;157;167;208;904;1
916;2;112;184;183;216;902;1
917;1;112;177;170;184;893;1
918;1;112;151;136;211;889;1
919;2;112;150;158;241;903;1
920;2;112;124;132;184;898;1
921;2;113;124;133;182;920;1
922;2;113;183;105;170;909;1
923;1;113;158;168;205;915;1
924;1;113;186;141;180;910;1
925;1;113;181;151;209;906;1
926;2;113;152;158;238;919;1
927;2;113;211;138;209;907;1
928;2;113;151;98;194;914;1
929;1;113;151;136;207;918;1
930;1;113;159;122;176;912;1
931;1;113;155;157;177;908;1
932;1;113;182;120;199;905;1
933;2;113;185;183;212;916;1
934;1;113;178;169;180;917;1
935;2;113;170;169;151;913;1
936;2;113;151;191;183;911;1
937;1;114;160;170;203;923;1
938;1;114;156;159;174;931;1
939;1;114;183;152;205;925;1
940;2;114;156;157;236;926;1
941;2;114;183;104;165;922;1
942;1;114;178;170;175;934;1
943;2;114;151;192;178;936;1
944;2;114;154;100;190;928;1
945;2;114;213;138;204;927;1
946;2;114;126;134;177;921;1
947;1;114;188;143;175;924;1
948;1;114;153;141;205;929;1
949;2;114;188;183;207;933;1
950;1;114;161;125;171;930;1
951;2;114;168;168;145;935;1
952;1;114;187;122;194;932;1
953;2;115;155;99;190;944;1
954;2;115;152;193;177;943;1
955;1;115;156;161;172;938;1
956;1;115;160;172;201;937;1
957;2;115;183;104;162;941;1
958;2;115;125;135;174;946;1
959;2;115;158;155;234;940;1
960;1;115;179;172;172;942;1
961;2;115;191;183;204;949;1
962;2;115;165;169;142;951;1
963;1;115;163;127;167;950;1
964;2;115;215;136;200;945;1
965;1;115;189;144;170;947;1
966;1;115;156;143;201;948;1
967;1;115;190;123;189;952;1
968;1;115;186;153;200;939;1
969;2;116;216;137;198;964;1
970;2;116;165;169;139;962;1
971;2;116;129;131;179;958;1
972;1;116;188;153;197;968;1
973;2;116;160;155;231;959;1
974;1;116;156;162;168;955;1
975;1;116;180;172;168;960;1
976;1;116;161;172;197;956;1
977;1;116;190;147;167;965;1
978;2;116;193;183;200;961;1
979;2;116;155;193;173;954;1
980;1;116;160;143;198;966;1
981;2;116;185;105;157;957;1
982;1;116;163;131;163;963;1
983;1;116;193;124;184;967;1
984;2;116;157;100;167;953;1
985;2;116;141;114;215;953;1
986;1;117;190;146;166;977;1
987;2;117;160;155;229;973;1
988;2;117;165;170;137;970;1
989;1;117;180;171;166;975;1
990;1;117;193;122;183;983;1
991;1;117;162;172;195;976;1
992;1;117;187;152;195;972;1
993;1;117;159;141;197;980;1
994;1;117;156;160;166;974;1
995;2;117;215;135;196;969;1
996;2;117;193;182;197;978;1
997;2;117;156;192;170;979;1
998;1;117;162;128;161;982;1
999;2;117;131;128;177;971;1
1000;2;117;135;112;211;985;1
1001;2;117;190;108;152;981;1
1002;2;117;165;105;163;984;1
1003;2;118;155;191;170;997;1
1004;1;118;186;151;195;992;1
1005;1;118;161;127;160;998;1
1006;1;118;188;146;166;986;1
1007;2;118;215;135;194;995;1
1008;1;118;154;160;165;994;1
1009;1;118;179;173;166;989;1
1010;2;118;164;171;135;988;1
1011;2;118;192;109;151;1001;1
1012;2;118;191;181;198;996;1
1013;1;118;193;121;180;990;1
1014;2;118;164;104;160;1002;1
1015;2;118;160;152;227;987;1
1016;1;118;159;169;194;991;1
1017;2;118;129;126;173;999;1
1018;1;118;157;136;194;993;1
1019;2;118;133;111;205;1000;1
1020;2;119;154;192;169;1003;1
1021;2;119;163;171;133;1010;1
1022;1;119;187;146;164;1006;1
1023;1;119;178;173;164;1009;1
1024;1;119;191;121;178;1013;1
1025;1;119;184;151;193;1004;1
1026;1;119;161;126;157;1005;1
1027;2;119;190;181;195;1012;1
1028;1;119;153;159;162;1008;1
1029;1;119;157;168;191;1016;1
1030;2;119;157;151;225;1015;1
1031;2;119;135;109;202;1019;1
1032;2;119;130;125;169;1017;1
1033;2;119;168;102;159;1014;1
1034;1;119;155;135;190;1018;1
1035;2;119;215;139;191;1007;1
1036;2;119;195;112;147;1011;1
1037;2;120;129;125;169;1032;1
1038;2;120;170;101;157;1033;1
1039;1;120;157;137;191;1034;1
1040;1;120;152;160;159;1028;1
1041;1;120;158;125;155;1026;1
1042;1;120;190;123;175;1024;1
1043;1;120;183;151;188;1025;1
1044;1;120;178;174;159;1023;1
1045;2;120;167;170;129;1021;1
1046;2;120;157;195;165;1020;1
1047;2;120;218;143;186;1035;1
1048;1;120;182;148;159;1022;1
1049;2;120;193;178;189;1027;1
1050;1;120;157;172;184;1029;1
1051;2;120;144;104;200;1031;1
1052;2;120;199;122;145;1036;1
1053;2;120;161;156;216;1030;1
1054;1;121;181;147;159;1048;1
1055;2;121;159;155;217;1053;1
1056;1;121;186;123;175;1042;1
1057;1;121;176;173;162;1044;1
1058;2;121;155;196;161;1046;1
1059;2;121;216;142;190;1047;1
1060;1;121;177;150;187;1043;1
1061;1;121;161;119;153;1041;1
1062;2;121;169;174;135;1045;1
1063;1;121;149;153;159;1040;1
1064;2;121;129;120;163;1037;1
1065;2;121;206;122;150;1052;1
1066;2;121;178;99;154;1038;1
1067;1;121;149;168;180;1050;1
1068;2;121;182;182;193;1049;1
1069;2;121;155;98;200;1051;1
1070;1;121;152;128;200;1039;1
1071;1;122;178;146;159;1054;1
1072;1;122;174;172;161;1057;1
1073;1;122;185;120;176;1056;1
1074;2;122;159;99;201;1069;1
1075;2;122;156;153;214;1055;1
1076;1;122;174;148;184;1060;1
1077;2;122;185;99;153;1066;1
1078;1;122;166;114;152;1061;1
1079;1;122;143;168;176;1067;1
1080;2;122;167;171;127;1062;1
1081;1;122;207;150;177;1059;1
1082;2;122;161;191;178;1068;1
1083;2;122;195;174;204;1068;1
1084;2;122;200;141;139;1065;1
1085;2;122;202;141;208;1059;1
1086;1;122;158;133;176;1070;1
1087;2;122;208;108;176;1065;1
1088;2;122;147;192;156;1058;1
1089;1;122;148;147;159;1063;1
1090;1;122;135;119;206;1070;1
1091;2;122;136;115;161;1064;1
1092;2;123;209;102;176;1087;1
1093;2;123;185;95;147;1077;1
1094;2;123;198;173;196;1083;1
1095;1;123;193;114;175;1073;1
1096;1;123;183;148;183;1076;1
1097;1;123;183;173;160;1072;1
1098;2;123;159;97;191;1074;1
1099;1;123;174;111;148;1078;1
1100;1;123;210;151;166;1081;1
1101;2;123;196;149;214;1085;1
1102;2;123;158;187;167;1082;1
1103;1;123;168;132;168;1086;1
1104;1;123;192;143;155;1071;1
1105;2;123;208;139;126;1084;1
1106;1;123;152;157;170;1079;1
1107;2;123;184;159;124;1080;1
1108;1;123;140;107;193;1090;1
1109;2;123;178;154;215;1075;1
1110;2;123;136;148;189;1075;1
1111;2;123;135;185;156;1088;1
1112;2;123;137;114;153;1091;1
1113;2;123;140;167;142;1080;1
1114;1;123;162;143;154;1089;1
1115;2;124;179;156;219;1109;1
1116;2;124;213;104;174;1092;1
1117;2;124;199;154;214;1101;1
1118;2;124;189;100;146;1093;1
1119;2;124;163;98;186;1098;1
1120;2;124;205;144;122;1105;1
1121;1;124;142;109;186;1108;1
1122;2;124;201;179;192;1094;1
1123;2;124;144;119;151;1112;1
1124;1;124;196;151;156;1104;1
1125;2;124;179;155;117;1107;1
1126;1;124;187;153;190;1096;1
1127;1;124;179;178;167;1097;1
1128;1;124;177;133;172;1103;1
1129;1;124;200;122;173;1095;1
1130;2;124;146;168;151;1113;1
1131;1;124;181;120;149;1099;1
1132;2;124;152;195;175;1102;1
1133;1;124;217;162;167;1100;1
1134;2;124;130;140;199;1110;1
1135;2;124;134;177;169;1111;1
1136;1;124;165;153;160;1114;1
1137;1;124;154;154;189;1106;1
1138;1;125;188;153;192;1126;1
1139;2;125;191;102;146;1118;1
1140;1;125;179;135;171;1128;1
1141;2;125;203;154;214;1117;1
1142;2;125;181;153;221;1115;1
1143;1;125;180;124;148;1131;1
1144;1;125;161;151;160;1136;1
1145;2;125;197;181;193;1122;1
1146;1;125;216;168;165;1133;1
1147;1;125;174;177;171;1127;1
1148;2;125;199;141;121;1120;1
1149;1;125;146;105;190;1121;1
1150;1;125;205;127;172;1129;1
1151;1;125;156;147;190;1137;1
1152;2;125;218;107;169;1116;1
1153;2;125;130;131;198;1134;1
1154;1;125;130;179;160;1135;1
1155;2;125;141;161;145;1130;1
1156;2;125;172;94;191;1119;1
1157;1;125;191;156;147;1124;1
1158;2;125;169;150;118;1125;1
1159;2;125;146;187;187;1132;1
1160;2;125;135;159;193;1135;1
1161;2;125;163;106;165;1123;1
1162;2;125;125;137;150;1123;1
1163;2;126;183;154;223;1142;1
1164;1;126;149;106;190;1149;1
1165;1;126;187;156;192;1138;1
1166;1;126;156;146;193;1151;1
1167;2;126;191;104;149;1139;1
1168;1;126;204;130;174;1150;1
1169;1;126;212;170;164;1146;1
1170;2;126;194;184;191;1145;1
1171;1;126;170;177;170;1147;1
1172;2;126;219;111;165;1152;1
1173;2;126;195;138;124;1148;1
1174;1;126;175;125;151;1143;1
1175;2;126;208;156;211;1141;1
1176;1;126;174;135;175;1140;1
1177;2;126;176;98;193;1156;1
1178;2;126;134;164;147;1155;1
1179;2;126;163;152;124;1158;1
1180;2;126;134;127;205;1153;1
1181;2;126;157;106;172;1161;1
1182;1;126;137;181;166;1154;1
1183;1;126;152;151;163;1144;1
1184;2;126;146;180;194;1159;1
1185;2;126;121;136;163;1162;1
1186;1;126;194;159;132;1157;1
1187;2;126;140;150;205;1160;1
1188;1;126;185;153;165;1157;1
1189;2;127;134;165;148;1178;1
1190;1;127;205;132;175;1168;1
1191;2;127;145;181;196;1184;1
1192;2;127;182;156;224;1163;1
1193;2;127;193;106;150;1167;1
1194;2;127;220;113;163;1172;1
1195;2;127;159;103;174;1181;1
1196;1;127;152;105;193;1164;1
1197;1;127;175;127;155;1174;1
1198;2;127;119;137;167;1185;1
1199;1;127;154;147;197;1166;1
1200;2;127;191;135;125;1173;1
1201;2;127;211;157;207;1175;1
1202;1;127;165;176;169;1171;1
1203;2;127;192;186;186;1170;1
1204;2;127;180;101;196;1177;1
1205;1;127;183;158;196;1165;1
1206;1;127;139;186;169;1182;1
1207;2;127;137;129;210;1180;1
1208;2;127;157;153;128;1179;1
1209;2;127;134;153;208;1187;1
1210;1;127;206;171;159;1169;1
1211;1;127;173;132;182;1176;1
1212;1;127;184;154;175;1188;1
1213;1;127;147;142;163;1183;1
1214;1;127;191;151;126;1186;1
1215;2;128;137;130;211;1207;1
1216;2;128;118;136;168;1198;1
1217;1;128;183;160;196;1205;1
1218;2;128;145;180;194;1191;1
1219;2;128;132;164;147;1189;1
1220;1;128;176;126;157;1197;1
1221;1;128;148;140;165;1213;1
1222;1;128;162;176;169;1202;1
1223;2;128;161;104;176;1195;1
1224;1;128;136;185;169;1206;1
1225;2;128;212;160;206;1201;1
1226;1;128;206;135;177;1190;1
1227;2;128;193;105;154;1193;1
1228;1;128;152;150;199;1199;1
1229;1;128;174;133;186;1211;1
1230;1;128;193;151;130;1214;1
1231;2;128;221;115;167;1194;1
1232;2;128;156;153;133;1208;1
1233;1;128;183;149;174;1212;1
1234;2;128;190;189;182;1203;1
1235;2;128;130;155;205;1209;1
1236;1;128;201;172;157;1210;1
1237;2;128;178;161;226;1192;1
1238;2;128;189;129;129;1200;1
1239;2;128;183;105;202;1204;1
1240;1;128;155;107;202;1196;1
1241;1;129;201;173;157;1236;1
1242;2;129;136;130;211;1215;1
1243;2;129;188;189;181;1234;1
1244;1;129;178;127;156;1220;1
1245;2;129;143;181;193;1218;1
1246;1;129;206;137;179;1226;1
1247;2;129;161;104;179;1223;1
1248;1;129;180;160;196;1217;1
1249;1;129;150;152;200;1228;1
1250;1;129;156;107;205;1240;1
1251;1;129;186;148;173;1233;1
1252;2;129;211;163;205;1225;1
1253;1;129;148;140;169;1221;1
1254;1;129;174;134;190;1229;1
1255;2;129;133;160;146;1219;1
1256;2;129;157;150;136;1232;1
1257;2;129;189;125;131;1238;1
1258;2;129;197;104;156;1227;1
1259;2;129;223;117;171;1231;1
1260;2;129;117;132;165;1216;1
1261;2;129;184;108;206;1239;1
1262;2;129;174;162;227;1237;1
1263;2;129;126;153;202;1235;1
1264;1;129;158;173;167;1222;1
1265;1;129;195;151;136;1230;1
1266;1;129;133;177;168;1224;1
1267;1;130;133;177;167;1266;1
1268;2;130;188;190;181;1243;1
1269;2;130;156;149;137;1256;1
1270;1;130;186;149;171;1251;1
1271;1;130;178;162;198;1248;1
1272;2;130;135;132;211;1242;1
1273;1;130;146;141;168;1253;1
1274;2;130;222;116;173;1259;1
1275;2;130;210;164;207;1252;1
1276;1;130;202;171;155;1241;1
1277;2;130;116;134;163;1260;1
1278;2;130;144;183;191;1245;1
1279;1;130;173;136;192;1254;1
1280;1;130;149;155;200;1249;1
1281;2;130;134;161;143;1255;1
1282;2;130;196;103;159;1258;1
1283;2;130;191;125;134;1257;1
1284;1;130;155;110;207;1250;1
1285;2;130;171;164;226;1262;1
1286;2;130;160;105;183;1247;1
1287;1;130;205;138;183;1246;1
1288;1;130;193;150;140;1265;1
1289;2;130;122;154;200;1263;1
1290;1;130;175;124;158;1244;1
1291;1;130;161;171;163;1264;1
1292;2;130;183;112;210;1261;1
1293;2;131;122;155;200;1289;1
1294;1;131;134;178;168;1267;1
1295;1;131;185;148;172;1270;1
1296;1;131;149;153;200;1280;1
1297;1;131;155;108;207;1284;1
1298;2;131;192;124;136;1283;1
1299;2;131;158;148;138;1269;1
1300;1;131;194;149;142;1288;1
1301;2;131;194;101;159;1282;1
1302;2;131;116;137;163;1277;1
1303;2;131;132;131;211;1272;1
1304;1;131;148;138;168;1273;1
1305;2;131;181;109;210;1292;1
1306;2;131;171;161;228;1285;1
1307;2;131;221;113;171;1274;1
1308;1;131;169;136;191;1279;1
1309;2;131;157;102;181;1286;1
1310;2;131;212;159;208;1275;1
1311;2;131;137;166;144;1281;1
1312;1;131;206;167;157;1276;1
1313;2;131;192;186;183;1268;1
1314;1;131;205;132;185;1287;1
1315;2;131;145;185;197;1278;1
1316;1;131;186;126;166;1290;1
1317;1;131;154;176;184;1291;1
1318;1;131;176;171;187;1271;1
1319;1;131;165;113;154;1290;1
1320;1;131;167;166;145;1291;1
1321;1;131;186;148;214;1271;1
1322;1;132;205;168;156;1312;1
1323;1;132;170;138;190;1308;1
1324;2;132;173;160;227;1306;1
1325;1;132;155;108;204;1297;1
1326;2;132;155;147;137;1299;1
1327;2;132;135;132;210;1303;1
1328;2;132;181;106;208;1305;1
1329;1;132;191;152;142;1300;1
1330;2;132;156;106;180;1309;1
1331;2;132;196;187;184;1313;1
1332;2;132;213;155;207;1310;1
1333;1;132;152;155;203;1296;1
1334;1;132;134;182;171;1294;1
1335;1;132;177;174;183;1318;1
1336;2;132;219;113;166;1307;1
1337;2;132;124;155;205;1293;1
1338;2;132;131;166;145;1311;1
1339;2;132;186;125;135;1298;1
1340;2;132;117;138;169;1302;1
1341;1;132;199;130;185;1314;1
1342;1;132;151;179;189;1317;1
1343;1;132;187;155;171;1295;1
1344;2;132;186;105;156;1301;1
1345;1;132;158;163;142;1320;1
1346;1;132;186;136;167;1316;1
1347;2;132;150;185;206;1315;1
1348;1;132;186;136;214;1321;1
1349;1;132;153;112;152;1319;1
1350;1;132;150;154;170;1304;1
1351;1;133;204;168;155;1322;1
1352;1;133;176;173;183;1335;1
1353;1;133;198;131;185;1341;1
1354;2;133;214;154;206;1332;1
1355;2;133;158;106;182;1330;1
1356;1;133;173;138;190;1323;1
1357;2;133;184;105;208;1328;1
1358;1;133;185;157;169;1343;1
1359;2;133;183;107;156;1344;1
1360;1;133;154;114;155;1349;1
1361;1;133;152;181;192;1342;1
1362;2;133;118;139;173;1340;1
1363;1;133;156;156;202;1333;1
1364;2;133;182;125;133;1339;1
1365;2;133;218;115;162;1336;1
1366;2;133;126;153;209;1337;1
1367;1;133;189;136;218;1348;1
1368;2;133;177;159;228;1324;1
1369;1;133;160;107;206;1325;1
1370;1;133;186;155;142;1329;1
1371;2;133;198;183;188;1331;1
1372;2;133;154;184;212;1347;1
1373;2;133;128;169;151;1338;1
1374;2;133;138;128;216;1327;1
1375;1;133;155;170;146;1345;1
1376;1;133;188;132;159;1346;1
1377;1;133;135;182;182;1334;1
1378;1;133;148;151;147;1350;1
1379;1;133;147;149;187;1350;1
1380;2;133;150;147;139;1326;1
1381;2;134;185;104;209;1357;1
1382;2;134;118;141;173;1362;1
1383;1;134;196;130;185;1353;1
1384;1;134;171;138;191;1356;1
1385;1;134;154;180;193;1361;1
1386;1;134;192;136;218;1367;1
1387;1;134;182;156;170;1358;1
1388;1;134;136;181;185;1377;1
1389;1;134;161;106;209;1369;1
1390;2;134;139;125;215;1374;1
1391;1;134;184;153;144;1370;1
1392;2;134;179;123;133;1364;1
1393;1;134;145;151;145;1378;1
1394;2;134;216;116;159;1365;1
1395;2;134;215;152;203;1354;1
1396;2;134;128;170;155;1373;1
1397;2;134;157;106;178;1355;1
1398;2;134;181;158;228;1368;1
1399;1;134;203;164;156;1351;1
1400;2;134;155;181;215;1372;1
1401;1;134;157;171;150;1375;1
1402;1;134;178;170;186;1352;1
1403;2;134;198;180;192;1371;1
1404;2;134;178;105;156;1359;1
1405;2;134;127;150;214;1366;1
1406;1;134;182;131;160;1376;1
1407;1;134;149;120;156;1360;1
1408;1;134;156;153;210;1363;1
1409;1;134;142;155;193;1379;1
1410;2;134;148;145;129;1380;1
1411;1;135;178;171;186;1402;1
1412;2;135;199;180;192;1403;1
1413;1;135;160;105;209;1389;1
1414;1;135;183;130;161;1406;1
1415;1;135;172;137;190;1384;1
1416;2;135;156;180;216;1400;1
1417;1;135;182;154;170;1387;1
1418;1;135;183;155;143;1391;1
1419;2;135;176;106;155;1404;1
1420;2;135;216;151;201;1395;1
1421;2;135;179;125;131;1392;1
1422;1;135;156;182;194;1385;1
1423;2;135;183;105;211;1381;1
1424;2;135;140;127;213;1390;1
1425;2;135;148;148;128;1410;1
1426;2;135;129;173;155;1396;1
1427;2;135;127;147;213;1405;1
1428;1;135;193;136;214;1386;1
1429;2;135;212;115;160;1394;1
1430;1;135;136;185;183;1388;1
1431;1;135;141;153;147;1393;1
1432;2;135;185;156;226;1398;1
1433;1;135;148;125;156;1407;1
1434;2;135;155;106;173;1397;1
1435;1;135;201;169;155;1399;1
1436;1;135;157;174;154;1401;1
1437;1;135;138;163;194;1409;1
1438;1;135;144;146;202;1408;1
1439;1;135;172;160;204;1408;1
1440;1;135;208;148;169;1383;1
1441;1;135;179;116;188;1383;1
1442;2;135;121;143;173;1382;1
1443;2;136;212;114;160;1429;1
1444;1;136;209;148;169;1440;1
1445;2;136;130;173;154;1426;1
1446;1;136;192;136;212;1428;1
1447;2;136;155;178;216;1416;1
1448;2;136;185;155;228;1432;1
1449;2;136;178;123;132;1421;1
1450;1;136;180;152;169;1417;1
1451;2;136;155;106;176;1434;1
1452;2;136;148;145;129;1425;1
1453;1;136;160;174;154;1436;1
1454;1;136;149;125;159;1433;1
1455;1;136;137;185;180;1430;1
1456;1;136;182;152;144;1418;1
1457;1;136;179;168;187;1411;1
1458;1;136;199;167;153;1435;1
1459;2;136;174;104;157;1419;1
1460;1;136;181;128;163;1414;1
1461;1;136;157;105;211;1413;1
1462;1;136;141;153;151;1431;1
1463;2;136;201;179;188;1412;1
1464;2;136;181;107;215;1423;1
1465;1;136;174;164;204;1439;1
1466;1;136;168;138;193;1415;1
1467;2;136;218;146;201;1420;1
1468;1;136;156;176;194;1422;1
1469;1;136;133;161;191;1437;1
1470;1;136;175;113;193;1441;1
1471;2;136;138;122;218;1424;1
1472;1;136;139;139;196;1438;1
1473;2;136;116;141;168;1442;1
1474;2;136;124;148;213;1427;1
1475;1;137;176;112;194;1470;1
1476;2;137;183;155;228;1448;1
1477;2;137;181;108;217;1464;1
1478;1;137;158;104;213;1461;1
1479;2;137;137;123;220;1471;1
1480;1;137;149;123;161;1454;1
1481;1;137;166;136;194;1466;1
1482;1;137;141;150;152;1462;1
1483;2;137;130;170;153;1445;1
1484;1;137;160;171;153;1453;1
1485;1;137;180;149;170;1450;1
1486;1;137;189;136;213;1446;1
1487;1;137;180;149;144;1456;1
1488;2;137;213;112;163;1443;1
1489;1;137;207;145;170;1444;1
1490;1;137;136;182;178;1455;1
1491;1;137;140;136;194;1472;1
1492;2;137;115;137;168;1473;1
1493;1;137;196;164;152;1458;1
1494;2;137;216;142;201;1467;1
1495;1;137;182;124;165;1460;1
1496;2;137;174;100;160;1459;1
1497;2;137;151;175;215;1447;1
1498;2;137;147;140;130;1452;1
1499;1;137;178;163;186;1457;1
1500;2;137;197;179;184;1463;1
1501;1;137;152;176;190;1468;1
1502;2;137;155;103;181;1451;1
1503;2;137;177;116;133;1449;1
1504;1;137;128;156;193;1469;1
1505;1;137;168;167;206;1465;1
1506;2;137;124;150;214;1474;1
1507;1;138;196;164;152;1493;1
1508;1;138;159;171;153;1484;1
1509;1;138;180;149;169;1485;1
1510;1;138;140;149;152;1482;1
1511;1;138;183;125;165;1495;1
1512;1;138;151;176;189;1501;1
1513;1;138;208;146;171;1489;1
1514;1;138;151;123;161;1480;1
1515;2;138;183;157;228;1476;1
1516;2;138;178;116;135;1503;1
1517;1;138;128;155;191;1504;1
1518;1;138;166;138;193;1481;1
1519;2;138;214;142;202;1494;1
1520;2;138;122;150;213;1506;1
1521;1;138;158;106;214;1478;1
1522;1;138;178;150;143;1487;1
1523;2;138;129;169;151;1483;1
1524;1;138;135;181;176;1490;1
1525;1;138;188;138;212;1486;1
1526;1;138;176;162;188;1499;1
1527;1;138;165;167;206;1505;1
1528;2;138;183;110;218;1477;1
1529;2;138;213;113;166;1488;1
1530;2;138;115;134;167;1492;1
1531;1;138;141;139;195;1491;1
1532;2;138;139;125;222;1479;1
1533;2;138;147;136;131;1498;1
1534;1;138;179;114;196;1475;1
1535;2;138;148;177;213;1497;1
1536;2;138;176;100;164;1496;1
1537;2;138;156;104;186;1502;1
1538;2;138;194;182;177;1500;1
1539;1;139;195;164;152;1507;1
1540;2;139;214;142;201;1519;1
1541;1;139;159;106;214;1521;1
1542;1;139;165;137;193;1518;1
1543;2;139;138;124;223;1532;1
1544;2;139;214;113;168;1529;1
1545;2;139;183;111;220;1528;1
1546;2;139;181;158;228;1515;1
1547;1;139;185;124;166;1511;1
1548;1;139;181;113;195;1534;1
1549;2;139;123;152;212;1520;1
1550;1;139;178;147;143;1522;1
1551;1;139;133;180;174;1524;1
1552;1;139;126;154;189;1517;1
1553;2;139;146;178;211;1535;1
1554;1;139;207;143;171;1513;1
1555;1;139;174;161;188;1526;1
1556;1;139;188;137;209;1525;1
1557;1;139;152;120;162;1514;1
1558;2;139;157;101;187;1537;1
1559;1;139;144;140;196;1531;1
1560;1;139;178;146;170;1509;1
1561;2;139;180;113;137;1516;1
1562;2;139;178;97;166;1536;1
1563;2;139;127;165;150;1523;1
1564;1;139;148;173;189;1512;1
1565;1;139;159;166;154;1508;1
1566;2;139;190;181;174;1538;1
1567;2;139;148;131;132;1533;1
1568;2;139;116;129;168;1530;1
1569;1;139;161;162;205;1527;1
1570;1;139;140;142;155;1510;1
1571;1;140;178;146;143;1550;1
1572;1;140;187;137;209;1556;1
1573;1;140;159;165;153;1565;1
1574;1;140;185;123;167;1547;1
1575;1;140;144;141;197;1559;1
1576;1;140;208;142;172;1554;1
1577;2;140;213;141;202;1540;1
1578;2;140;121;152;212;1549;1
1579;1;140;159;104;215;1541;1
1580;1;140;164;135;194;1542;1
1581;1;140;132;178;172;1551;1
1582;2;140;157;98;187;1558;1
1583;1;140;172;159;187;1555;1
1584;1;140;146;171;188;1564;1
1585;1;140;183;112;197;1548;1
1586;1;140;196;161;152;1539;1
1587;2;140;117;126;167;1568;1
1588;2;140;143;178;209;1553;1
1589;2;140;183;113;223;1545;1
1590;2;140;178;158;230;1546;1
1591;2;140;181;110;139;1561;1
1592;2;140;128;163;147;1563;1
1593;1;140;153;118;165;1557;1
1594;1;140;176;143;169;1560;1
1595;2;140;188;180;171;1566;1
1596;2;140;215;112;172;1544;1
1597;2;140;179;94;169;1562;1
1598;1;140;141;138;157;1570;1
1599;1;140;124;151;186;1552;1
1600;2;140;133;122;222;1543;1
1601;1;140;158;157;206;1569;1
1602;2;140;148;124;133;1567;1
1603;1;141;185;122;167;1574;1
1604;1;141;208;141;172;1576;1
1605;2;141;212;141;202;1577;1
1606;1;141;159;105;215;1579;1
1607;1;141;159;164;152;1573;1
1608;1;141;195;161;153;1586;1
1609;2;141;156;97;187;1582;1
1610;1;141;175;142;168;1594;1
1611;1;141;184;113;198;1585;1
1612;2;141;215;112;174;1596;1
1613;1;141;155;117;165;1593;1
1614;2;141;117;124;166;1587;1
1615;1;141;144;142;195;1575;1
1616;2;141;147;122;134;1602;1
1617;1;141;177;144;142;1571;1
1618;1;141;123;152;184;1599;1
1619;2;141;182;108;141;1591;1
1620;1;141;141;135;156;1598;1
1621;1;141;184;138;209;1572;1
1622;2;141;178;91;170;1597;1
1623;1;141;156;155;204;1601;1
1624;1;141;162;135;191;1580;1
1625;2;141;121;155;210;1578;1
1626;2;141;183;116;225;1589;1
1627;1;141;144;169;185;1584;1
1628;1;141;131;177;168;1581;1
1629;1;141;169;158;184;1583;1
1630;2;141;129;122;220;1600;1
1631;2;141;127;161;143;1592;1
1632;2;141;177;163;230;1590;1
1633;2;141;185;181;166;1595;1
1634;2;141;142;181;204;1588;1
1635;2;142;128;161;144;1631;1
1636;2;142;157;98;188;1609;1
1637;1;142;159;107;216;1606;1
1638;1;142;178;143;144;1617;1
1639;1;142;162;165;152;1607;1
1640;2;142;120;125;167;1614;1
1641;1;142;133;179;166;1628;1
1642;1;142;177;144;170;1610;1
1643;2;142;185;183;169;1633;1
1644;1;142;146;145;195;1615;1
1645;2;142;127;125;220;1630;1
1646;1;142;185;141;211;1621;1
1647;2;142;150;120;136;1616;1
1648;1;142;197;163;156;1608;1
1649;1;142;160;156;204;1623;1
1650;1;142;159;118;166;1613;1
1651;1;142;127;152;182;1618;1
1652;1;142;189;124;169;1603;1
1653;2;142;183;120;228;1626;1
1654;1;142;145;136;159;1620;1
1655;2;142;124;159;211;1625;1
1656;2;142;212;145;206;1605;1
1657;2;142;182;92;174;1622;1
1658;1;142;166;136;195;1624;1
1659;2;142;179;168;228;1632;1
1660;2;142;187;109;144;1619;1
1661;1;142;209;144;177;1604;1
1662;1;142;149;173;186;1627;1
1663;1;142;187;118;201;1611;1
1664;2;142;218;116;180;1612;1
1665;1;142;174;162;187;1629;1
1666;2;142;148;186;203;1634;1
1667;2;143;184;121;228;1653;1
1668;1;143;160;108;217;1637;1
1669;1;143;190;126;169;1652;1
1670;1;143;211;145;178;1661;1
1671;2;143;219;117;182;1664;1
1672;2;143;156;100;189;1636;1
1673;2;143;130;163;144;1635;1
1674;2;143;150;188;204;1666;1
1675;1;143;136;180;166;1641;1
1676;1;143;167;139;195;1658;1
1677;1;143;188;121;201;1663;1
1678;2;143;181;95;173;1657;1
1679;1;143;188;143;211;1646;1
1680;1;143;164;168;153;1639;1
1681;1;143;200;165;157;1648;1
1682;1;143;162;120;165;1650;1
1683;1;143;130;154;183;1651;1
1684;1;143;148;148;196;1644;1
1685;2;143;182;170;227;1659;1
1686;1;143;179;147;172;1642;1
1687;2;143;212;149;207;1656;1
1688;1;143;148;139;159;1654;1
1689;1;143;152;175;185;1662;1
1690;2;143;127;162;210;1655;1
1691;2;143;189;113;144;1660;1
1692;1;143;179;147;146;1638;1
1693;2;143;153;124;136;1647;1
1694;2;143;123;129;169;1640;1
1695;2;143;125;130;218;1645;1
1696;1;143;179;165;188;1665;1
1697;1;143;165;159;205;1649;1
1698;2;143;192;186;173;1643;1
1699;2;144;219;117;182;1671;1
1700;1;144;179;148;146;1692;1
1701;1;144;190;127;169;1669;1
1702;2;144;181;96;173;1678;1
1703;1;144;201;165;156;1681;1
1704;1;144;163;120;164;1682;1
1705;1;144;178;148;171;1686;1
1706;2;144;193;187;172;1698;1
1707;2;144;183;120;227;1667;1
1708;2;144;191;114;144;1691;1
1709;1;144;188;122;199;1677;1
1710;2;144;182;172;226;1685;1
1711;2;144;154;122;137;1693;1
1712;2;144;131;162;142;1673;1
1713;1;144;149;140;157;1688;1
1714;2;144;155;99;187;1672;1
1715;1;144;181;166;187;1696;1
1716;1;144;211;143;180;1670;1
1717;2;144;214;149;205;1687;1
1718;2;144;123;131;216;1695;1
1719;2;144;124;129;166;1694;1
1720;1;144;153;175;182;1689;1
1721;1;144;170;140;195;1676;1
1722;1;144;188;145;208;1679;1
1723;1;144;165;170;150;1680;1
1724;1;144;132;153;180;1683;1
1725;2;144;148;189;201;1674;1
1726;1;144;160;109;213;1668;1
1727;1;144;149;149;192;1684;1
1728;1;144;138;180;162;1675;1
1729;1;144;166;163;203;1697;1
1730;2;144;127;166;206;1690;1
1731;1;145;190;126;169;1701;1
1732;1;145;201;166;155;1703;1
1733;1;145;164;120;165;1704;1
1734;2;145;215;150;205;1717;1
1735;2;145;125;128;167;1719;1
1736;2;145;194;188;171;1706;1
1737;2;145;131;160;142;1712;1
1738;1;145;138;179;160;1728;1
1739;1;145;179;148;169;1705;1
1740;1;145;213;144;180;1716;1
1741;2;145;219;116;184;1699;1
1742;2;145;157;99;188;1714;1
1743;1;145;180;146;145;1700;1
1744;1;145;166;169;148;1723;1
1745;1;145;183;167;186;1715;1
1746;2;145;191;112;146;1708;1
1747;1;145;134;153;178;1724;1
1748;2;145;121;131;214;1718;1
1749;2;145;155;120;139;1711;1
1750;2;145;182;94;175;1702;1
1751;1;145;155;174;180;1720;1
1752;1;145;172;141;193;1721;1
1753;1;145;152;139;158;1713;1
1754;2;145;148;191;198;1725;1
1755;1;145;151;150;189;1727;1
1756;2;145;126;168;203;1730;1
1757;2;145;184;174;225;1710;1
1758;2;145;185;123;228;1707;1
1759;1;145;191;147;206;1722;1
1760;1;145;191;125;199;1709;1
1761;1;145;169;165;200;1729;1
1762;1;145;162;115;210;1726;1
1763;1;146;138;180;159;1738;1
1764;2;146;220;116;185;1741;1
1765;2;146;216;150;204;1734;1
1766;1;146;192;124;198;1760;1
1767;1;146;152;137;158;1753;1
1768;2;146;194;188;169;1736;1
1769;2;146;190;110;146;1746;1
1770;1;146;214;142;180;1740;1
1771;2;146;156;97;188;1742;1
1772;2;146;119;131;213;1748;1
1773;2;146;186;121;228;1758;1
1774;1;146;201;164;153;1732;1
1775;1;146;178;144;144;1743;1
1776;1;146;155;174;177;1751;1
1777;1;146;163;113;208;1762;1
1778;1;146;166;166;147;1744;1
1779;2;146;125;125;168;1735;1
1780;2;146;182;91;176;1750;1
1781;1;146;190;147;203;1759;1
1782;1;146;165;117;166;1733;1
1783;1;146;191;123;170;1731;1
1784;1;146;174;140;192;1752;1
1785;2;146;126;170;200;1756;1
1786;1;146;152;148;186;1755;1
1787;2;146;131;156;142;1737;1
1788;1;146;177;145;167;1739;1
1789;1;146;132;150;176;1747;1
1790;1;146;184;166;182;1745;1
1791;2;146;146;191;194;1754;1
1792;1;146;172;166;196;1761;1
1793;2;146;186;177;221;1757;1
1794;2;146;154;115;141;1749;1
1795;1;147;166;166;146;1778;1
1796;1;147;133;150;176;1789;1
1797;1;147;155;174;176;1776;1
1798;1;147;151;136;158;1767;1
1799;1;147;164;118;166;1782;1
1800;1;147;190;123;171;1783;1
1801;1;147;152;149;187;1786;1
1802;1;147;192;125;199;1766;1
1803;2;147;124;126;169;1779;1
1804;1;147;174;141;193;1784;1
1805;2;147;185;178;220;1793;1
1806;2;147;194;188;167;1768;1
1807;2;147;190;108;147;1769;1
1808;1;147;186;166;181;1790;1
1809;1;147;170;167;196;1792;1
1810;2;147;215;150;202;1765;1
1811;2;147;129;155;141;1787;1
1812;1;147;200;163;151;1774;1
1813;2;147;219;117;187;1764;1
1814;2;147;155;98;190;1771;1
1815;2;147;125;169;198;1785;1
1816;1;147;178;141;144;1775;1
1817;2;147;180;92;178;1780;1
1818;2;147;146;191;191;1791;1
1819;2;147;151;114;141;1794;1
1820;1;147;176;142;167;1788;1
1821;1;147;137;181;156;1763;1
1822;1;147;211;141;181;1770;1
1823;1;147;187;149;202;1781;1
1824;2;147;184;124;227;1773;1
1825;2;147;120;135;214;1772;1
1826;1;147;163;120;212;1777;1
1827;2;148;129;155;142;1811;1
1828;1;148;167;166;146;1795;1
1829;1;148;151;136;159;1798;1
1830;2;148;194;188;168;1806;1
1831;1;148;211;141;182;1822;1
1832;2;148;120;134;214;1825;1
1833;2;148;185;178;221;1805;1
1834;2;148;152;114;142;1819;1
1835;1;148;179;141;145;1816;1
1836;1;148;186;165;182;1808;1
1837;2;148;219;116;188;1813;1
1838;1;148;191;122;172;1800;1
1839;2;148;216;151;203;1810;1
1840;2;148;191;108;149;1807;1
1841;1;148;176;143;169;1820;1
1842;1;148;133;149;174;1796;1
1843;1;148;157;175;176;1797;1
1844;2;148;125;168;200;1815;1
1845;2;148;125;125;171;1803;1
1846;1;148;151;150;189;1801;1
1847;1;148;188;150;204;1823;1
1848;1;148;202;163;153;1812;1
1849;1;148;137;183;158;1821;1
1850;2;148;184;126;229;1824;1
1851;2;148;180;92;181;1817;1
1852;1;148;194;124;201;1802;1
1853;1;148;163;118;169;1799;1
1854;2;148;156;99;193;1814;1
1855;1;148;173;140;196;1804;1
1856;1;148;164;123;214;1826;1
1857;2;148;146;189;195;1818;1
1858;1;148;174;167;198;1809;1
1859;2;149;216;151;203;1839;1
1860;2;149;191;107;149;1840;1
1861;1;149;195;124;201;1852;1
1862;1;149;164;117;169;1853;1
1863;1;149;134;148;174;1842;1
1864;2;149;156;98;194;1854;1
1865;1;149;187;150;203;1847;1
1866;2;149;119;134;215;1832;1
1867;1;149;179;139;145;1835;1
1868;1;149;137;181;158;1849;1
1869;2;149;151;112;142;1834;1
1870;1;149;151;134;160;1829;1
1871;1;149;186;163;181;1836;1
1872;1;149;210;139;182;1831;1
1873;2;149;186;127;229;1850;1
1874;1;149;165;165;147;1828;1
1875;1;149;177;142;167;1841;1
1876;2;149;192;189;169;1830;1
1877;2;149;220;117;190;1837;1
1878;2;149;144;188;194;1857;1
1879;1;149;174;139;195;1855;1
1880;2;149;187;176;221;1833;1
1881;1;149;191;119;172;1838;1
1882;2;149;179;90;179;1851;1
1883;1;149;174;165;196;1858;1
1884;2;149;123;167;198;1844;1
1885;2;149;129;152;143;1827;1
1886;2;149;125;122;172;1845;1
1887;1;149;157;173;175;1843;1
1888;1;149;165;123;211;1856;1
1889;1;149;152;147;188;1846;1
1890;1;149;200;162;150;1848;1
1891;2;150;151;112;142;1869;1
1892;2;150;129;152;142;1885;1
1893;2;150;192;107;149;1860;1
1894;2;150;220;117;189;1877;1
1895;2;150;124;122;171;1886;1
1896;2;150;187;128;229;1873;1
1897;1;150;199;163;149;1890;1
1898;1;150;165;116;168;1862;1
1899;1;150;192;120;171;1881;1
1900;1;150;151;135;158;1870;1
1901;1;150;177;138;144;1867;1
1902;1;150;176;143;165;1875;1
1903;2;150;191;190;167;1876;1
1904;1;150;165;167;145;1874;1
1905;2;150;218;152;201;1859;1
1906;1;150;210;138;179;1872;1
1907;1;150;190;150;202;1865;1
1908;2;150;116;134;214;1866;1
1909;1;150;136;180;161;1868;1
1910;1;150;133;147;171;1863;1
1911;2;150;157;97;191;1864;1
1912;1;150;196;125;198;1861;1
1913;1;150;168;122;210;1888;1
1914;2;150;181;92;181;1882;1
1915;1;150;157;174;172;1887;1
1916;1;150;152;146;184;1889;1
1917;1;150;189;164;178;1871;1
1918;2;150;121;167;194;1884;1
1919;2;150;142;190;190;1878;1
1920;2;150;191;177;218;1880;1
1921;1;150;177;165;191;1883;1
1922;1;150;174;137;189;1879;1
1923;2;151;129;152;143;1892;1
1924;2;151;142;190;191;1919;1
1925;1;151;178;138;145;1901;1
1926;1;151;198;164;149;1897;1
1927;2;151;121;166;195;1918;1
1928;1;151;209;139;180;1906;1
1929;2;151;192;107;151;1893;1
1930;1;151;152;146;186;1916;1
1931;2;151;220;119;189;1894;1
1932;2;151;152;112;144;1891;1
1933;1;151;152;135;160;1900;1
1934;2;151;181;93;183;1914;1
1935;1;151;134;179;160;1909;1
1936;2;151;125;123;173;1895;1
1937;1;151;192;120;174;1899;1
1938;1;151;191;165;180;1917;1
1939;2;151;185;130;230;1896;1
1940;1;151;165;166;148;1904;1
1941;1;151;176;144;168;1902;1
1942;2;151;216;154;203;1905;1
1943;1;151;196;127;201;1912;1
1944;1;151;187;152;204;1907;1
1945;2;151;190;191;171;1903;1
1946;1;151;157;172;175;1915;1
1947;1;151;175;166;195;1921;1
1948;1;151;137;147;174;1910;1
1949;2;151;188;177;222;1920;1
1950;1;151;165;117;173;1898;1
1951;1;151;166;126;213;1913;1
1952;2;151;120;136;217;1908;1
1953;1;151;174;139;196;1922;1
1954;2;151;157;101;198;1911;1
1955;1;152;199;164;149;1926;1
1956;2;152;193;107;151;1929;1
1957;1;152;152;134;160;1933;1
1958;2;152;186;130;230;1939;1
1959;1;152;178;137;144;1925;1
1960;1;152;193;120;173;1937;1
1961;2;152;130;151;142;1923;1
1962;1;152;177;143;167;1941;1
1963;2;152;182;92;184;1934;1
1964;2;152;120;165;194;1927;1
1965;1;152;197;126;200;1943;1
1966;1;152;165;165;146;1940;1
1967;1;152;135;177;160;1935;1
1968;2;152;125;121;172;1936;1
1969;1;152;192;165;178;1938;1
1970;2;152;141;190;189;1924;1
1971;2;152;221;119;191;1931;1
1972;2;152;118;135;217;1952;1
1973;2;152;190;177;221;1949;1
1974;1;152;210;138;178;1928;1
1975;2;152;217;153;201;1942;1
1976;2;152;152;109;144;1932;1
1977;2;152;159;99;197;1954;1
1978;1;152;168;125;211;1951;1
1979;1;152;190;153;203;1944;1
1980;2;152;187;192;169;1945;1
1981;1;152;158;174;172;1946;1
1982;1;152;177;165;192;1947;1
1983;1;152;167;115;170;1950;1
1984;1;152;153;143;183;1930;1
1985;1;152;176;136;193;1953;1
1986;1;152;136;144;170;1948;1
1987;1;153;152;134;158;1957;1
1988;1;153;193;120;171;1960;1
1989;2;153;182;92;182;1963;1
1990;2;153;152;108;142;1976;1
1991;2;153;125;120;170;1968;1
1992;1;153;211;138;176;1974;1
1993;1;153;179;136;142;1959;1
1994;2;153;192;106;149;1956;1
1995;1;153;166;114;168;1983;1
1996;2;153;218;154;199;1975;1
1997;1;153;197;124;198;1965;1
1998;2;153;222;121;189;1971;1
1999;2;153;188;131;228;1958;1
2000;2;153;131;151;139;1961;1
2001;1;153;166;165;143;1966;1
2002;1;153;177;142;164;1962;1
2003;1;153;177;135;190;1985;1
2004;1;153;170;125;208;1978;1
2005;2;153;157;98;194;1977;1
2006;2;153;192;178;218;1973;1
2007;2;153;186;192;165;1980;1
2008;1;153;199;162;145;1955;1
2009;1;153;136;143;165;1986;1
2010;1;153;195;164;174;1969;1
2011;1;153;160;173;167;1981;1
2012;1;153;192;152;198;1979;1
2013;1;153;179;164;186;1982;1
2014;2;153;118;164;188;1964;1
2015;1;153;153;140;177;1984;1
2016;1;153;136;177;153;1967;1
2017;2;153;140;192;182;1970;1
2018;2;153;120;130;217;1972;1
2019;1;154;211;137;175;1992;1
2020;2;154;131;149;138;2000;1
2021;1;154;193;119;169;1988;1
2022;1;154;166;163;141;2001;1
2023;2;154;190;104;149;1994;1
2024;1;154;166;114;165;1995;1
2025;2;154;158;96;192;2005;1
2026;2;154;186;191;162;2007;1
2027;2;154;179;92;181;1989;1
2028;2;154;221;121;186;1998;1
2029;2;154;188;130;225;1999;1
2030;1;154;178;133;141;1993;1
2031;1;154;138;175;155;2016;1
2032;2;154;154;111;141;1990;1
2033;1;154;153;131;156;1987;1
2034;1;154;176;140;161;2002;1
2035;1;154;138;140;163;2009;1
2036;2;154;124;120;166;1991;1
2037;1;154;198;124;194;1997;1
2038;1;154;198;158;142;2008;1
2039;2;154;195;175;215;2006;1
2040;1;154;162;172;162;2011;1
2041;2;154;219;152;194;1996;1
2042;1;154;182;134;187;2003;1
2043;1;154;194;149;193;2012;1
2044;1;154;156;136;173;2015;1
2045;1;154;183;161;181;2013;1
2046;2;154;117;161;180;2014;1
2047;1;154;173;124;200;2004;1
2048;2;154;141;192;173;2017;1
2049;1;154;197;162;169;2010;1
2050;2;154;118;129;212;2018;1
2051;2;155;190;104;149;2023;1
2052;1;155;166;163;140;2022;1
2053;1;155;198;158;141;2038;1
2054;1;155;138;175;156;2031;1
2055;2;155;179;93;181;2027;1
2056;1;155;177;133;140;2030;1
2057;2;155;153;110;141;2032;1
2058;2;155;123;119;166;2036;1
2059;1;155;177;141;160;2034;1
2060;2;155;186;191;164;2026;1
2061;1;155;211;137;173;2019;1
2062;2;155;115;161;180;2046;1
2063;1;155;164;114;164;2024;1
2064;1;155;155;136;171;2044;1
2065;1;155;182;135;185;2042;1
2066;2;155;221;122;188;2028;1
2067;1;155;194;151;192;2043;1
2068;1;155;194;117;168;2021;1
2069;1;155;199;123;192;2037;1
2070;2;155;220;151;196;2041;1
2071;2;155;132;151;136;2020;1
2072;1;155;163;170;160;2040;1
2073;2;155;197;174;216;2039;1
2074;2;155;142;193;170;2048;1
2075;1;155;185;158;180;2045;1
2076;1;155;152;131;151;2033;1
2077;2;155;158;97;197;2025;1
2078;2;155;186;129;220;2029;1
2079;1;155;174;124;194;2047;1
2080;2;155;117;127;215;2050;1
2081;1;155;196;161;168;2049;1
2082;1;155;137;138;163;2035;1
2083;1;156;212;137;173;2061;1
2084;2;156;222;123;188;2066;1
2085;2;156;221;151;195;2070;1
2086;2;156;190;102;149;2051;1
2087;1;156;138;174;156;2054;1
2088;2;156;153;108;140;2057;1
2089;1;156;200;157;141;2053;1
2090;1;156;164;112;163;2063;1
2091;1;156;167;161;139;2052;1
2092;1;156;178;131;141;2056;1
2093;1;156;151;129;152;2076;1
2094;2;156;143;192;168;2074;1
2095;2;156;178;91;182;2055;1
2096;1;156;194;115;166;2068;1
2097;1;156;178;139;158;2059;1
2098;2;156;122;117;164;2058;1
2099;1;156;201;121;191;2069;1
2100;2;156;135;152;136;2071;1
2101;1;156;186;155;181;2075;1
2102;1;156;183;132;184;2065;1
2103;1;156;199;161;166;2081;1
2104;1;156;164;167;158;2072;1
2105;2;156;187;188;162;2060;1
2106;2;156;160;94;198;2077;1
2107;1;156;155;132;171;2064;1
2108;2;156;115;162;176;2062;1
2109;2;156;199;170;218;2073;1
2110;2;156;181;129;221;2078;1
2111;1;156;174;119;196;2079;1
2112;1;156;198;146;193;2067;1
2113;2;156;122;119;215;2080;1
2114;1;156;135;136;161;2082;1
2115;2;157;154;109;140;2088;1
2116;1;157;166;161;140;2091;1
2117;2;157;134;154;136;2100;1
2118;1;157;178;133;140;2092;1
2119;1;157;139;175;156;2087;1
2120;2;157;223;125;186;2084;1
2121;2;157;193;102;150;2086;1
2122;1;157;154;135;170;2107;1
2123;1;157;197;164;166;2103;1
2124;1;157;212;140;171;2083;1
2125;2;157;115;165;178;2108;1
2126;2;157;197;173;218;2109;1
2127;1;157;198;160;140;2089;1
2128;1;157;165;114;160;2090;1
2129;2;157;145;193;171;2094;1
2130;1;157;176;142;156;2097;1
2131;2;157;187;190;166;2105;1
2132;2;157;124;121;165;2098;1
2133;2;157;182;94;183;2095;1
2134;1;157;198;151;194;2112;1
2135;2;157;220;156;194;2085;1
2136;1;157;160;167;162;2104;1
2137;1;157;197;120;166;2096;1
2138;1;157;180;156;183;2101;1
2139;1;157;204;128;190;2099;1
2140;2;157;163;99;203;2106;1
2141;1;157;173;126;191;2111;1
2142;2;157;127;122;223;2113;1
2143;2;157;196;140;205;2110;1
2144;2;157;171;125;231;2110;1
2145;1;157;135;138;160;2114;1
2146;1;157;152;133;151;2093;1
2147;1;157;182;134;178;2102;1
2148;1;158;177;132;141;2118;1
2149;2;158;222;126;187;2120;1
2150;1;158;197;162;140;2127;1
2151;2;158;117;166;178;2125;1
2152;2;158;133;156;137;2117;1
2153;2;158;193;102;153;2121;1
2154;1;158;194;120;165;2137;1
2155;1;158;194;165;165;2123;1
2156;2;158;125;122;168;2132;1
2157;1;158;163;161;142;2116;1
2158;1;158;139;175;160;2119;1
2159;1;158;176;141;160;2130;1
2160;2;158;163;98;207;2140;1
2161;1;158;165;116;164;2128;1
2162;1;158;174;130;193;2141;1
2163;2;158;156;113;142;2115;1
2164;1;158;176;158;185;2138;1
2165;2;158;220;159;190;2135;1
2166;1;158;209;144;169;2124;1
2167;1;158;201;133;189;2139;1
2168;2;158;192;175;219;2126;1
2169;2;158;181;190;165;2131;1
2170;2;158;145;192;177;2129;1
2171;1;158;156;167;167;2136;1
2172;1;158;151;137;176;2122;1
2173;2;158;197;147;202;2143;1
2174;2;158;168;131;235;2144;1
2175;2;158;182;101;188;2133;1
2176;2;158;135;126;226;2142;1
2177;1;158;150;133;157;2146;1
2178;1;158;177;140;181;2147;1
2179;1;158;198;160;193;2134;1
2180;1;158;134;142;166;2145;1
2181;2;159;145;193;176;2170;1
2182;1;159;161;162;142;2157;1
2183;2;159;134;155;135;2152;1
2184;1;159;178;134;142;2148;1
2185;1;159;149;138;175;2172;1
2186;2;159;193;102;150;2153;1
2187;1;159;195;122;163;2154;1
2188;2;159;182;188;163;2169;1
2189;1;159;154;169;166;2171;1
2190;2;159;194;174;217;2168;1
2191;2;159;170;129;234;2174;1
2192;1;159;174;142;160;2159;1
2193;1;159;165;119;163;2161;1
2194;1;159;200;136;188;2167;1
2195;1;159;137;177;158;2158;1
2196;1;159;192;166;162;2155;1
2197;2;159;115;167;175;2151;1
2198;2;159;164;97;203;2160;1
2199;1;159;180;137;182;2178;1
2200;2;159;184;101;184;2175;1
2201;1;159;195;163;136;2150;1
2202;2;159;127;121;164;2156;1
2203;1;159;174;159;181;2164;1
2204;2;159;223;131;187;2149;1
2205;2;159;216;162;188;2165;1
2206;2;159;161;114;140;2163;1
2207;2;159;139;122;227;2176;1
2208;2;159;200;150;206;2173;1
2209;1;159;206;146;164;2166;1
2210;1;159;174;127;201;2162;1
2211;1;159;195;159;189;2179;1
2212;1;159;133;143;167;2180;1
2213;1;159;145;132;156;2177;1
2214;1;160;154;169;165;2189;1
2215;1;160;200;136;186;2194;1
2216;1;160;174;141;158;2192;1
2217;2;160;216;160;186;2205;1
2218;1;160;163;160;144;2182;1
2219;1;160;194;165;133;2201;1
2220;1;160;197;123;160;2187;1
2221;2;160;147;194;173;2181;1
2222;1;160;192;158;187;2211;1
2223;2;160;193;102;146;2186;1
2224;1;160;206;145;160;2209;1
2225;2;160;116;168;171;2197;1
2226;1;160;181;132;139;2184;1
2227;2;160;221;134;184;2204;1
2228;2;160;161;118;137;2206;1
2229;1;160;191;162;159;2196;1
2230;2;160;126;120;159;2202;1
2231;1;160;173;158;176;2203;1
2232;2;160;166;95;198;2198;1
2233;1;160;178;123;202;2210;1
2234;2;160;179;189;158;2188;1
2235;2;160;142;117;225;2207;1
2236;2;160;196;145;208;2208;1
2237;1;160;168;113;162;2193;1
2238;2;160;195;177;211;2190;1
2239;2;160;141;156;134;2183;1
2240;1;160;150;131;173;2185;1
2241;2;160;177;125;229;2191;1
2242;1;160;137;180;148;2195;1
2243;1;160;131;137;161;2212;1
2244;2;160;200;103;190;2200;1
2245;2;160;174;95;167;2200;1
2246;1;160;144;129;155;2213;1
2247;1;160;178;134;179;2199;1
2248;1;161;195;165;131;2219;1
2249;2;161;125;120;157;2230;1
2250;1;161;139;178;148;2242;1
2251;1;161;198;134;186;2215;1
2252;1;161;199;121;159;2220;1
2253;2;161;144;156;133;2239;1
2254;1;161;182;131;136;2226;1
2255;1;161;194;163;158;2229;1
2256;1;161;176;139;156;2216;1
2257;2;161;150;192;173;2221;1
2258;2;161;117;170;168;2225;1
2259;1;161;167;160;144;2218;1
2260;2;161;195;104;143;2223;1
2261;1;161;195;155;186;2222;1
2262;2;161;213;159;189;2217;1
2263;1;161;210;142;160;2224;1
2264;2;161;143;113;222;2235;1
2265;1;161;157;166;162;2214;1
2266;1;161;129;142;159;2243;1
2267;2;161;206;103;190;2244;1
2268;2;161;200;143;212;2236;1
2269;2;161;191;174;213;2238;1
2270;2;161;167;94;192;2232;1
2271;2;161;182;123;226;2241;1
2272;2;161;170;97;162;2245;1
2273;1;161;174;153;170;2231;1
2274;1;161;150;129;165;2240;1
2275;1;161;181;113;194;2233;1
2276;2;161;159;103;143;2228;1
2277;2;161;222;138;162;2227;1
2278;2;161;218;125;199;2227;1
2279;2;161;166;182;144;2234;1
2280;2;161;162;139;125;2228;1
2281;2;161;204;180;174;2234;1
2282;1;161;146;128;151;2246;1
2283;1;161;181;130;174;2247;1
2284;1;161;166;114;158;2237;1
2285;2;162;118;171;168;2258;1
2286;2;162;201;144;211;2268;1
2287;2;162;159;101;142;2276;1
2288;2;162;206;102;192;2267;1
2289;2;162;184;122;226;2271;1
2290;2;162;146;155;134;2253;1
2291;1;162;180;131;134;2254;1
2292;2;162;213;157;187;2262;1
2293;1;162;178;138;154;2256;1
2294;2;162;128;120;157;2249;1
2295;2;162;191;174;210;2269;1
2296;1;162;198;118;159;2252;1
2297;1;162;160;166;161;2265;1
2298;1;162;151;129;162;2274;1
2299;2;162;146;112;222;2264;1
2300;2;162;167;183;141;2279;1
2301;1;162;139;181;150;2250;1
2302;1;162;132;141;157;2266;1
2303;1;162;211;144;157;2263;1
2304;2;162;153;191;175;2257;1
2305;2;162;217;126;203;2278;1
2306;2;162;196;107;140;2260;1
2307;1;162;194;167;160;2255;1
2308;1;162;183;110;191;2275;1
2309;1;162;196;169;134;2248;1
2310;2;162;164;93;188;2270;1
2311;2;162;224;141;157;2277;1
2312;2;162;172;91;162;2272;1
2313;1;162;179;155;169;2273;1
2314;1;162;173;162;142;2259;1
2315;2;162;169;138;123;2280;1
2316;1;162;204;129;184;2251;1
2317;2;162;206;186;180;2281;1
2318;1;162;167;112;158;2284;1
2319;1;162;183;130;171;2283;1
2320;1;162;192;154;183;2261;1
2321;1;162;148;127;149;2282;1
2322;1;163;198;169;135;2309;1
2323;2;163;195;109;140;2306;1
2324;2;163;160;103;142;2287;1
2325;1;163;171;161;142;2314;1
2326;2;163;225;143;159;2311;1
2327;2;163;203;102;191;2288;1
2328;1;163;177;157;171;2313;1
2329;1;163;183;113;193;2308;1
2330;1;163;205;132;186;2316;1
2331;1;163;177;133;136;2291;1
2332;2;163;215;124;206;2305;1
2333;1;163;152;130;166;2298;1
2334;2;163;174;94;163;2312;1
2335;1;163;177;142;156;2293;1
2336;2;163;199;140;212;2286;1
2337;1;163;165;115;161;2318;1
2338;1;163;210;148;160;2303;1
2339;1;163;134;144;161;2302;1
2340;1;163;194;172;162;2307;1
2341;1;163;185;130;176;2319;1
2342;2;163;167;188;146;2300;1
2343;1;163;164;161;165;2297;1
2344;2;163;199;187;183;2317;1
2345;2;163;127;127;161;2294;1
2346;1;163;199;125;163;2296;1
2347;2;163;177;126;229;2289;1
2348;2;163;144;178;143;2290;1
2349;2;163;159;190;182;2304;1
2350;2;163;120;173;177;2285;1
2351;2;163;161;99;195;2310;1
2352;2;163;213;149;207;2292;1
2353;2;163;212;174;171;2292;1
2354;2;163;137;143;126;2290;1
2355;2;163;142;129;225;2299;1
2356;2;163;188;154;223;2295;1
2357;2;163;175;187;196;2295;1
2358;1;163;191;154;184;2320;1
2359;2;163;167;140;120;2315;1
2360;1;163;139;181;160;2301;1
2361;1;163;151;128;149;2321;1
2362;1;164;178;133;137;2331;1
2363;1;164;198;168;133;2322;1
2364;1;164;212;149;161;2338;1
2365;2;164;214;125;208;2332;1
2366;2;164;157;188;182;2349;1
2367;2;164;195;109;143;2323;1
2368;2;164;168;191;146;2342;1
2369;1;164;164;164;166;2343;1
2370;2;164;159;106;143;2324;1
2371;2;164;175;97;164;2334;1
2372;1;164;169;163;139;2325;1
2373;2;164;225;139;161;2326;1
2374;1;164;169;117;163;2337;1
2375;2;164;199;104;188;2327;1
2376;2;164;209;147;210;2352;1
2377;1;164;207;137;188;2330;1
2378;1;164;180;146;159;2335;1
2379;1;164;203;127;167;2346;1
2380;2;164;159;103;191;2351;1
2381;2;164;210;174;165;2353;1
2382;2;164;193;141;215;2336;1
2383;2;164;197;190;177;2344;1
2384;1;164;141;145;165;2339;1
2385;2;164;179;188;189;2357;1
2386;2;164;152;181;142;2348;1
2387;2;164;136;125;161;2345;1
2388;2;164;137;135;131;2354;1
2389;2;164;125;169;184;2350;1
2390;1;164;180;162;180;2328;1
2391;2;164;179;148;223;2356;1
2392;2;164;169;132;226;2347;1
2393;1;164;186;137;185;2341;1
2394;1;164;158;136;176;2333;1
2395;1;164;180;123;203;2329;1
2396;2;164;145;135;212;2355;1
2397;2;164;164;138;122;2359;1
2398;1;164;157;133;146;2361;1
2399;1;164;142;174;166;2360;1
2400;1;164;192;174;160;2340;1
2401;1;164;194;159;189;2358;1
2402;1;165;198;168;134;2363;1
2403;2;165;214;125;209;2365;1
2404;2;165;199;105;189;2375;1
2405;2;165;137;135;133;2388;1
2406;2;165;151;181;140;2386;1
2407;1;165;211;151;161;2364;1
2408;2;165;197;191;179;2383;1
2409;2;165;167;133;226;2392;1
2410;2;165;161;104;192;2380;1
2411;2;165;225;137;163;2373;1
2412;2;165;161;138;122;2397;1
2413;2;165;177;99;165;2371;1
2414;2;165;125;166;185;2389;1
2415;1;165;142;148;163;2384;1
2416;2;165;213;173;167;2381;1
2417;1;165;204;130;169;2379;1
2418;1;165;209;138;191;2377;1
2419;1;165;168;167;139;2372;1
2420;2;165;157;187;186;2366;1
2421;2;165;162;109;144;2370;1
2422;1;165;189;140;187;2393;1
2423;2;165;170;193;150;2368;1
2424;2;165;189;144;215;2382;1
2425;1;165;172;121;164;2374;1
2426;1;165;165;169;167;2369;1
2427;1;165;160;137;144;2398;1
2428;2;165;212;151;208;2376;1
2429;1;165;181;137;140;2362;1
2430;1;165;138;177;163;2399;1
2431;1;165;183;151;162;2378;1
2432;1;165;183;167;183;2390;1
2433;2;165;197;115;145;2367;1
2434;1;165;161;142;175;2394;1
2435;2;165;175;154;222;2391;1
2436;2;165;179;189;197;2385;1
2437;2;165;140;134;162;2387;1
2438;1;165;193;176;165;2400;1
2439;2;165;155;122;201;2396;1
2440;2;165;140;156;208;2396;1
2441;1;165;196;162;194;2401;1
2442;1;165;181;127;206;2395;1
2443;1;166;198;169;134;2402;1
2444;2;166;225;136;163;2411;1
2445;2;166;161;139;121;2412;1
2446;2;166;170;192;148;2423;1
2447;1;166;212;153;161;2407;1
2448;1;166;192;178;165;2438;1
2449;1;166;205;132;169;2417;1
2450;1;166;169;169;140;2419;1
2451;2;166;215;172;168;2416;1
2452;2;166;198;106;187;2404;1
2453;2;166;195;193;180;2408;1
2454;2;166;137;138;134;2405;1
2455;1;166;182;140;140;2429;1
2456;2;166;148;180;140;2406;1
2457;1;166;184;154;162;2431;1
2458;1;166;159;140;145;2427;1
2459;2;166;198;118;146;2433;1
2460;2;166;176;102;164;2413;1
2461;1;166;181;169;185;2432;1
2462;1;166;141;177;165;2430;1
2463;1;166;159;143;178;2434;1
2464;1;166;210;140;194;2418;1
2465;2;166;189;144;219;2424;1
2466;2;166;155;118;202;2439;1
2467;2;166;214;154;206;2428;1
2468;2;166;126;163;188;2414;1
2469;1;166;165;171;171;2426;1
2470;2;166;171;155;222;2435;1
2471;2;166;162;114;142;2421;1
2472;2;166;214;120;206;2403;1
2473;1;166;174;127;163;2425;1
2474;2;166;174;190;199;2436;1
2475;2;166;166;106;188;2410;1
2476;2;166;163;128;222;2409;1
2477;2;166;139;154;216;2440;1
2478;1;166;182;132;210;2442;1
2479;2;166;145;122;147;2437;1
2480;2;166;167;198;169;2420;1
2481;2;166;137;133;183;2437;1
2482;2;166;149;174;201;2420;1
2483;1;166;196;166;197;2441;1
2484;1;166;146;152;166;2415;1
2485;1;166;190;147;188;2422;1
2486;1;167;198;169;133;2443;1
2487;1;167;211;153;161;2447;1
2488;1;167;185;154;162;2457;1
2489;2;167;215;172;167;2451;1
2490;1;167;210;140;195;2464;1
2491;2;167;161;140;120;2445;1
2492;1;167;158;141;145;2458;1
2493;1;167;193;179;165;2448;1
2494;1;167;164;172;171;2469;1
2495;1;167;174;129;163;2473;1
2496;1;167;205;132;167;2449;1
2497;2;167;189;142;219;2465;1
2498;2;167;167;197;171;2480;1
2499;1;167;181;170;187;2461;1
2500;2;167;215;154;204;2467;1
2501;2;167;138;139;136;2454;1
2502;2;167;194;194;178;2453;1
2503;2;167;173;191;201;2474;1
2504;2;167;173;154;223;2470;1
2505;1;167;182;142;138;2455;1
2506;2;167;168;194;148;2446;1
2507;2;167;223;134;161;2444;1
2508;2;167;174;104;162;2460;1
2509;1;167;167;172;141;2450;1
2510;2;167;195;106;184;2452;1
2511;2;167;166;113;140;2471;1
2512;2;167;137;155;220;2477;1
2513;2;167;144;177;141;2456;1
2514;2;167;153;177;202;2482;1
2515;2;167;212;115;202;2472;1
2516;2;167;136;134;190;2481;1
2517;1;167;164;142;184;2463;1
2518;2;167;150;123;140;2479;1
2519;2;167;161;119;223;2476;1
2520;2;167;157;107;184;2475;1
2521;2;167;131;155;191;2468;1
2522;2;167;146;113;204;2466;1
2523;2;167;190;101;164;2459;1
2524;1;167;147;173;187;2462;1
2525;1;167;194;166;196;2483;1
2526;2;167;200;138;132;2459;1
2527;1;167;146;147;161;2484;1
2528;1;167;143;176;149;2462;1
2529;1;167;189;146;189;2485;1
2530;1;167;180;127;206;2478;1
2531;2;168;174;191;201;2503;1
2532;2;168;161;139;119;2491;1
2533;1;168;186;154;161;2488;1
2534;2;168;162;118;223;2519;1
2535;1;168;198;167;132;2486;1
2536;2;168;148;122;140;2518;1
2537;2;168;169;194;146;2506;1
2538;2;168;223;132;160;2507;1
2539;2;168;174;106;162;2508;1
2540;2;168;191;99;164;2523;1
2541;2;168;165;197;170;2498;1
2542;1;168;195;166;194;2525;1
2543;2;168;167;114;138;2511;1
2544;1;168;144;147;159;2527;1
2545;1;168;174;127;161;2495;1
2546;1;168;193;181;163;2493;1
2547;1;168;205;130;165;2496;1
2548;2;168;210;113;202;2515;1
2549;2;168;216;170;165;2489;1
2550;1;168;166;173;169;2494;1
2551;1;168;211;150;160;2487;1
2552;1;168;168;171;138;2509;1
2553;1;168;157;140;142;2492;1
2554;1;168;182;171;184;2499;1
2555;2;168;137;141;139;2501;1
2556;2;168;134;136;187;2516;1
2557;2;168;157;178;202;2514;1
2558;1;168;209;139;191;2490;1
2559;2;168;217;154;200;2500;1
2560;2;168;193;144;217;2497;1
2561;2;168;204;135;132;2526;1
2562;2;168;197;194;174;2502;1
2563;2;168;133;158;218;2512;1
2564;1;168;163;144;179;2517;1
2565;2;168;191;105;188;2510;1
2566;1;168;184;137;135;2505;1
2567;2;168;178;156;224;2504;1
2568;2;168;132;162;188;2521;1
2569;2;168;145;177;133;2513;1
2570;1;168;153;177;185;2524;1
2571;2;168;139;119;202;2522;1
2572;2;168;169;104;197;2520;1
2573;1;168;190;148;188;2529;1
2574;1;168;182;127;205;2530;1
2575;2;168;146;127;171;2520;1
2576;1;168;146;177;147;2528;1
2577;1;169;196;167;131;2535;1
2578;2;169;223;130;159;2538;1
2579;2;169;166;197;168;2541;1
2580;2;169;164;119;223;2534;1
2581;1;169;143;148;157;2544;1
2582;2;169;159;178;200;2557;1
2583;2;169;195;144;215;2560;1
2584;1;169;182;171;181;2554;1
2585;2;169;174;191;198;2531;1
2586;2;169;162;140;116;2532;1
2587;2;169;199;192;172;2562;1
2588;2;169;132;136;184;2556;1
2589;2;169;144;174;131;2569;1
2590;2;169;168;111;136;2543;1
2591;2;169;135;144;138;2555;1
2592;2;169;193;98;161;2540;1
2593;2;169;217;168;162;2549;1
2594;1;169;166;172;165;2550;1
2595;2;169;195;105;187;2565;1
2596;2;169;173;102;163;2539;1
2597;1;169;212;147;157;2551;1
2598;2;169;179;159;221;2567;1
2599;1;169;157;138;138;2553;1
2600;1;169;209;137;187;2558;1
2601;1;169;183;133;133;2566;1
2602;2;169;144;123;142;2536;1
2603;2;169;207;135;128;2561;1
2604;1;169;171;123;161;2545;1
2605;1;169;194;177;160;2546;1
2606;1;169;162;141;175;2564;1
2607;1;169;198;163;191;2542;1
2608;2;169;131;161;214;2563;1
2609;2;169;145;125;166;2575;1
2610;2;169;219;155;195;2559;1
2611;2;169;142;115;199;2571;1
2612;1;169;167;168;133;2552;1
2613;2;169;172;193;141;2537;1
2614;2;169;213;114;197;2548;1
2615;1;169;184;149;158;2533;1
2616;1;169;186;144;185;2573;1
2617;2;169;134;168;187;2568;1
2618;1;169;202;124;162;2547;1
2619;1;169;177;123;201;2574;1
2620;1;169;155;178;177;2570;1
2621;2;169;175;101;192;2572;1
2622;1;169;143;177;148;2576;1
2623;2;170;161;140;115;2586;1
2624;1;170;184;148;157;2615;1
2625;2;170;196;105;186;2595;1
2626;1;170;184;171;181;2584;1
2627;1;170;194;176;158;2605;1
2628;1;170;162;140;173;2606;1
2629;1;170;187;144;183;2616;1
2630;1;170;170;121;160;2604;1
2631;1;170;203;125;160;2618;1
2632;2;170;166;121;223;2580;1
2633;2;170;133;142;137;2591;1
2634;1;170;167;170;163;2594;1
2635;2;170;174;100;164;2596;1
2636;2;170;174;100;190;2621;1
2637;2;170;215;115;195;2614;1
2638;2;170;167;108;136;2590;1
2639;2;170;146;122;166;2609;1
2640;1;170;210;137;184;2600;1
2641;1;170;211;146;154;2597;1
2642;2;170;224;129;156;2578;1
2643;1;170;199;164;188;2607;1
2644;2;170;196;145;212;2583;1
2645;2;170;145;113;199;2611;1
2646;1;170;175;126;201;2619;1
2647;2;170;216;166;159;2593;1
2648;2;170;168;196;165;2579;1
2649;1;170;183;129;133;2601;1
2650;1;170;166;164;133;2612;1
2651;2;170;172;190;138;2613;1
2652;2;170;141;172;132;2589;1
2653;2;170;140;121;142;2602;1
2654;2;170;205;131;127;2603;1
2655;2;170;197;99;159;2592;1
2656;2;170;221;154;191;2610;1
2657;1;170;197;162;131;2577;1
2658;2;170;202;191;168;2587;1
2659;2;170;178;193;195;2585;1
2660;2;170;180;163;217;2598;1
2661;2;170;128;133;181;2588;1
2662;2;170;164;181;199;2582;1
2663;2;170;133;168;214;2608;1
2664;1;170;141;174;156;2622;1
2665;2;170;129;151;163;2617;1
2666;2;170;144;180;196;2617;1
2667;1;170;156;176;177;2620;1
2668;1;170;146;149;155;2581;1
2669;1;170;157;135;139;2599;1
2670;2;171;162;139;111;2623;1
2671;1;171;165;162;128;2650;1
2672;2;171;167;106;130;2638;1
2673;1;171;181;128;127;2649;1
2674;2;171;140;169;125;2652;1
2675;2;171;132;142;129;2633;1
2676;2;171;139;120;134;2653;1
2677;1;171;196;168;125;2657;1
2678;2;171;202;130;119;2654;1
2679;1;171;148;174;162;2667;1
2680;1;171;139;175;147;2664;1
2681;2;171;177;99;155;2635;1
2682;2;171;170;187;129;2651;1
2683;1;171;165;167;154;2634;1
2684;1;171;171;120;150;2630;1
2685;1;171;204;124;150;2631;1
2686;2;171;168;121;205;2632;1
2687;2;171;148;117;157;2639;1
2688;1;171;191;179;148;2627;1
2689;2;171;224;130;145;2642;1
2690;1;171;183;147;146;2624;1
2691;2;171;124;152;153;2665;1
2692;1;171;193;115;191;2646;1
2693;1;171;212;147;142;2641;1
2694;2;171;165;195;153;2648;1
2695;2;171;173;103;176;2636;1
2696;1;171;187;145;169;2629;1
2697;2;171;215;166;146;2647;1
2698;1;171;173;133;174;2646;1
2699;2;171;203;189;155;2658;1
2700;1;171;163;137;160;2628;1
2701;2;171;196;106;171;2625;1
2702;1;171;183;172;167;2626;1
2703;1;171;212;137;170;2640;1
2704;2;171;199;98;145;2655;1
2705;2;171;196;144;194;2644;1
2706;2;171;145;109;185;2645;1
2707;2;171;164;182;183;2662;1
2708;1;171;142;148;149;2668;1
2709;2;171;124;133;165;2661;1
2710;2;171;131;172;191;2663;1
2711;2;171;222;154;174;2656;1
2712;1;171;201;165;171;2643;1
2713;2;171;142;182;179;2666;1
2714;2;171;179;192;177;2659;1
2715;2;171;217;114;177;2637;1
2716;2;171;181;163;197;2660;1
2717;1;171;156;133;133;2669;1
2718;1;172;162.853123;140.090839;158.659591;2700;1
2719;1;172;182.60974;148.110701;142.55266;2690;1
2720;1;172;174.747334;119.754676;145.994783;2684;1
2721;1;172;203.957036;118.745972;148.090641;2685;1
2722;1;172;160.285237;170.154139;151.617774;2683;1
2723;2;172;137.916423;185.569617;183.471254;2713;1
2724;2;172;222.306192;124.061596;141.055034;2689;1
2725;2;172;129.871987;174.976474;197.652108;2710;1
2726;1;172;143.602835;181.248458;162.10515;2679;1
2727;1;172;184.656191;129.740598;119.527881;2673;1
2728;2;172;154.929696;122.108554;157.47428;2687;1
2729;1;172;142.506118;153.76509;142.571521;2708;1
2730;2;172;156.594536;197.363719;152.141142;2694;1
2731;2;172;127.7613;141.080139;166.275107;2709;1
2732;1;172;188.002966;136.404089;171.927381;2696;1
2733;1;172;157.710641;139.196006;125.955155;2717;1
2734;2;172;148.599867;128.545981;128.956842;2676;1
2735;2;172;206.943071;96.863743;139.791562;2704;1
2736;1;172;176.765186;127.631253;181.222317;2698;1
2737;1;172;210.590854;128.252585;174.134017;2703;1
2738;2;172;203.268064;102.493451;176.771313;2701;1
2739;2;172;206.14897;161.136337;144.183658;2697;1
2740;2;172;160.03679;180.169402;192.641989;2707;1
2741;1;172;163.50014;167.649047;119.102371;2671;1
2742;1;172;136.853812;183.894775;141.137758;2680;1
2743;2;172;172.240303;186.736059;189.324334;2714;1
2744;1;172;182.270409;174.170483;142.210656;2688;1
2745;2;172;191.300804;185.293377;157.661756;2699;1
2746;1;172;173.565154;168.369754;172.563772;2702;1
2747;2;172;161.48574;192.08868;123.088416;2682;1
2748;2;172;188.488019;99.682992;157.19553;2681;1
2749;1;172;203.699598;139.941771;137.088228;2693;1
2750;2;172;180.722978;99.338364;185.441646;2695;1
2751;2;172;218.530984;103.297886;184.384882;2715;1
2752;2;172;214.612636;144.227472;180.739991;2711;1
2753;2;172;201.24935;132.105292;105.368194;2678;1
2754;2;172;139.656747;177.97179;113.673779;2674;1
2755;2;172;157.802498;109.793103;191.945795;2706;1
2756;1;172;193.263666;153.852568;178.962702;2712;1
2757;2;172;174.930233;110.959305;118.424044;2672;1
2758;2;172;178.089831;156.556436;210.204392;2716;1
2759;2;172;126.506059;167.380666;151.500419;2691;1
2760;2;172;137.173252;155.098392;117.824643;2675;1
2761;2;172;198.426818;136.127303;207.929444;2705;1
2762;1;172;185.24397;165.087209;113.036053;2677;1
2763;2;172;178.360614;116.36694;219.969829;2686;1
2764;2;172;163.469307;149.190932;93.916721;2670;1
2765;1;172;205.892928;107.355977;205.531502;2692;1
