name,inner.count,inner.threshold,outer.mean,outer.sd,rbb.best
SB1_t015_ch02.tif.gz,0,0.0,24.36360431784105,5.519463964518334,NA
SB1_t015_ch02.tif.gz,0,0.01,24.36360431784105,5.519463964518334,NA
SB1_t015_ch02.tif.gz,0,0.02,24.36360431784105,5.519463964518334,NA
SB1_t015_ch02.tif.gz,1,0.03,24.929556464081315,5.285703280492482,NA
SB1_t015_ch02.tif.gz,1,0.04,24.929556464081315,5.285703280492482,NA
SB1_t015_ch02.tif.gz,1,0.05,24.929556464081315,5.285703280492482,NA
SB1_t015_ch02.tif.gz,1,0.06,24.929556464081315,5.285703280492482,NA
SB1_t015_ch02.tif.gz,2,0.07,25.80575194574408,4.263284462336431,NA
SB1_t015_ch02.tif.gz,2,0.08,25.80575194574408,4.263284462336431,NA
SB1_t015_ch02.tif.gz,2,0.09,25.80575194574408,4.263284462336431,NA
SB1_t015_ch02.tif.gz,3,0.1,26.417170931235066,3.803674703585102,NA
SB1_t015_ch02.tif.gz,3,0.11,26.417170931235066,3.803674703585102,NA
SB1_t015_ch02.tif.gz,3,0.12,26.417170931235066,3.803674703585102,NA
SB1_t015_ch02.tif.gz,3,0.13,26.417170931235066,3.803674703585102,NA
SB1_t015_ch02.tif.gz,3,0.14,26.417170931235066,3.803674703585102,NA
SB1_t015_ch02.tif.gz,4,0.15,26.94983607890171,3.3992553393417237,NA
SB1_t015_ch02.tif.gz,4,0.16,26.94983607890171,3.3992553393417237,NA
SB1_t015_ch02.tif.gz,5,0.17,27.43731356304235,3.3383667313753698,NA
SB1_t015_ch02.tif.gz,5,0.18,27.43731356304235,3.3383667313753698,NA
SB1_t015_ch02.tif.gz,5,0.19,27.43731356304235,3.3383667313753698,NA
SB1_t015_ch02.tif.gz,5,0.2,27.43731356304235,3.3383667313753698,NA
SB1_t015_ch02.tif.gz,5,0.21,27.43731356304235,3.3383667313753698,NA
SB1_t015_ch02.tif.gz,6,0.22,27.910513728978124,3.3721688517701,NA
SB1_t015_ch02.tif.gz,6,0.23,27.910513728978124,3.3721688517701,NA
SB1_t015_ch02.tif.gz,6,0.24,27.910513728978124,3.3721688517701,NA
SB1_t015_ch02.tif.gz,6,0.25,27.910513728978124,3.3721688517701,NA
SB1_t015_ch02.tif.gz,7,0.26,28.52886988474274,2.5955598445594883,NA
SB1_t015_ch02.tif.gz,7,0.27,28.52886988474274,2.5955598445594883,NA
SB1_t015_ch02.tif.gz,7,0.28,28.52886988474274,2.5955598445594883,NA
SB1_t015_ch02.tif.gz,7,0.29,28.52886988474274,2.5955598445594883,NA
SB1_t015_ch02.tif.gz,7,0.3,28.52886988474274,2.5955598445594883,NA
SB1_t015_ch02.tif.gz,7,0.31,28.52886988474274,2.5955598445594883,NA
SB1_t015_ch02.tif.gz,7,0.32,28.52886988474274,2.5955598445594883,NA
SB1_t015_ch02.tif.gz,7,0.33,28.52886988474274,2.5955598445594883,NA
SB1_t015_ch02.tif.gz,8,0.34,28.800915866693344,1.5071214438280625,NA
SB1_t015_ch02.tif.gz,8,0.35,28.800915866693344,1.5071214438280625,NA
SB1_t015_ch02.tif.gz,9,0.36,28.788157976326865,1.758779831240157,NA
SB1_t015_ch02.tif.gz,9,0.37,28.788157976326865,1.758779831240157,NA
SB1_t015_ch02.tif.gz,9,0.38,28.788157976326865,1.758779831240157,NA
SB1_t015_ch02.tif.gz,9,0.39,28.788157976326865,1.758779831240157,NA
SB1_t015_ch02.tif.gz,10,0.4,28.345189599872295,4.008123091357369,NA
SB1_t015_ch02.tif.gz,10,0.41,28.345189599872295,4.008123091357369,NA
SB1_t015_ch02.tif.gz,10,0.42,28.345189599872295,4.008123091357369,NA
SB1_t015_ch02.tif.gz,12,0.43,26.664530004293475,5.5480739988639405,NA
SB1_t015_ch02.tif.gz,12,0.44,26.664530004293475,5.5480739988639405,NA
SB1_t015_ch02.tif.gz,12,0.45,26.664530004293475,5.5480739988639405,NA
SB1_t015_ch02.tif.gz,12,0.46,26.664530004293475,5.5480739988639405,NA
SB1_t015_ch02.tif.gz,12,0.47,26.664530004293475,5.5480739988639405,NA
SB1_t015_ch02.tif.gz,14,0.48,NA,NA,NA
SB1_t015_ch02.tif.gz,14,0.49,NA,NA,NA
SB1_t015_ch02.tif.gz,14,0.5,NA,NA,NA
SB1_t015_ch02.tif.gz,14,0.51,NA,NA,NA
SB1_t015_ch02.tif.gz,14,0.52,NA,NA,NA
SB1_t015_ch02.tif.gz,14,0.53,NA,NA,NA
SB1_t015_ch02.tif.gz,15,0.54,NA,NA,NA
SB1_t015_ch02.tif.gz,16,0.55,NA,NA,NA
SC1_t021_ch02.tif.gz,0,0.0,25.17340930156994,6.238282628443836,NA
SC1_t021_ch02.tif.gz,0,0.01,25.17340930156994,6.238282628443836,NA
SC1_t021_ch02.tif.gz,0,0.02,25.17340930156994,6.238282628443836,NA
SC1_t021_ch02.tif.gz,0,0.03,25.17340930156994,6.238282628443836,NA
SC1_t021_ch02.tif.gz,0,0.04,25.17340930156994,6.238282628443836,NA
SC1_t021_ch02.tif.gz,0,0.05,25.17340930156994,6.238282628443836,NA
SC1_t021_ch02.tif.gz,1,0.06,25.562560182890998,6.283412934746214,NA
SC1_t021_ch02.tif.gz,1,0.07,25.562560182890998,6.283412934746214,NA
SC1_t021_ch02.tif.gz,1,0.08,25.562560182890998,6.283412934746214,NA
SC1_t021_ch02.tif.gz,1,0.09,25.562560182890998,6.283412934746214,NA
SC1_t021_ch02.tif.gz,1,0.1,25.562560182890998,6.283412934746214,NA
SC1_t021_ch02.tif.gz,1,0.11,25.562560182890998,6.283412934746214,NA
SC1_t021_ch02.tif.gz,1,0.12,25.562560182890998,6.283412934746214,NA
SC1_t021_ch02.tif.gz,1,0.13,25.562560182890998,6.283412934746214,NA
SC1_t021_ch02.tif.gz,4,0.14,27.915243234780466,4.647714096076184,NA
SC1_t021_ch02.tif.gz,4,0.15,27.915243234780466,4.647714096076184,NA
SC1_t021_ch02.tif.gz,5,0.16,28.85751093000381,3.5807785445620945,NA
SC1_t021_ch02.tif.gz,5,0.17,28.85751093000381,3.5807785445620945,NA
SC1_t021_ch02.tif.gz,5,0.18,28.85751093000381,3.5807785445620945,NA
SC1_t021_ch02.tif.gz,5,0.19,28.85751093000381,3.5807785445620945,NA
SC1_t021_ch02.tif.gz,5,0.2,28.85751093000381,3.5807785445620945,NA
SC1_t021_ch02.tif.gz,5,0.21,28.85751093000381,3.5807785445620945,NA
SC1_t021_ch02.tif.gz,5,0.22,28.85751093000381,3.5807785445620945,NA
SC1_t021_ch02.tif.gz,5,0.23,28.85751093000381,3.5807785445620945,NA
SC1_t021_ch02.tif.gz,5,0.24,28.85751093000381,3.5807785445620945,NA
SC1_t021_ch02.tif.gz,5,0.25,28.85751093000381,3.5807785445620945,NA
SC1_t021_ch02.tif.gz,5,0.26,28.85751093000381,3.5807785445620945,NA
SC1_t021_ch02.tif.gz,5,0.27,28.85751093000381,3.5807785445620945,NA
SC1_t021_ch02.tif.gz,5,0.28,28.85751093000381,3.5807785445620945,NA
SC1_t021_ch02.tif.gz,5,0.29,28.85751093000381,3.5807785445620945,NA
SC1_t021_ch02.tif.gz,6,0.3,29.555192911551195,2.5794936701576834,NA
SC1_t021_ch02.tif.gz,6,0.31,29.555192911551195,2.5794936701576834,NA
SC1_t021_ch02.tif.gz,7,0.32,29.921624246217,2.8794321793495117,NA
SC1_t021_ch02.tif.gz,7,0.33,29.921624246217,2.8794321793495117,NA
SC1_t021_ch02.tif.gz,8,0.34,30.577705716674963,1.7171836792714763,NA
SC1_t021_ch02.tif.gz,8,0.35,30.577705716674963,1.7171836792714763,NA
SC1_t021_ch02.tif.gz,8,0.36,30.577705716674963,1.7171836792714763,NA
SC1_t021_ch02.tif.gz,9,0.37,30.239886491666862,3.324075712675642,NA
SC1_t021_ch02.tif.gz,9,0.38,30.239886491666862,3.324075712675642,NA
SC1_t021_ch02.tif.gz,9,0.39,30.239886491666862,3.324075712675642,NA
SC1_t021_ch02.tif.gz,9,0.4,30.239886491666862,3.324075712675642,NA
SC1_t021_ch02.tif.gz,9,0.41,30.239886491666862,3.324075712675642,NA
SC1_t021_ch02.tif.gz,9,0.42,30.239886491666862,3.324075712675642,NA
SC1_t021_ch02.tif.gz,11,0.43,30.19296482236001,2.5861003108967986,NA
SC1_t021_ch02.tif.gz,11,0.44,30.19296482236001,2.5861003108967986,NA
SC1_t021_ch02.tif.gz,11,0.45,30.19296482236001,2.5861003108967986,NA
SC1_t021_ch02.tif.gz,11,0.46,30.19296482236001,2.5861003108967986,NA
SC1_t021_ch02.tif.gz,11,0.47,30.19296482236001,2.5861003108967986,NA
SC1_t021_ch02.tif.gz,11,0.48,30.19296482236001,2.5861003108967986,NA
SC1_t021_ch02.tif.gz,11,0.49,30.19296482236001,2.5861003108967986,NA
SC1_t021_ch02.tif.gz,11,0.5,30.19296482236001,2.5861003108967986,NA
SC1_t021_ch02.tif.gz,12,0.51,27.609996601638667,5.220214027021448,NA
SC1_t021_ch02.tif.gz,12,0.52,27.609996601638667,5.220214027021448,NA
SC1_t021_ch02.tif.gz,12,0.53,27.609996601638667,5.220214027021448,NA
SC1_t021_ch02.tif.gz,12,0.54,27.609996601638667,5.220214027021448,NA
SC1_t021_ch02.tif.gz,13,0.55,22.581764922867396,6.365765902501686,NA
SC1_t021_ch02.tif.gz,14,0.56,NA,NA,NA
SC1_t021_ch02.tif.gz,14,0.57,NA,NA,NA
SC1_t021_ch02.tif.gz,15,0.58,NA,NA,NA
SC1_t021_ch02.tif.gz,15,0.59,NA,NA,NA
SC1_t021_ch02.tif.gz,15,0.6,NA,NA,NA
SC1_t021_ch02.tif.gz,15,0.61,NA,NA,NA
SC1_t021_ch02.tif.gz,15,0.62,NA,NA,NA
SC1_t021_ch02.tif.gz,15,0.63,NA,NA,NA
SC1_t021_ch02.tif.gz,15,0.64,NA,NA,NA
SC1_t021_ch02.tif.gz,15,0.65,NA,NA,NA
SC1_t021_ch02.tif.gz,15,0.66,NA,NA,NA
SC1_t021_ch02.tif.gz,16,0.67,NA,NA,NA
SC2_t023_ch02.tif.gz,0,0.0,24.445894775572267,4.699158228618329,NA
SC2_t023_ch02.tif.gz,0,0.01,24.445894775572267,4.699158228618329,NA
SC2_t023_ch02.tif.gz,0,0.02,24.445894775572267,4.699158228618329,NA
SC2_t023_ch02.tif.gz,0,0.03,24.445894775572267,4.699158228618329,NA
SC2_t023_ch02.tif.gz,0,0.04,24.445894775572267,4.699158228618329,NA
SC2_t023_ch02.tif.gz,0,0.05,24.445894775572267,4.699158228618329,NA
SC2_t023_ch02.tif.gz,1,0.06,24.828876429547673,4.627222301003216,NA
SC2_t023_ch02.tif.gz,1,0.07,24.828876429547673,4.627222301003216,NA
SC2_t023_ch02.tif.gz,1,0.08,24.828876429547673,4.627222301003216,NA
SC2_t023_ch02.tif.gz,1,0.09,24.828876429547673,4.627222301003216,NA
SC2_t023_ch02.tif.gz,1,0.1,24.828876429547673,4.627222301003216,NA
SC2_t023_ch02.tif.gz,1,0.11,24.828876429547673,4.627222301003216,NA
SC2_t023_ch02.tif.gz,2,0.12,25.12084580777697,4.785945435891208,NA
SC2_t023_ch02.tif.gz,3,0.13,25.91220323328533,4.00518086423011,NA
SC2_t023_ch02.tif.gz,3,0.14,25.91220323328533,4.00518086423011,NA
SC2_t023_ch02.tif.gz,3,0.15,25.91220323328533,4.00518086423011,NA
SC2_t023_ch02.tif.gz,3,0.16,25.91220323328533,4.00518086423011,NA
SC2_t023_ch02.tif.gz,3,0.17,25.91220323328533,4.00518086423011,NA
SC2_t023_ch02.tif.gz,3,0.18,25.91220323328533,4.00518086423011,NA
SC2_t023_ch02.tif.gz,3,0.19,25.91220323328533,4.00518086423011,NA
SC2_t023_ch02.tif.gz,3,0.2,25.91220323328533,4.00518086423011,NA
SC2_t023_ch02.tif.gz,5,0.21,26.859030967231487,3.3644969308030914,NA
SC2_t023_ch02.tif.gz,5,0.22,26.859030967231487,3.3644969308030914,NA
SC2_t023_ch02.tif.gz,5,0.23,26.859030967231487,3.3644969308030914,NA
SC2_t023_ch02.tif.gz,5,0.24,26.859030967231487,3.3644969308030914,NA
SC2_t023_ch02.tif.gz,5,0.25,26.859030967231487,3.3644969308030914,NA
SC2_t023_ch02.tif.gz,5,0.26,26.859030967231487,3.3644969308030914,NA
SC2_t023_ch02.tif.gz,5,0.27,26.859030967231487,3.3644969308030914,NA
SC2_t023_ch02.tif.gz,5,0.28,26.859030967231487,3.3644969308030914,NA
SC2_t023_ch02.tif.gz,5,0.29,26.859030967231487,3.3644969308030914,NA
SC2_t023_ch02.tif.gz,6,0.3,27.156362003963228,3.6831288215886713,NA
SC2_t023_ch02.tif.gz,7,0.31,27.641107087244002,3.337225372149499,NA
SC2_t023_ch02.tif.gz,8,0.32,28.107835420994995,2.7203396491708327,NA
SC2_t023_ch02.tif.gz,8,0.33,28.107835420994995,2.7203396491708327,NA
SC2_t023_ch02.tif.gz,8,0.34,28.107835420994995,2.7203396491708327,NA
SC2_t023_ch02.tif.gz,8,0.35,28.107835420994995,2.7203396491708327,NA
SC2_t023_ch02.tif.gz,9,0.36,28.535352067819474,2.3550203826942258,NA
SC2_t023_ch02.tif.gz,9,0.37,28.535352067819474,2.3550203826942258,NA
SC2_t023_ch02.tif.gz,10,0.38,28.794953136037126,2.28474096066388,NA
SC2_t023_ch02.tif.gz,10,0.39,28.794953136037126,2.28474096066388,NA
SC2_t023_ch02.tif.gz,12,0.4,29.122679117666323,3.378459492314589,NA
SC2_t023_ch02.tif.gz,12,0.41,29.122679117666323,3.378459492314589,NA
SC2_t023_ch02.tif.gz,12,0.42,29.122679117666323,3.378459492314589,NA
SC2_t023_ch02.tif.gz,12,0.43,29.122679117666323,3.378459492314589,NA
SC2_t023_ch02.tif.gz,12,0.44,29.122679117666323,3.378459492314589,NA
SC2_t023_ch02.tif.gz,12,0.45,29.122679117666323,3.378459492314589,NA
SC2_t023_ch02.tif.gz,13,0.46,25.00906705431974,6.203748280396811,NA
SC2_t023_ch02.tif.gz,15,0.47,NA,NA,NA
SC2_t023_ch02.tif.gz,15,0.48,NA,NA,NA
SC2_t023_ch02.tif.gz,15,0.49,NA,NA,NA
SC2_t023_ch02.tif.gz,15,0.5,NA,NA,NA
SC2_t023_ch02.tif.gz,15,0.51,NA,NA,NA
SC2_t023_ch02.tif.gz,16,0.52,NA,NA,NA
SC3_t032_ch02.tif.gz,1,0.0,25.103403661909358,4.8080850313815855,NA
SC3_t032_ch02.tif.gz,1,0.01,25.103403661909358,4.8080850313815855,NA
SC3_t032_ch02.tif.gz,1,0.02,25.103403661909358,4.8080850313815855,NA
SC3_t032_ch02.tif.gz,1,0.03,25.103403661909358,4.8080850313815855,NA
SC3_t032_ch02.tif.gz,2,0.04,25.782298140590775,4.2305460012027005,NA
SC3_t032_ch02.tif.gz,3,0.05,26.481515847451533,3.5334992744392215,NA
SC3_t032_ch02.tif.gz,3,0.06,26.481515847451533,3.5334992744392215,NA
SC3_t032_ch02.tif.gz,3,0.07,26.481515847451533,3.5334992744392215,NA
SC3_t032_ch02.tif.gz,3,0.08,26.481515847451533,3.5334992744392215,NA
SC3_t032_ch02.tif.gz,3,0.09,26.481515847451533,3.5334992744392215,NA
SC3_t032_ch02.tif.gz,3,0.1,26.481515847451533,3.5334992744392215,NA
SC3_t032_ch02.tif.gz,3,0.11,26.481515847451533,3.5334992744392215,NA
SC3_t032_ch02.tif.gz,3,0.12,26.481515847451533,3.5334992744392215,NA
SC3_t032_ch02.tif.gz,3,0.13,26.481515847451533,3.5334992744392215,NA
SC3_t032_ch02.tif.gz,3,0.14,26.481515847451533,3.5334992744392215,NA
SC3_t032_ch02.tif.gz,3,0.15,26.481515847451533,3.5334992744392215,NA
SC3_t032_ch02.tif.gz,3,0.16,26.481515847451533,3.5334992744392215,NA
SC3_t032_ch02.tif.gz,4,0.17,26.972281393528437,3.231034680308452,NA
SC3_t032_ch02.tif.gz,4,0.18,26.972281393528437,3.231034680308452,NA
SC3_t032_ch02.tif.gz,4,0.19,26.972281393528437,3.231034680308452,NA
SC3_t032_ch02.tif.gz,4,0.2,26.972281393528437,3.231034680308452,NA
SC3_t032_ch02.tif.gz,4,0.21,26.972281393528437,3.231034680308452,NA
SC3_t032_ch02.tif.gz,5,0.22,27.692467220255114,2.1154947375705007,NA
SC3_t032_ch02.tif.gz,5,0.23,27.692467220255114,2.1154947375705007,NA
SC3_t032_ch02.tif.gz,5,0.24,27.692467220255114,2.1154947375705007,NA
SC3_t032_ch02.tif.gz,5,0.25,27.692467220255114,2.1154947375705007,NA
SC3_t032_ch02.tif.gz,5,0.26,27.692467220255114,2.1154947375705007,NA
SC3_t032_ch02.tif.gz,5,0.27,27.692467220255114,2.1154947375705007,NA
SC3_t032_ch02.tif.gz,5,0.28,27.692467220255114,2.1154947375705007,NA
SC3_t032_ch02.tif.gz,5,0.29,27.692467220255114,2.1154947375705007,NA
SC3_t032_ch02.tif.gz,6,0.3,27.69483029360419,2.503618916385842,NA
SC3_t032_ch02.tif.gz,6,0.31,27.69483029360419,2.503618916385842,NA
SC3_t032_ch02.tif.gz,7,0.32,27.42006444127711,3.4124099317405867,NA
SC3_t032_ch02.tif.gz,8,0.33,28.00312458747385,2.8240561069733805,NA
SC3_t032_ch02.tif.gz,8,0.34,28.00312458747385,2.8240561069733805,NA
SC3_t032_ch02.tif.gz,8,0.35,28.00312458747385,2.8240561069733805,NA
SC3_t032_ch02.tif.gz,8,0.36,28.00312458747385,2.8240561069733805,NA
SC3_t032_ch02.tif.gz,8,0.37,28.00312458747385,2.8240561069733805,NA
SC3_t032_ch02.tif.gz,9,0.38,28.41023745568067,2.833319585586965,NA
SC3_t032_ch02.tif.gz,9,0.39,28.41023745568067,2.833319585586965,NA
SC3_t032_ch02.tif.gz,9,0.4,28.41023745568067,2.833319585586965,NA
SC3_t032_ch02.tif.gz,10,0.41,27.788228659054074,4.8941779710429865,NA
SC3_t032_ch02.tif.gz,11,0.42,28.805898558007026,3.005818958020793,NA
SC3_t032_ch02.tif.gz,12,0.43,28.079059356851882,3.8712229695035916,NA
SC3_t032_ch02.tif.gz,14,0.44,NA,NA,NA
SC3_t032_ch02.tif.gz,15,0.45,NA,NA,NA
SC3_t032_ch02.tif.gz,16,0.46,NA,NA,NA
SF1_t022_ch01.tif.gz,0,0.0,24.911239329939654,6.363280858390129,NA
SF1_t022_ch01.tif.gz,0,0.01,24.911239329939654,6.363280858390129,NA
SF1_t022_ch01.tif.gz,0,0.02,24.911239329939654,6.363280858390129,NA
SF1_t022_ch01.tif.gz,0,0.03,24.911239329939654,6.363280858390129,NA
SF1_t022_ch01.tif.gz,0,0.04,24.911239329939654,6.363280858390129,NA
SF1_t022_ch01.tif.gz,0,0.05,24.911239329939654,6.363280858390129,NA
SF1_t022_ch01.tif.gz,1,0.06,25.291895423838675,6.476376815681378,NA
SF1_t022_ch01.tif.gz,1,0.07,25.291895423838675,6.476376815681378,NA
SF1_t022_ch01.tif.gz,1,0.08,25.291895423838675,6.476376815681378,NA
SF1_t022_ch01.tif.gz,2,0.09,26.00453464237582,6.112182918586046,NA
SF1_t022_ch01.tif.gz,2,0.1,26.00453464237582,6.112182918586046,NA
SF1_t022_ch01.tif.gz,2,0.11,26.00453464237582,6.112182918586046,NA
SF1_t022_ch01.tif.gz,2,0.12,26.00453464237582,6.112182918586046,NA
SF1_t022_ch01.tif.gz,3,0.13,26.97358035372974,5.171985790284311,NA
SF1_t022_ch01.tif.gz,3,0.14,26.97358035372974,5.171985790284311,NA
SF1_t022_ch01.tif.gz,4,0.15,27.43134438972668,5.072949203155014,NA
SF1_t022_ch01.tif.gz,4,0.16,27.43134438972668,5.072949203155014,NA
SF1_t022_ch01.tif.gz,5,0.17,27.942773358370758,5.0859478577677555,NA
SF1_t022_ch01.tif.gz,5,0.18,27.942773358370758,5.0859478577677555,NA
SF1_t022_ch01.tif.gz,5,0.19,27.942773358370758,5.0859478577677555,NA
SF1_t022_ch01.tif.gz,5,0.2,27.942773358370758,5.0859478577677555,NA
SF1_t022_ch01.tif.gz,5,0.21,27.942773358370758,5.0859478577677555,NA
SF1_t022_ch01.tif.gz,5,0.22,27.942773358370758,5.0859478577677555,NA
SF1_t022_ch01.tif.gz,5,0.23,27.942773358370758,5.0859478577677555,NA
SF1_t022_ch01.tif.gz,5,0.24,27.942773358370758,5.0859478577677555,NA
SF1_t022_ch01.tif.gz,7,0.25,29.680347702202987,3.827970454273223,NA
SF1_t022_ch01.tif.gz,7,0.26,29.680347702202987,3.827970454273223,NA
SF1_t022_ch01.tif.gz,7,0.27,29.680347702202987,3.827970454273223,NA
SF1_t022_ch01.tif.gz,7,0.28,29.680347702202987,3.827970454273223,NA
SF1_t022_ch01.tif.gz,7,0.29,29.680347702202987,3.827970454273223,NA
SF1_t022_ch01.tif.gz,7,0.3,29.680347702202987,3.827970454273223,NA
SF1_t022_ch01.tif.gz,7,0.31,29.680347702202987,3.827970454273223,NA
SF1_t022_ch01.tif.gz,8,0.32,30.673864935765913,2.454647554150005,NA
SF1_t022_ch01.tif.gz,8,0.33,30.673864935765913,2.454647554150005,NA
SF1_t022_ch01.tif.gz,9,0.34,30.89711486407175,2.5897143715521507,NA
SF1_t022_ch01.tif.gz,9,0.35,30.89711486407175,2.5897143715521507,NA
SF1_t022_ch01.tif.gz,9,0.36,30.89711486407175,2.5897143715521507,NA
SF1_t022_ch01.tif.gz,9,0.37,30.89711486407175,2.5897143715521507,NA
SF1_t022_ch01.tif.gz,9,0.38,30.89711486407175,2.5897143715521507,NA
SF1_t022_ch01.tif.gz,9,0.39,30.89711486407175,2.5897143715521507,NA
SF1_t022_ch01.tif.gz,9,0.4,30.89711486407175,2.5897143715521507,NA
SF1_t022_ch01.tif.gz,9,0.41,30.89711486407175,2.5897143715521507,NA
SF1_t022_ch01.tif.gz,9,0.42,30.89711486407175,2.5897143715521507,NA
SF1_t022_ch01.tif.gz,10,0.43,29.507958263760155,3.938331464123861,NA
SF1_t022_ch01.tif.gz,10,0.44,29.507958263760155,3.938331464123861,NA
SF1_t022_ch01.tif.gz,10,0.45,29.507958263760155,3.938331464123861,NA
SF1_t022_ch01.tif.gz,10,0.46,29.507958263760155,3.938331464123861,NA
SF1_t022_ch01.tif.gz,10,0.47,29.507958263760155,3.938331464123861,NA
SF1_t022_ch01.tif.gz,11,0.48,30.131316219580924,1.9686161567788327,NA
SF1_t022_ch01.tif.gz,11,0.49,30.131316219580924,1.9686161567788327,NA
SF1_t022_ch01.tif.gz,12,0.5,29.228589768635697,5.329501166664323,NA
SF1_t022_ch01.tif.gz,12,0.51,29.228589768635697,5.329501166664323,NA
SF1_t022_ch01.tif.gz,13,0.52,30.166331031881654,4.282264909997199,NA
SF1_t022_ch01.tif.gz,13,0.53,30.166331031881654,4.282264909997199,NA
SF1_t022_ch01.tif.gz,14,0.54,NA,NA,NA
SF1_t022_ch01.tif.gz,15,0.55,NA,NA,NA
SF1_t022_ch01.tif.gz,15,0.56,NA,NA,NA
SF1_t022_ch01.tif.gz,15,0.57,NA,NA,NA
SF1_t022_ch01.tif.gz,16,0.58,NA,NA,NA
SG1_t012_ch01.tif.gz,0,0.0,25.1004655547489,5.254573397801336,NA
SG1_t012_ch01.tif.gz,0,0.01,25.1004655547489,5.254573397801336,NA
SG1_t012_ch01.tif.gz,0,0.02,25.1004655547489,5.254573397801336,NA
SG1_t012_ch01.tif.gz,0,0.03,25.1004655547489,5.254573397801336,NA
SG1_t012_ch01.tif.gz,0,0.04,25.1004655547489,5.254573397801336,NA
SG1_t012_ch01.tif.gz,0,0.05,25.1004655547489,5.254573397801336,NA
SG1_t012_ch01.tif.gz,0,0.06,25.1004655547489,5.254573397801336,NA
SG1_t012_ch01.tif.gz,0,0.07,25.1004655547489,5.254573397801336,NA
SG1_t012_ch01.tif.gz,0,0.08,25.1004655547489,5.254573397801336,NA
SG1_t012_ch01.tif.gz,0,0.09,25.1004655547489,5.254573397801336,NA
SG1_t012_ch01.tif.gz,0,0.1,25.1004655547489,5.254573397801336,NA
SG1_t012_ch01.tif.gz,1,0.11,25.570708954609422,5.092930794061254,NA
SG1_t012_ch01.tif.gz,2,0.12,26.45621608389032,3.951689155454647,NA
SG1_t012_ch01.tif.gz,2,0.13,26.45621608389032,3.951689155454647,NA
SG1_t012_ch01.tif.gz,2,0.14,26.45621608389032,3.951689155454647,NA
SG1_t012_ch01.tif.gz,2,0.15,26.45621608389032,3.951689155454647,NA
SG1_t012_ch01.tif.gz,2,0.16,26.45621608389032,3.951689155454647,NA
SG1_t012_ch01.tif.gz,3,0.17,26.991290439187075,3.6556413099801817,NA
SG1_t012_ch01.tif.gz,3,0.18,26.991290439187075,3.6556413099801817,NA
SG1_t012_ch01.tif.gz,3,0.19,26.991290439187075,3.6556413099801817,NA
SG1_t012_ch01.tif.gz,3,0.2,26.991290439187075,3.6556413099801817,NA
SG1_t012_ch01.tif.gz,3,0.21,26.991290439187075,3.6556413099801817,NA
SG1_t012_ch01.tif.gz,3,0.22,26.991290439187075,3.6556413099801817,NA
SG1_t012_ch01.tif.gz,4,0.23,27.53131441079149,3.2482719851980195,NA
SG1_t012_ch01.tif.gz,4,0.24,27.53131441079149,3.2482719851980195,NA
SG1_t012_ch01.tif.gz,4,0.25,27.53131441079149,3.2482719851980195,NA
SG1_t012_ch01.tif.gz,4,0.26,27.53131441079149,3.2482719851980195,NA
SG1_t012_ch01.tif.gz,4,0.27,27.53131441079149,3.2482719851980195,NA
SG1_t012_ch01.tif.gz,4,0.28,27.53131441079149,3.2482719851980195,NA
SG1_t012_ch01.tif.gz,4,0.29,27.53131441079149,3.2482719851980195,NA
SG1_t012_ch01.tif.gz,4,0.3,27.53131441079149,3.2482719851980195,NA
SG1_t012_ch01.tif.gz,4,0.31,27.53131441079149,3.2482719851980195,NA
SG1_t012_ch01.tif.gz,6,0.32,27.77506835366342,3.743907690297442,NA
SG1_t012_ch01.tif.gz,7,0.33,28.250008291418467,3.5417715188894463,NA
SG1_t012_ch01.tif.gz,8,0.34,28.89409517512161,3.0721677097483715,NA
SG1_t012_ch01.tif.gz,8,0.35,28.89409517512161,3.0721677097483715,NA
SG1_t012_ch01.tif.gz,8,0.36,28.89409517512161,3.0721677097483715,NA
SG1_t012_ch01.tif.gz,8,0.37,28.89409517512161,3.0721677097483715,NA
SG1_t012_ch01.tif.gz,9,0.38,28.318472690250058,5.016990090643186,NA
SG1_t012_ch01.tif.gz,9,0.39,28.318472690250058,5.016990090643186,NA
SG1_t012_ch01.tif.gz,10,0.4,29.344420681403037,3.9891030885105336,NA
SG1_t012_ch01.tif.gz,10,0.41,29.344420681403037,3.9891030885105336,NA
SG1_t012_ch01.tif.gz,12,0.42,30.224019922552337,4.112086467976421,NA
SG1_t012_ch01.tif.gz,12,0.43,30.224019922552337,4.112086467976421,NA
SG1_t012_ch01.tif.gz,12,0.44,30.224019922552337,4.112086467976421,NA
SG1_t012_ch01.tif.gz,13,0.45,28.95023493968066,5.727819108902483,NA
SG1_t012_ch01.tif.gz,14,0.46,NA,NA,NA
SG1_t012_ch01.tif.gz,14,0.47,NA,NA,NA
SG1_t012_ch01.tif.gz,15,0.48,NA,NA,NA
SG1_t012_ch01.tif.gz,15,0.49,NA,NA,NA
SG1_t012_ch01.tif.gz,15,0.5,NA,NA,NA
SG1_t012_ch01.tif.gz,15,0.51,NA,NA,NA
SG1_t012_ch01.tif.gz,15,0.52,NA,NA,NA
SG1_t012_ch01.tif.gz,15,0.53,NA,NA,NA
SG1_t012_ch01.tif.gz,15,0.54,NA,NA,NA
SG1_t012_ch01.tif.gz,15,0.55,NA,NA,NA
SG1_t012_ch01.tif.gz,15,0.56,NA,NA,NA
SG1_t012_ch01.tif.gz,16,0.57,NA,NA,NA
SG2_t026_ch01.tif.gz,1,0.0,25.682056694145487,4.765014711446771,NA
SG2_t026_ch01.tif.gz,1,0.01,25.682056694145487,4.765014711446771,NA
SG2_t026_ch01.tif.gz,1,0.02,25.682056694145487,4.765014711446771,NA
SG2_t026_ch01.tif.gz,1,0.03,25.682056694145487,4.765014711446771,NA
SG2_t026_ch01.tif.gz,1,0.04,25.682056694145487,4.765014711446771,NA
SG2_t026_ch01.tif.gz,1,0.05,25.682056694145487,4.765014711446771,NA
SG2_t026_ch01.tif.gz,1,0.06,25.682056694145487,4.765014711446771,NA
SG2_t026_ch01.tif.gz,1,0.07,25.682056694145487,4.765014711446771,NA
SG2_t026_ch01.tif.gz,1,0.08,25.682056694145487,4.765014711446771,NA
SG2_t026_ch01.tif.gz,1,0.09,25.682056694145487,4.765014711446771,NA
SG2_t026_ch01.tif.gz,1,0.1,25.682056694145487,4.765014711446771,NA
SG2_t026_ch01.tif.gz,2,0.11,26.07752327212815,4.652793340590335,NA
SG2_t026_ch01.tif.gz,2,0.12,26.07752327212815,4.652793340590335,NA
SG2_t026_ch01.tif.gz,3,0.13,26.6583223979539,4.348439553986635,NA
SG2_t026_ch01.tif.gz,3,0.14,26.6583223979539,4.348439553986635,NA
SG2_t026_ch01.tif.gz,4,0.15,26.989431198789813,4.466868830859912,NA
SG2_t026_ch01.tif.gz,5,0.16,27.369944157237686,4.93088196998825,NA
SG2_t026_ch01.tif.gz,5,0.17,27.369944157237686,4.93088196998825,NA
SG2_t026_ch01.tif.gz,5,0.18,27.369944157237686,4.93088196998825,NA
SG2_t026_ch01.tif.gz,6,0.19,28.38216095639545,3.58443431101903,NA
SG2_t026_ch01.tif.gz,6,0.2,28.38216095639545,3.58443431101903,NA
SG2_t026_ch01.tif.gz,6,0.21,28.38216095639545,3.58443431101903,NA
SG2_t026_ch01.tif.gz,6,0.22,28.38216095639545,3.58443431101903,NA
SG2_t026_ch01.tif.gz,6,0.23,28.38216095639545,3.58443431101903,NA
SG2_t026_ch01.tif.gz,6,0.24,28.38216095639545,3.58443431101903,NA
SG2_t026_ch01.tif.gz,6,0.25,28.38216095639545,3.58443431101903,NA
SG2_t026_ch01.tif.gz,6,0.26,28.38216095639545,3.58443431101903,NA
SG2_t026_ch01.tif.gz,6,0.27,28.38216095639545,3.58443431101903,NA
SG2_t026_ch01.tif.gz,7,0.28,28.71102590126984,3.992415933767177,NA
SG2_t026_ch01.tif.gz,7,0.29,28.71102590126984,3.992415933767177,NA
SG2_t026_ch01.tif.gz,7,0.3,28.71102590126984,3.992415933767177,NA
SG2_t026_ch01.tif.gz,7,0.31,28.71102590126984,3.992415933767177,NA
SG2_t026_ch01.tif.gz,7,0.32,28.71102590126984,3.992415933767177,NA
SG2_t026_ch01.tif.gz,8,0.33,29.47153362874554,2.6504776478326018,NA
SG2_t026_ch01.tif.gz,8,0.34,29.47153362874554,2.6504776478326018,NA
SG2_t026_ch01.tif.gz,8,0.35,29.47153362874554,2.6504776478326018,NA
SG2_t026_ch01.tif.gz,8,0.36,29.47153362874554,2.6504776478326018,NA
SG2_t026_ch01.tif.gz,8,0.37,29.47153362874554,2.6504776478326018,NA
SG2_t026_ch01.tif.gz,8,0.38,29.47153362874554,2.6504776478326018,NA
SG2_t026_ch01.tif.gz,9,0.39,29.29047438484886,4.190464705762116,NA
SG2_t026_ch01.tif.gz,11,0.4,29.828335096650257,4.0362668031265745,NA
SG2_t026_ch01.tif.gz,11,0.41,29.828335096650257,4.0362668031265745,NA
SG2_t026_ch01.tif.gz,11,0.42,29.828335096650257,4.0362668031265745,NA
SG2_t026_ch01.tif.gz,11,0.43,29.828335096650257,4.0362668031265745,NA
SG2_t026_ch01.tif.gz,11,0.44,29.828335096650257,4.0362668031265745,NA
SG2_t026_ch01.tif.gz,11,0.45,29.828335096650257,4.0362668031265745,NA
SG2_t026_ch01.tif.gz,11,0.46,29.828335096650257,4.0362668031265745,NA
SG2_t026_ch01.tif.gz,11,0.47,29.828335096650257,4.0362668031265745,NA
SG2_t026_ch01.tif.gz,11,0.48,29.828335096650257,4.0362668031265745,NA
SG2_t026_ch01.tif.gz,12,0.49,29.32509097377072,4.799751190334043,NA
SG2_t026_ch01.tif.gz,12,0.5,29.32509097377072,4.799751190334043,NA
SG2_t026_ch01.tif.gz,12,0.51,29.32509097377072,4.799751190334043,NA
SG2_t026_ch01.tif.gz,13,0.52,30.870167355647443,3.153780436764292,NA
SG2_t026_ch01.tif.gz,13,0.53,30.870167355647443,3.153780436764292,NA
SG2_t026_ch01.tif.gz,14,0.54,NA,NA,NA
SG2_t026_ch01.tif.gz,14,0.55,NA,NA,NA
SG2_t026_ch01.tif.gz,15,0.56,NA,NA,NA
SG2_t026_ch01.tif.gz,15,0.57,NA,NA,NA
SG2_t026_ch01.tif.gz,15,0.58,NA,NA,NA
SG2_t026_ch01.tif.gz,15,0.59,NA,NA,NA
SG2_t026_ch01.tif.gz,16,0.6,NA,NA,NA
SH1_t018_ch02.tif.gz,0,0.0,24.51342699136357,5.401027116760725,NA
SH1_t018_ch02.tif.gz,0,0.01,24.51342699136357,5.401027116760725,NA
SH1_t018_ch02.tif.gz,0,0.02,24.51342699136357,5.401027116760725,NA
SH1_t018_ch02.tif.gz,0,0.03,24.51342699136357,5.401027116760725,NA
SH1_t018_ch02.tif.gz,1,0.04,25.611014164114682,3.4369729776109588,NA
SH1_t018_ch02.tif.gz,1,0.05,25.611014164114682,3.4369729776109588,NA
SH1_t018_ch02.tif.gz,1,0.06,25.611014164114682,3.4369729776109588,NA
SH1_t018_ch02.tif.gz,1,0.07,25.611014164114682,3.4369729776109588,NA
SH1_t018_ch02.tif.gz,1,0.08,25.611014164114682,3.4369729776109588,NA
SH1_t018_ch02.tif.gz,1,0.09,25.611014164114682,3.4369729776109588,NA
SH1_t018_ch02.tif.gz,1,0.1,25.611014164114682,3.4369729776109588,NA
SH1_t018_ch02.tif.gz,1,0.11,25.611014164114682,3.4369729776109588,NA
SH1_t018_ch02.tif.gz,1,0.12,25.611014164114682,3.4369729776109588,NA
SH1_t018_ch02.tif.gz,2,0.13,26.03239184421511,3.1415473131394496,NA
SH1_t018_ch02.tif.gz,2,0.14,26.03239184421511,3.1415473131394496,NA
SH1_t018_ch02.tif.gz,2,0.15,26.03239184421511,3.1415473131394496,NA
SH1_t018_ch02.tif.gz,2,0.16,26.03239184421511,3.1415473131394496,NA
SH1_t018_ch02.tif.gz,2,0.17,26.03239184421511,3.1415473131394496,NA
SH1_t018_ch02.tif.gz,2,0.18,26.03239184421511,3.1415473131394496,NA
SH1_t018_ch02.tif.gz,2,0.19,26.03239184421511,3.1415473131394496,NA
SH1_t018_ch02.tif.gz,2,0.2,26.03239184421511,3.1415473131394496,NA
SH1_t018_ch02.tif.gz,2,0.21,26.03239184421511,3.1415473131394496,NA
SH1_t018_ch02.tif.gz,3,0.22,26.077160046331432,3.7622159613770227,NA
SH1_t018_ch02.tif.gz,4,0.23,26.554413571288027,3.401455143248025,NA
SH1_t018_ch02.tif.gz,4,0.24,26.554413571288027,3.401455143248025,NA
SH1_t018_ch02.tif.gz,4,0.25,26.554413571288027,3.401455143248025,NA
SH1_t018_ch02.tif.gz,6,0.26,27.59484304118326,2.38458061652742,NA
SH1_t018_ch02.tif.gz,6,0.27,27.59484304118326,2.38458061652742,NA
SH1_t018_ch02.tif.gz,6,0.28,27.59484304118326,2.38458061652742,NA
SH1_t018_ch02.tif.gz,6,0.29,27.59484304118326,2.38458061652742,NA
SH1_t018_ch02.tif.gz,6,0.3,27.59484304118326,2.38458061652742,NA
SH1_t018_ch02.tif.gz,6,0.31,27.59484304118326,2.38458061652742,NA
SH1_t018_ch02.tif.gz,6,0.32,27.59484304118326,2.38458061652742,NA
SH1_t018_ch02.tif.gz,6,0.33,27.59484304118326,2.38458061652742,NA
SH1_t018_ch02.tif.gz,6,0.34,27.59484304118326,2.38458061652742,NA
SH1_t018_ch02.tif.gz,6,0.35,27.59484304118326,2.38458061652742,NA
SH1_t018_ch02.tif.gz,8,0.36,27.90446583973635,3.1910009929107392,NA
SH1_t018_ch02.tif.gz,10,0.37,28.546979934371986,2.3497711434830286,NA
SH1_t018_ch02.tif.gz,10,0.38,28.546979934371986,2.3497711434830286,NA
SH1_t018_ch02.tif.gz,11,0.39,28.089050455556446,4.3384447474070305,NA
SH1_t018_ch02.tif.gz,12,0.4,28.979665102438247,2.4086016151670226,NA
SH1_t018_ch02.tif.gz,12,0.41,28.979665102438247,2.4086016151670226,NA
SH1_t018_ch02.tif.gz,12,0.42,28.979665102438247,2.4086016151670226,NA
SH1_t018_ch02.tif.gz,14,0.43,NA,NA,NA
SH1_t018_ch02.tif.gz,14,0.44,NA,NA,NA
SH1_t018_ch02.tif.gz,14,0.45,NA,NA,NA
SH1_t018_ch02.tif.gz,14,0.46,NA,NA,NA
SH1_t018_ch02.tif.gz,14,0.47,NA,NA,NA
SH1_t018_ch02.tif.gz,14,0.48,NA,NA,NA
SH1_t018_ch02.tif.gz,15,0.49,NA,NA,NA
SH1_t018_ch02.tif.gz,15,0.5,NA,NA,NA
SH1_t018_ch02.tif.gz,15,0.51,NA,NA,NA
SH1_t018_ch02.tif.gz,15,0.52,NA,NA,NA
SH1_t018_ch02.tif.gz,15,0.53,NA,NA,NA
SH1_t018_ch02.tif.gz,15,0.54,NA,NA,NA
SH1_t018_ch02.tif.gz,16,0.55,NA,NA,NA
SH2_t021_ch02.tif.gz,0,0.0,24.052240387899463,5.44920129502107,NA
SH2_t021_ch02.tif.gz,0,0.01,24.052240387899463,5.44920129502107,NA
SH2_t021_ch02.tif.gz,1,0.02,24.54075703363272,5.3697998287943145,NA
SH2_t021_ch02.tif.gz,1,0.03,24.54075703363272,5.3697998287943145,NA
SH2_t021_ch02.tif.gz,1,0.04,24.54075703363272,5.3697998287943145,NA
SH2_t021_ch02.tif.gz,1,0.05,24.54075703363272,5.3697998287943145,NA
SH2_t021_ch02.tif.gz,1,0.06,24.54075703363272,5.3697998287943145,NA
SH2_t021_ch02.tif.gz,1,0.07,24.54075703363272,5.3697998287943145,NA
SH2_t021_ch02.tif.gz,1,0.08,24.54075703363272,5.3697998287943145,NA
SH2_t021_ch02.tif.gz,1,0.09,24.54075703363272,5.3697998287943145,NA
SH2_t021_ch02.tif.gz,4,0.1,26.165456190448154,4.696415042653348,NA
SH2_t021_ch02.tif.gz,4,0.11,26.165456190448154,4.696415042653348,NA
SH2_t021_ch02.tif.gz,4,0.12,26.165456190448154,4.696415042653348,NA
SH2_t021_ch02.tif.gz,4,0.13,26.165456190448154,4.696415042653348,NA
SH2_t021_ch02.tif.gz,4,0.14,26.165456190448154,4.696415042653348,NA
SH2_t021_ch02.tif.gz,4,0.15,26.165456190448154,4.696415042653348,NA
SH2_t021_ch02.tif.gz,4,0.16,26.165456190448154,4.696415042653348,NA
SH2_t021_ch02.tif.gz,5,0.17,26.777854372717616,4.358393604814452,NA
SH2_t021_ch02.tif.gz,5,0.18,26.777854372717616,4.358393604814452,NA
SH2_t021_ch02.tif.gz,6,0.19,27.37632189609719,4.3597865166627345,NA
SH2_t021_ch02.tif.gz,7,0.2,27.921390532184986,4.2943936257265225,NA
SH2_t021_ch02.tif.gz,7,0.21,27.921390532184986,4.2943936257265225,NA
SH2_t021_ch02.tif.gz,8,0.22,29.00703759252664,2.542861305571078,NA
SH2_t021_ch02.tif.gz,8,0.23,29.00703759252664,2.542861305571078,NA
SH2_t021_ch02.tif.gz,8,0.24,29.00703759252664,2.542861305571078,NA
SH2_t021_ch02.tif.gz,8,0.25,29.00703759252664,2.542861305571078,NA
SH2_t021_ch02.tif.gz,8,0.26,29.00703759252664,2.542861305571078,NA
SH2_t021_ch02.tif.gz,8,0.27,29.00703759252664,2.542861305571078,NA
SH2_t021_ch02.tif.gz,8,0.28,29.00703759252664,2.542861305571078,NA
SH2_t021_ch02.tif.gz,8,0.29,29.00703759252664,2.542861305571078,NA
SH2_t021_ch02.tif.gz,8,0.3,29.00703759252664,2.542861305571078,NA
SH2_t021_ch02.tif.gz,8,0.31,29.00703759252664,2.542861305571078,NA
SH2_t021_ch02.tif.gz,8,0.32,29.00703759252664,2.542861305571078,NA
SH2_t021_ch02.tif.gz,8,0.33,29.00703759252664,2.542861305571078,NA
SH2_t021_ch02.tif.gz,8,0.34,29.00703759252664,2.542861305571078,NA
SH2_t021_ch02.tif.gz,8,0.35,29.00703759252664,2.542861305571078,NA
SH2_t021_ch02.tif.gz,8,0.36,29.00703759252664,2.542861305571078,NA
SH2_t021_ch02.tif.gz,8,0.37,29.00703759252664,2.542861305571078,NA
SH2_t021_ch02.tif.gz,9,0.38,29.364450578953385,1.4778654859839508,NA
SH2_t021_ch02.tif.gz,9,0.39,29.364450578953385,1.4778654859839508,NA
SH2_t021_ch02.tif.gz,9,0.4,29.364450578953385,1.4778654859839508,NA
SH2_t021_ch02.tif.gz,9,0.41,29.364450578953385,1.4778654859839508,NA
SH2_t021_ch02.tif.gz,10,0.42,29.15850879612707,1.9265977209125078,NA
SH2_t021_ch02.tif.gz,10,0.43,29.15850879612707,1.9265977209125078,NA
SH2_t021_ch02.tif.gz,10,0.44,29.15850879612707,1.9265977209125078,NA
SH2_t021_ch02.tif.gz,10,0.45,29.15850879612707,1.9265977209125078,NA
SH2_t021_ch02.tif.gz,10,0.46,29.15850879612707,1.9265977209125078,NA
SH2_t021_ch02.tif.gz,10,0.47,29.15850879612707,1.9265977209125078,NA
SH2_t021_ch02.tif.gz,11,0.48,28.200484200006873,3.545713476961764,NA
SH2_t021_ch02.tif.gz,11,0.49,28.200484200006873,3.545713476961764,NA
SH2_t021_ch02.tif.gz,11,0.5,28.200484200006873,3.545713476961764,NA
SH2_t021_ch02.tif.gz,13,0.51,26.336670918788908,6.703419927489773,NA
SH2_t021_ch02.tif.gz,14,0.52,NA,NA,NA
SH2_t021_ch02.tif.gz,15,0.53,NA,NA,NA
SH2_t021_ch02.tif.gz,15,0.54,NA,NA,NA
SH2_t021_ch02.tif.gz,15,0.55,NA,NA,NA
SH2_t021_ch02.tif.gz,16,0.56,NA,NA,NA
SH4_t022_ch02.tif.gz,0,0.0,24.487860510741896,5.6870389769395855,NA
SH4_t022_ch02.tif.gz,0,0.01,24.487860510741896,5.6870389769395855,NA
SH4_t022_ch02.tif.gz,0,0.02,24.487860510741896,5.6870389769395855,NA
SH4_t022_ch02.tif.gz,0,0.03,24.487860510741896,5.6870389769395855,NA
SH4_t022_ch02.tif.gz,0,0.04,24.487860510741896,5.6870389769395855,NA
SH4_t022_ch02.tif.gz,1,0.05,25.354508301741205,4.717494851640498,NA
SH4_t022_ch02.tif.gz,1,0.06,25.354508301741205,4.717494851640498,NA
SH4_t022_ch02.tif.gz,1,0.07,25.354508301741205,4.717494851640498,NA
SH4_t022_ch02.tif.gz,1,0.08,25.354508301741205,4.717494851640498,NA
SH4_t022_ch02.tif.gz,1,0.09,25.354508301741205,4.717494851640498,NA
SH4_t022_ch02.tif.gz,1,0.1,25.354508301741205,4.717494851640498,NA
SH4_t022_ch02.tif.gz,1,0.11,25.354508301741205,4.717494851640498,NA
SH4_t022_ch02.tif.gz,1,0.12,25.354508301741205,4.717494851640498,NA
SH4_t022_ch02.tif.gz,1,0.13,25.354508301741205,4.717494851640498,NA
SH4_t022_ch02.tif.gz,2,0.14,25.881778879144452,4.452579498425217,NA
SH4_t022_ch02.tif.gz,4,0.15,26.590847682649215,4.7137018710174035,NA
SH4_t022_ch02.tif.gz,4,0.16,26.590847682649215,4.7137018710174035,NA
SH4_t022_ch02.tif.gz,5,0.17,27.442537940778887,3.6764056568743957,NA
SH4_t022_ch02.tif.gz,5,0.18,27.442537940778887,3.6764056568743957,NA
SH4_t022_ch02.tif.gz,6,0.19,28.17015128742299,3.2194510680417543,NA
SH4_t022_ch02.tif.gz,6,0.2,28.17015128742299,3.2194510680417543,NA
SH4_t022_ch02.tif.gz,6,0.21,28.17015128742299,3.2194510680417543,NA
SH4_t022_ch02.tif.gz,6,0.22,28.17015128742299,3.2194510680417543,NA
SH4_t022_ch02.tif.gz,6,0.23,28.17015128742299,3.2194510680417543,NA
SH4_t022_ch02.tif.gz,6,0.24,28.17015128742299,3.2194510680417543,NA
SH4_t022_ch02.tif.gz,6,0.25,28.17015128742299,3.2194510680417543,NA
SH4_t022_ch02.tif.gz,6,0.26,28.17015128742299,3.2194510680417543,NA
SH4_t022_ch02.tif.gz,6,0.27,28.17015128742299,3.2194510680417543,NA
SH4_t022_ch02.tif.gz,6,0.28,28.17015128742299,3.2194510680417543,NA
SH4_t022_ch02.tif.gz,6,0.29,28.17015128742299,3.2194510680417543,NA
SH4_t022_ch02.tif.gz,6,0.3,28.17015128742299,3.2194510680417543,NA
SH4_t022_ch02.tif.gz,6,0.31,28.17015128742299,3.2194510680417543,NA
SH4_t022_ch02.tif.gz,7,0.32,28.736779959103153,2.3317532435431123,NA
SH4_t022_ch02.tif.gz,7,0.33,28.736779959103153,2.3317532435431123,NA
SH4_t022_ch02.tif.gz,7,0.34,28.736779959103153,2.3317532435431123,NA
SH4_t022_ch02.tif.gz,7,0.35,28.736779959103153,2.3317532435431123,NA
SH4_t022_ch02.tif.gz,7,0.36,28.736779959103153,2.3317532435431123,NA
SH4_t022_ch02.tif.gz,9,0.37,29.058205284402455,3.8788827863662125,NA
SH4_t022_ch02.tif.gz,9,0.38,29.058205284402455,3.8788827863662125,NA
SH4_t022_ch02.tif.gz,10,0.39,29.1409327667843,3.285469270701901,NA
SH4_t022_ch02.tif.gz,11,0.4,27.191017611324906,3.165169986145143,NA
SH4_t022_ch02.tif.gz,11,0.41,27.191017611324906,3.165169986145143,NA
SH4_t022_ch02.tif.gz,11,0.42,27.191017611324906,3.165169986145143,NA
SH4_t022_ch02.tif.gz,12,0.43,26.67873538753628,3.295276116634927,NA
SH4_t022_ch02.tif.gz,12,0.44,26.67873538753628,3.295276116634927,NA
SH4_t022_ch02.tif.gz,12,0.45,26.67873538753628,3.295276116634927,NA
SH4_t022_ch02.tif.gz,13,0.46,25.81403509806636,1.3461093734585818,NA
SH4_t022_ch02.tif.gz,13,0.47,25.81403509806636,1.3461093734585818,NA
SH4_t022_ch02.tif.gz,13,0.48,25.81403509806636,1.3461093734585818,NA
SH4_t022_ch02.tif.gz,13,0.49,25.81403509806636,1.3461093734585818,NA
SH4_t022_ch02.tif.gz,13,0.5,25.81403509806636,1.3461093734585818,NA
SH4_t022_ch02.tif.gz,13,0.51,25.81403509806636,1.3461093734585818,NA
SH4_t022_ch02.tif.gz,14,0.52,NA,NA,NA
SH4_t022_ch02.tif.gz,14,0.53,NA,NA,NA
SH4_t022_ch02.tif.gz,15,0.54,NA,NA,NA
SH4_t022_ch02.tif.gz,15,0.55,NA,NA,NA
SH4_t022_ch02.tif.gz,15,0.56,NA,NA,NA
SH4_t022_ch02.tif.gz,16,0.57,NA,NA,NA
SH5_t017_ch02.tif.gz,0,0.0,25.109372859271534,6.1425505851111915,NA
SH5_t017_ch02.tif.gz,0,0.01,25.109372859271534,6.1425505851111915,NA
SH5_t017_ch02.tif.gz,0,0.02,25.109372859271534,6.1425505851111915,NA
SH5_t017_ch02.tif.gz,0,0.03,25.109372859271534,6.1425505851111915,NA
SH5_t017_ch02.tif.gz,0,0.04,25.109372859271534,6.1425505851111915,NA
SH5_t017_ch02.tif.gz,0,0.05,25.109372859271534,6.1425505851111915,NA
SH5_t017_ch02.tif.gz,1,0.06,25.545649982379487,6.1247793863688935,NA
SH5_t017_ch02.tif.gz,1,0.07,25.545649982379487,6.1247793863688935,NA
SH5_t017_ch02.tif.gz,1,0.08,25.545649982379487,6.1247793863688935,NA
SH5_t017_ch02.tif.gz,1,0.09,25.545649982379487,6.1247793863688935,NA
SH5_t017_ch02.tif.gz,1,0.1,25.545649982379487,6.1247793863688935,NA
SH5_t017_ch02.tif.gz,1,0.11,25.545649982379487,6.1247793863688935,NA
SH5_t017_ch02.tif.gz,1,0.12,25.545649982379487,6.1247793863688935,NA
SH5_t017_ch02.tif.gz,1,0.13,25.545649982379487,6.1247793863688935,NA
SH5_t017_ch02.tif.gz,2,0.14,26.108771065036553,6.016804996223417,NA
SH5_t017_ch02.tif.gz,2,0.15,26.108771065036553,6.016804996223417,NA
SH5_t017_ch02.tif.gz,2,0.16,26.108771065036553,6.016804996223417,NA
SH5_t017_ch02.tif.gz,2,0.17,26.108771065036553,6.016804996223417,NA
SH5_t017_ch02.tif.gz,3,0.18,26.57431616031655,6.173374898345692,NA
SH5_t017_ch02.tif.gz,3,0.19,26.57431616031655,6.173374898345692,NA
SH5_t017_ch02.tif.gz,3,0.2,26.57431616031655,6.173374898345692,NA
SH5_t017_ch02.tif.gz,3,0.21,26.57431616031655,6.173374898345692,NA
SH5_t017_ch02.tif.gz,5,0.22,27.914750285476337,5.469492796044591,NA
SH5_t017_ch02.tif.gz,5,0.23,27.914750285476337,5.469492796044591,NA
SH5_t017_ch02.tif.gz,5,0.24,27.914750285476337,5.469492796044591,NA
SH5_t017_ch02.tif.gz,5,0.25,27.914750285476337,5.469492796044591,NA
SH5_t017_ch02.tif.gz,5,0.26,27.914750285476337,5.469492796044591,NA
SH5_t017_ch02.tif.gz,5,0.27,27.914750285476337,5.469492796044591,NA
SH5_t017_ch02.tif.gz,6,0.28,28.647328066831317,5.206890329247823,NA
SH5_t017_ch02.tif.gz,7,0.29,29.49632684269036,4.891665385319878,NA
SH5_t017_ch02.tif.gz,7,0.3,29.49632684269036,4.891665385319878,NA
SH5_t017_ch02.tif.gz,8,0.31,30.64724240862973,3.616567055885865,NA
SH5_t017_ch02.tif.gz,8,0.32,30.64724240862973,3.616567055885865,NA
SH5_t017_ch02.tif.gz,8,0.33,30.64724240862973,3.616567055885865,NA
SH5_t017_ch02.tif.gz,8,0.34,30.64724240862973,3.616567055885865,NA
SH5_t017_ch02.tif.gz,8,0.35,30.64724240862973,3.616567055885865,NA
SH5_t017_ch02.tif.gz,8,0.36,30.64724240862973,3.616567055885865,NA
SH5_t017_ch02.tif.gz,8,0.37,30.64724240862973,3.616567055885865,NA
SH5_t017_ch02.tif.gz,8,0.38,30.64724240862973,3.616567055885865,NA
SH5_t017_ch02.tif.gz,9,0.39,31.424344962148442,2.458696149572425,NA
SH5_t017_ch02.tif.gz,10,0.4,31.762605904192615,2.3496345224570745,NA
SH5_t017_ch02.tif.gz,10,0.41,31.762605904192615,2.3496345224570745,NA
SH5_t017_ch02.tif.gz,10,0.42,31.762605904192615,2.3496345224570745,NA
SH5_t017_ch02.tif.gz,10,0.43,31.762605904192615,2.3496345224570745,NA
SH5_t017_ch02.tif.gz,10,0.44,31.762605904192615,2.3496345224570745,NA
SH5_t017_ch02.tif.gz,10,0.45,31.762605904192615,2.3496345224570745,NA
SH5_t017_ch02.tif.gz,10,0.46,31.762605904192615,2.3496345224570745,NA
SH5_t017_ch02.tif.gz,11,0.47,30.54184483416366,4.924087205303964,NA
SH5_t017_ch02.tif.gz,11,0.48,30.54184483416366,4.924087205303964,NA
SH5_t017_ch02.tif.gz,11,0.49,30.54184483416366,4.924087205303964,NA
SH5_t017_ch02.tif.gz,11,0.5,30.54184483416366,4.924087205303964,NA
SH5_t017_ch02.tif.gz,11,0.51,30.54184483416366,4.924087205303964,NA
SH5_t017_ch02.tif.gz,13,0.52,26.041296120935257,8.980856137191275,NA
SH5_t017_ch02.tif.gz,13,0.53,26.041296120935257,8.980856137191275,NA
SH5_t017_ch02.tif.gz,13,0.54,26.041296120935257,8.980856137191275,NA
SH5_t017_ch02.tif.gz,13,0.55,26.041296120935257,8.980856137191275,NA
SH5_t017_ch02.tif.gz,13,0.56,26.041296120935257,8.980856137191275,NA
SH5_t017_ch02.tif.gz,13,0.57,26.041296120935257,8.980856137191275,NA
SH5_t017_ch02.tif.gz,13,0.58,26.041296120935257,8.980856137191275,NA
SH5_t017_ch02.tif.gz,13,0.59,26.041296120935257,8.980856137191275,NA
SH5_t017_ch02.tif.gz,13,0.6,26.041296120935257,8.980856137191275,NA
SH5_t017_ch02.tif.gz,13,0.61,26.041296120935257,8.980856137191275,NA
SH5_t017_ch02.tif.gz,15,0.62,NA,NA,NA
SH5_t017_ch02.tif.gz,16,0.63,NA,NA,NA
SH6_t024_ch02.tif.gz,0,0.0,24.86251142088741,5.574508562504729,NA
SH6_t024_ch02.tif.gz,0,0.01,24.86251142088741,5.574508562504729,NA
SH6_t024_ch02.tif.gz,0,0.02,24.86251142088741,5.574508562504729,NA
SH6_t024_ch02.tif.gz,0,0.03,24.86251142088741,5.574508562504729,NA
SH6_t024_ch02.tif.gz,1,0.04,25.573919031076276,5.022587485675693,NA
SH6_t024_ch02.tif.gz,1,0.05,25.573919031076276,5.022587485675693,NA
SH6_t024_ch02.tif.gz,1,0.06,25.573919031076276,5.022587485675693,NA
SH6_t024_ch02.tif.gz,1,0.07,25.573919031076276,5.022587485675693,NA
SH6_t024_ch02.tif.gz,1,0.08,25.573919031076276,5.022587485675693,NA
SH6_t024_ch02.tif.gz,1,0.09,25.573919031076276,5.022587485675693,NA
SH6_t024_ch02.tif.gz,1,0.1,25.573919031076276,5.022587485675693,NA
SH6_t024_ch02.tif.gz,2,0.11,26.157759505777808,4.715376319833092,NA
SH6_t024_ch02.tif.gz,2,0.12,26.157759505777808,4.715376319833092,NA
SH6_t024_ch02.tif.gz,2,0.13,26.157759505777808,4.715376319833092,NA
SH6_t024_ch02.tif.gz,3,0.14,26.788835580785364,4.171684075827545,NA
SH6_t024_ch02.tif.gz,3,0.15,26.788835580785364,4.171684075827545,NA
SH6_t024_ch02.tif.gz,3,0.16,26.788835580785364,4.171684075827545,NA
SH6_t024_ch02.tif.gz,3,0.17,26.788835580785364,4.171684075827545,NA
SH6_t024_ch02.tif.gz,4,0.18,27.555589731803536,3.4995156936125547,NA
SH6_t024_ch02.tif.gz,4,0.19,27.555589731803536,3.4995156936125547,NA
SH6_t024_ch02.tif.gz,4,0.2,27.555589731803536,3.4995156936125547,NA
SH6_t024_ch02.tif.gz,4,0.21,27.555589731803536,3.4995156936125547,NA
SH6_t024_ch02.tif.gz,4,0.22,27.555589731803536,3.4995156936125547,NA
SH6_t024_ch02.tif.gz,4,0.23,27.555589731803536,3.4995156936125547,NA
SH6_t024_ch02.tif.gz,4,0.24,27.555589731803536,3.4995156936125547,NA
SH6_t024_ch02.tif.gz,5,0.25,28.022507263998147,3.450175019786715,NA
SH6_t024_ch02.tif.gz,5,0.26,28.022507263998147,3.450175019786715,NA
SH6_t024_ch02.tif.gz,5,0.27,28.022507263998147,3.450175019786715,NA
SH6_t024_ch02.tif.gz,5,0.28,28.022507263998147,3.450175019786715,NA
SH6_t024_ch02.tif.gz,5,0.29,28.022507263998147,3.450175019786715,NA
SH6_t024_ch02.tif.gz,6,0.3,28.523336134801916,2.519722115829696,NA
SH6_t024_ch02.tif.gz,6,0.31,28.523336134801916,2.519722115829696,NA
SH6_t024_ch02.tif.gz,7,0.32,28.819413733767824,2.451786905955484,NA
SH6_t024_ch02.tif.gz,7,0.33,28.819413733767824,2.451786905955484,NA
SH6_t024_ch02.tif.gz,7,0.34,28.819413733767824,2.451786905955484,NA
SH6_t024_ch02.tif.gz,7,0.35,28.819413733767824,2.451786905955484,NA
SH6_t024_ch02.tif.gz,7,0.36,28.819413733767824,2.451786905955484,NA
SH6_t024_ch02.tif.gz,8,0.37,28.981529625758128,2.0188892636751707,NA
SH6_t024_ch02.tif.gz,10,0.38,28.12430689104931,4.665990072997896,NA
SH6_t024_ch02.tif.gz,10,0.39,28.12430689104931,4.665990072997896,NA
SH6_t024_ch02.tif.gz,10,0.4,28.12430689104931,4.665990072997896,NA
SH6_t024_ch02.tif.gz,10,0.41,28.12430689104931,4.665990072997896,NA
SH6_t024_ch02.tif.gz,10,0.42,28.12430689104931,4.665990072997896,NA
SH6_t024_ch02.tif.gz,11,0.43,27.69982894391377,6.104173989635974,NA
SH6_t024_ch02.tif.gz,11,0.44,27.69982894391377,6.104173989635974,NA
SH6_t024_ch02.tif.gz,11,0.45,27.69982894391377,6.104173989635974,NA
SH6_t024_ch02.tif.gz,11,0.46,27.69982894391377,6.104173989635974,NA
SH6_t024_ch02.tif.gz,11,0.47,27.69982894391377,6.104173989635974,NA
SH6_t024_ch02.tif.gz,11,0.48,27.69982894391377,6.104173989635974,NA
SH6_t024_ch02.tif.gz,12,0.49,24.687932514845382,6.132199298923457,NA
SH6_t024_ch02.tif.gz,12,0.5,24.687932514845382,6.132199298923457,NA
SH6_t024_ch02.tif.gz,13,0.51,23.773753950160227,6.592528197854312,NA
SH6_t024_ch02.tif.gz,14,0.52,NA,NA,NA
SH6_t024_ch02.tif.gz,14,0.53,NA,NA,NA
SH6_t024_ch02.tif.gz,14,0.54,NA,NA,NA
SH6_t024_ch02.tif.gz,15,0.55,NA,NA,NA
SH6_t024_ch02.tif.gz,15,0.56,NA,NA,NA
SH6_t024_ch02.tif.gz,15,0.57,NA,NA,NA
SH6_t024_ch02.tif.gz,16,0.58,NA,NA,NA
SH7_t017_ch02.tif.gz,0,0.0,25.134667738218717,6.0256303025909945,NA
SH7_t017_ch02.tif.gz,0,0.01,25.134667738218717,6.0256303025909945,NA
SH7_t017_ch02.tif.gz,0,0.02,25.134667738218717,6.0256303025909945,NA
SH7_t017_ch02.tif.gz,0,0.03,25.134667738218717,6.0256303025909945,NA
SH7_t017_ch02.tif.gz,0,0.04,25.134667738218717,6.0256303025909945,NA
SH7_t017_ch02.tif.gz,0,0.05,25.134667738218717,6.0256303025909945,NA
SH7_t017_ch02.tif.gz,0,0.06,25.134667738218717,6.0256303025909945,NA
SH7_t017_ch02.tif.gz,0,0.07,25.134667738218717,6.0256303025909945,NA
SH7_t017_ch02.tif.gz,1,0.08,25.626067644337365,5.933384090558966,NA
SH7_t017_ch02.tif.gz,2,0.09,26.330856322998724,5.5074381854027274,NA
SH7_t017_ch02.tif.gz,2,0.1,26.330856322998724,5.5074381854027274,NA
SH7_t017_ch02.tif.gz,2,0.11,26.330856322998724,5.5074381854027274,NA
SH7_t017_ch02.tif.gz,2,0.12,26.330856322998724,5.5074381854027274,NA
SH7_t017_ch02.tif.gz,3,0.13,27.27964928281971,4.479976612024665,NA
SH7_t017_ch02.tif.gz,3,0.14,27.27964928281971,4.479976612024665,NA
SH7_t017_ch02.tif.gz,3,0.15,27.27964928281971,4.479976612024665,NA
SH7_t017_ch02.tif.gz,3,0.16,27.27964928281971,4.479976612024665,NA
SH7_t017_ch02.tif.gz,4,0.17,28.159679953058895,3.4922071591940096,NA
SH7_t017_ch02.tif.gz,4,0.18,28.159679953058895,3.4922071591940096,NA
SH7_t017_ch02.tif.gz,4,0.19,28.159679953058895,3.4922071591940096,NA
SH7_t017_ch02.tif.gz,4,0.2,28.159679953058895,3.4922071591940096,NA
SH7_t017_ch02.tif.gz,4,0.21,28.159679953058895,3.4922071591940096,NA
SH7_t017_ch02.tif.gz,4,0.22,28.159679953058895,3.4922071591940096,NA
SH7_t017_ch02.tif.gz,4,0.23,28.159679953058895,3.4922071591940096,NA
SH7_t017_ch02.tif.gz,4,0.24,28.159679953058895,3.4922071591940096,NA
SH7_t017_ch02.tif.gz,4,0.25,28.159679953058895,3.4922071591940096,NA
SH7_t017_ch02.tif.gz,4,0.26,28.159679953058895,3.4922071591940096,NA
SH7_t017_ch02.tif.gz,4,0.27,28.159679953058895,3.4922071591940096,NA
SH7_t017_ch02.tif.gz,5,0.28,28.636371019432673,2.846158416316159,NA
SH7_t017_ch02.tif.gz,6,0.29,28.886545598854404,3.2580260671552845,NA
SH7_t017_ch02.tif.gz,6,0.3,28.886545598854404,3.2580260671552845,NA
SH7_t017_ch02.tif.gz,6,0.31,28.886545598854404,3.2580260671552845,NA
SH7_t017_ch02.tif.gz,7,0.32,29.218744282631135,3.125413644583509,NA
SH7_t017_ch02.tif.gz,7,0.33,29.218744282631135,3.125413644583509,NA
SH7_t017_ch02.tif.gz,8,0.34,29.50363822384614,2.9326124271501324,NA
SH7_t017_ch02.tif.gz,8,0.35,29.50363822384614,2.9326124271501324,NA
SH7_t017_ch02.tif.gz,8,0.36,29.50363822384614,2.9326124271501324,NA
SH7_t017_ch02.tif.gz,8,0.37,29.50363822384614,2.9326124271501324,NA
SH7_t017_ch02.tif.gz,8,0.38,29.50363822384614,2.9326124271501324,NA
SH7_t017_ch02.tif.gz,9,0.39,29.513892998260562,4.196319209400952,NA
SH7_t017_ch02.tif.gz,9,0.4,29.513892998260562,4.196319209400952,NA
SH7_t017_ch02.tif.gz,9,0.41,29.513892998260562,4.196319209400952,NA
SH7_t017_ch02.tif.gz,9,0.42,29.513892998260562,4.196319209400952,NA
SH7_t017_ch02.tif.gz,9,0.43,29.513892998260562,4.196319209400952,NA
SH7_t017_ch02.tif.gz,9,0.44,29.513892998260562,4.196319209400952,NA
SH7_t017_ch02.tif.gz,10,0.45,30.03044397475556,2.8517932249310816,NA
SH7_t017_ch02.tif.gz,11,0.46,29.15114047304337,5.746046391186151,NA
SH7_t017_ch02.tif.gz,11,0.47,29.15114047304337,5.746046391186151,NA
SH7_t017_ch02.tif.gz,13,0.48,24.6326696139064,6.674641144606708,NA
SH7_t017_ch02.tif.gz,13,0.49,24.6326696139064,6.674641144606708,NA
SH7_t017_ch02.tif.gz,13,0.5,24.6326696139064,6.674641144606708,NA
SH7_t017_ch02.tif.gz,13,0.51,24.6326696139064,6.674641144606708,NA
SH7_t017_ch02.tif.gz,15,0.52,NA,NA,NA
SH7_t017_ch02.tif.gz,15,0.53,NA,NA,NA
SH7_t017_ch02.tif.gz,15,0.54,NA,NA,NA
SH7_t017_ch02.tif.gz,15,0.55,NA,NA,NA
SH7_t017_ch02.tif.gz,15,0.56,NA,NA,NA
SH7_t017_ch02.tif.gz,15,0.57,NA,NA,NA
SH7_t017_ch02.tif.gz,15,0.58,NA,NA,NA
SH7_t017_ch02.tif.gz,16,0.59,NA,NA,NA
SH8_t019_ch02.tif.gz,0,0.0,24.82759909919675,5.9088162939613555,NA
SH8_t019_ch02.tif.gz,0,0.01,24.82759909919675,5.9088162939613555,NA
SH8_t019_ch02.tif.gz,0,0.02,24.82759909919675,5.9088162939613555,NA
SH8_t019_ch02.tif.gz,0,0.03,24.82759909919675,5.9088162939613555,NA
SH8_t019_ch02.tif.gz,0,0.04,24.82759909919675,5.9088162939613555,NA
SH8_t019_ch02.tif.gz,0,0.05,24.82759909919675,5.9088162939613555,NA
SH8_t019_ch02.tif.gz,1,0.06,25.386352126317533,5.734994520182712,NA
SH8_t019_ch02.tif.gz,1,0.07,25.386352126317533,5.734994520182712,NA
SH8_t019_ch02.tif.gz,1,0.08,25.386352126317533,5.734994520182712,NA
SH8_t019_ch02.tif.gz,1,0.09,25.386352126317533,5.734994520182712,NA
SH8_t019_ch02.tif.gz,1,0.1,25.386352126317533,5.734994520182712,NA
SH8_t019_ch02.tif.gz,1,0.11,25.386352126317533,5.734994520182712,NA
SH8_t019_ch02.tif.gz,2,0.12,26.329848039306366,4.639598586953687,NA
SH8_t019_ch02.tif.gz,2,0.13,26.329848039306366,4.639598586953687,NA
SH8_t019_ch02.tif.gz,2,0.14,26.329848039306366,4.639598586953687,NA
SH8_t019_ch02.tif.gz,2,0.15,26.329848039306366,4.639598586953687,NA
SH8_t019_ch02.tif.gz,2,0.16,26.329848039306366,4.639598586953687,NA
SH8_t019_ch02.tif.gz,2,0.17,26.329848039306366,4.639598586953687,NA
SH8_t019_ch02.tif.gz,2,0.18,26.329848039306366,4.639598586953687,NA
SH8_t019_ch02.tif.gz,3,0.19,26.798305053371962,4.5366295805015096,NA
SH8_t019_ch02.tif.gz,4,0.2,27.36598386736883,4.307202618189344,NA
SH8_t019_ch02.tif.gz,4,0.21,27.36598386736883,4.307202618189344,NA
SH8_t019_ch02.tif.gz,4,0.22,27.36598386736883,4.307202618189344,NA
SH8_t019_ch02.tif.gz,5,0.23,27.681053901952065,4.807112943290183,NA
SH8_t019_ch02.tif.gz,5,0.24,27.681053901952065,4.807112943290183,NA
SH8_t019_ch02.tif.gz,5,0.25,27.681053901952065,4.807112943290183,NA
SH8_t019_ch02.tif.gz,5,0.26,27.681053901952065,4.807112943290183,NA
SH8_t019_ch02.tif.gz,5,0.27,27.681053901952065,4.807112943290183,NA
SH8_t019_ch02.tif.gz,6,0.28,28.299271455476664,4.67895360108651,NA
SH8_t019_ch02.tif.gz,7,0.29,29.07689160668909,3.98896870948986,NA
SH8_t019_ch02.tif.gz,8,0.3,30.13191726609446,1.6119744072970823,NA
SH8_t019_ch02.tif.gz,8,0.31,30.13191726609446,1.6119744072970823,NA
SH8_t019_ch02.tif.gz,8,0.32,30.13191726609446,1.6119744072970823,NA
SH8_t019_ch02.tif.gz,8,0.33,30.13191726609446,1.6119744072970823,NA
SH8_t019_ch02.tif.gz,8,0.34,30.13191726609446,1.6119744072970823,NA
SH8_t019_ch02.tif.gz,8,0.35,30.13191726609446,1.6119744072970823,NA
SH8_t019_ch02.tif.gz,8,0.36,30.13191726609446,1.6119744072970823,NA
SH8_t019_ch02.tif.gz,8,0.37,30.13191726609446,1.6119744072970823,NA
SH8_t019_ch02.tif.gz,8,0.38,30.13191726609446,1.6119744072970823,NA
SH8_t019_ch02.tif.gz,8,0.39,30.13191726609446,1.6119744072970823,NA
SH8_t019_ch02.tif.gz,8,0.4,30.13191726609446,1.6119744072970823,NA
SH8_t019_ch02.tif.gz,9,0.41,29.26502697617914,2.9361212972764856,NA
SH8_t019_ch02.tif.gz,9,0.42,29.26502697617914,2.9361212972764856,NA
SH8_t019_ch02.tif.gz,9,0.43,29.26502697617914,2.9361212972764856,NA
SH8_t019_ch02.tif.gz,10,0.44,29.661811791226786,3.105689933145863,NA
SH8_t019_ch02.tif.gz,10,0.45,29.661811791226786,3.105689933145863,NA
SH8_t019_ch02.tif.gz,10,0.46,29.661811791226786,3.105689933145863,NA
SH8_t019_ch02.tif.gz,11,0.47,27.655860885110815,5.272000712081866,NA
SH8_t019_ch02.tif.gz,13,0.48,22.236623722110654,8.143624973294623,NA
SH8_t019_ch02.tif.gz,13,0.49,22.236623722110654,8.143624973294623,NA
SH8_t019_ch02.tif.gz,13,0.5,22.236623722110654,8.143624973294623,NA
SH8_t019_ch02.tif.gz,14,0.51,NA,NA,NA
SH8_t019_ch02.tif.gz,15,0.52,NA,NA,NA
SH8_t019_ch02.tif.gz,15,0.53,NA,NA,NA
SH8_t019_ch02.tif.gz,15,0.54,NA,NA,NA
SH8_t019_ch02.tif.gz,15,0.55,NA,NA,NA
SH8_t019_ch02.tif.gz,15,0.56,NA,NA,NA
SH8_t019_ch02.tif.gz,15,0.57,NA,NA,NA
SH8_t019_ch02.tif.gz,16,0.58,NA,NA,NA
SH9_t024_ch02.tif.gz,0,0.0,24.927156857634596,5.985842522428218,NA
SH9_t024_ch02.tif.gz,0,0.01,24.927156857634596,5.985842522428218,NA
SH9_t024_ch02.tif.gz,0,0.02,24.927156857634596,5.985842522428218,NA
SH9_t024_ch02.tif.gz,0,0.03,24.927156857634596,5.985842522428218,NA
SH9_t024_ch02.tif.gz,1,0.04,25.505813321531317,5.7670317698626405,NA
SH9_t024_ch02.tif.gz,1,0.05,25.505813321531317,5.7670317698626405,NA
SH9_t024_ch02.tif.gz,1,0.06,25.505813321531317,5.7670317698626405,NA
SH9_t024_ch02.tif.gz,1,0.07,25.505813321531317,5.7670317698626405,NA
SH9_t024_ch02.tif.gz,1,0.08,25.505813321531317,5.7670317698626405,NA
SH9_t024_ch02.tif.gz,1,0.09,25.505813321531317,5.7670317698626405,NA
SH9_t024_ch02.tif.gz,1,0.1,25.505813321531317,5.7670317698626405,NA
SH9_t024_ch02.tif.gz,1,0.11,25.505813321531317,5.7670317698626405,NA
SH9_t024_ch02.tif.gz,1,0.12,25.505813321531317,5.7670317698626405,NA
SH9_t024_ch02.tif.gz,2,0.13,26.104401310947043,5.5810758585328,NA
SH9_t024_ch02.tif.gz,4,0.14,27.79840591966538,3.9210498142745687,NA
SH9_t024_ch02.tif.gz,4,0.15,27.79840591966538,3.9210498142745687,NA
SH9_t024_ch02.tif.gz,4,0.16,27.79840591966538,3.9210498142745687,NA
SH9_t024_ch02.tif.gz,4,0.17,27.79840591966538,3.9210498142745687,NA
SH9_t024_ch02.tif.gz,5,0.18,28.377049309196135,3.6676362141122327,NA
SH9_t024_ch02.tif.gz,5,0.19,28.377049309196135,3.6676362141122327,NA
SH9_t024_ch02.tif.gz,5,0.2,28.377049309196135,3.6676362141122327,NA
SH9_t024_ch02.tif.gz,5,0.21,28.377049309196135,3.6676362141122327,NA
SH9_t024_ch02.tif.gz,5,0.22,28.377049309196135,3.6676362141122327,NA
SH9_t024_ch02.tif.gz,5,0.23,28.377049309196135,3.6676362141122327,NA
SH9_t024_ch02.tif.gz,5,0.24,28.377049309196135,3.6676362141122327,NA
SH9_t024_ch02.tif.gz,5,0.25,28.377049309196135,3.6676362141122327,NA
SH9_t024_ch02.tif.gz,5,0.26,28.377049309196135,3.6676362141122327,NA
SH9_t024_ch02.tif.gz,5,0.27,28.377049309196135,3.6676362141122327,NA
SH9_t024_ch02.tif.gz,6,0.28,28.912410045724357,3.2416171145952504,NA
SH9_t024_ch02.tif.gz,6,0.29,28.912410045724357,3.2416171145952504,NA
SH9_t024_ch02.tif.gz,6,0.3,28.912410045724357,3.2416171145952504,NA
SH9_t024_ch02.tif.gz,6,0.31,28.912410045724357,3.2416171145952504,NA
SH9_t024_ch02.tif.gz,6,0.32,28.912410045724357,3.2416171145952504,NA
SH9_t024_ch02.tif.gz,6,0.33,28.912410045724357,3.2416171145952504,NA
SH9_t024_ch02.tif.gz,6,0.34,28.912410045724357,3.2416171145952504,NA
SH9_t024_ch02.tif.gz,6,0.35,28.912410045724357,3.2416171145952504,NA
SH9_t024_ch02.tif.gz,7,0.36,28.932121526008515,4.116022672866881,NA
SH9_t024_ch02.tif.gz,7,0.37,28.932121526008515,4.116022672866881,NA
SH9_t024_ch02.tif.gz,8,0.38,29.796513060319917,2.5751765784905607,NA
SH9_t024_ch02.tif.gz,9,0.39,29.604834008369274,4.12975605214756,NA
SH9_t024_ch02.tif.gz,9,0.4,29.604834008369274,4.12975605214756,NA
SH9_t024_ch02.tif.gz,9,0.41,29.604834008369274,4.12975605214756,NA
SH9_t024_ch02.tif.gz,9,0.42,29.604834008369274,4.12975605214756,NA
SH9_t024_ch02.tif.gz,9,0.43,29.604834008369274,4.12975605214756,NA
SH9_t024_ch02.tif.gz,11,0.44,28.09013652404742,4.111900321028586,NA
SH9_t024_ch02.tif.gz,12,0.45,25.53092738856609,5.309503507189178,NA
SH9_t024_ch02.tif.gz,12,0.46,25.53092738856609,5.309503507189178,NA
SH9_t024_ch02.tif.gz,12,0.47,25.53092738856609,5.309503507189178,NA
SH9_t024_ch02.tif.gz,12,0.48,25.53092738856609,5.309503507189178,NA
SH9_t024_ch02.tif.gz,14,0.49,NA,NA,NA
SH9_t024_ch02.tif.gz,14,0.5,NA,NA,NA
SH9_t024_ch02.tif.gz,14,0.51,NA,NA,NA
SH9_t024_ch02.tif.gz,14,0.52,NA,NA,NA
SH9_t024_ch02.tif.gz,15,0.53,NA,NA,NA
SH9_t024_ch02.tif.gz,15,0.54,NA,NA,NA
SH9_t024_ch02.tif.gz,15,0.55,NA,NA,NA
SH9_t024_ch02.tif.gz,16,0.56,NA,NA,NA
SH10_t016_ch02.tif.gz,0,0.0,26.014916092047784,6.394532962103509,NA
SH10_t016_ch02.tif.gz,0,0.01,26.014916092047784,6.394532962103509,NA
SH10_t016_ch02.tif.gz,0,0.02,26.014916092047784,6.394532962103509,NA
SH10_t016_ch02.tif.gz,0,0.03,26.014916092047784,6.394532962103509,NA
SH10_t016_ch02.tif.gz,0,0.04,26.014916092047784,6.394532962103509,NA
SH10_t016_ch02.tif.gz,0,0.05,26.014916092047784,6.394532962103509,NA
SH10_t016_ch02.tif.gz,0,0.06,26.014916092047784,6.394532962103509,NA
SH10_t016_ch02.tif.gz,0,0.07,26.014916092047784,6.394532962103509,NA
SH10_t016_ch02.tif.gz,0,0.08,26.014916092047784,6.394532962103509,NA
SH10_t016_ch02.tif.gz,0,0.09,26.014916092047784,6.394532962103509,NA
SH10_t016_ch02.tif.gz,0,0.1,26.014916092047784,6.394532962103509,NA
SH10_t016_ch02.tif.gz,0,0.11,26.014916092047784,6.394532962103509,NA
SH10_t016_ch02.tif.gz,0,0.12,26.014916092047784,6.394532962103509,NA
SH10_t016_ch02.tif.gz,1,0.13,26.420666372410953,6.4289961717377055,NA
SH10_t016_ch02.tif.gz,1,0.14,26.420666372410953,6.4289961717377055,NA
SH10_t016_ch02.tif.gz,1,0.15,26.420666372410953,6.4289961717377055,NA
SH10_t016_ch02.tif.gz,1,0.16,26.420666372410953,6.4289961717377055,NA
SH10_t016_ch02.tif.gz,1,0.17,26.420666372410953,6.4289961717377055,NA
SH10_t016_ch02.tif.gz,1,0.18,26.420666372410953,6.4289961717377055,NA
SH10_t016_ch02.tif.gz,1,0.19,26.420666372410953,6.4289961717377055,NA
SH10_t016_ch02.tif.gz,2,0.2,27.308327815807207,5.74371043367551,NA
SH10_t016_ch02.tif.gz,3,0.21,27.855642372775623,5.654909889398613,NA
SH10_t016_ch02.tif.gz,3,0.22,27.855642372775623,5.654909889398613,NA
SH10_t016_ch02.tif.gz,3,0.23,27.855642372775623,5.654909889398613,NA
SH10_t016_ch02.tif.gz,3,0.24,27.855642372775623,5.654909889398613,NA
SH10_t016_ch02.tif.gz,3,0.25,27.855642372775623,5.654909889398613,NA
SH10_t016_ch02.tif.gz,4,0.26,28.356124969483872,5.809332490367803,NA
SH10_t016_ch02.tif.gz,4,0.27,28.356124969483872,5.809332490367803,NA
SH10_t016_ch02.tif.gz,5,0.28,29.091803500608396,4.992311858374357,NA
SH10_t016_ch02.tif.gz,6,0.29,29.986538616343314,4.315281111833596,NA
SH10_t016_ch02.tif.gz,6,0.3,29.986538616343314,4.315281111833596,NA
SH10_t016_ch02.tif.gz,7,0.31,30.808803125793517,3.5696360494063213,NA
SH10_t016_ch02.tif.gz,7,0.32,30.808803125793517,3.5696360494063213,NA
SH10_t016_ch02.tif.gz,7,0.33,30.808803125793517,3.5696360494063213,NA
SH10_t016_ch02.tif.gz,7,0.34,30.808803125793517,3.5696360494063213,NA
SH10_t016_ch02.tif.gz,7,0.35,30.808803125793517,3.5696360494063213,NA
SH10_t016_ch02.tif.gz,8,0.36,30.939827560248947,4.895674050777478,NA
SH10_t016_ch02.tif.gz,9,0.37,31.831694103068134,2.8862718448326063,NA
SH10_t016_ch02.tif.gz,9,0.38,31.831694103068134,2.8862718448326063,NA
SH10_t016_ch02.tif.gz,9,0.39,31.831694103068134,2.8862718448326063,NA
SH10_t016_ch02.tif.gz,9,0.4,31.831694103068134,2.8862718448326063,NA
SH10_t016_ch02.tif.gz,10,0.41,32.19690348357246,3.1452024385264723,NA
SH10_t016_ch02.tif.gz,10,0.42,32.19690348357246,3.1452024385264723,NA
SH10_t016_ch02.tif.gz,11,0.43,32.20560861917625,4.00790670860569,NA
SH10_t016_ch02.tif.gz,11,0.44,32.20560861917625,4.00790670860569,NA
SH10_t016_ch02.tif.gz,11,0.45,32.20560861917625,4.00790670860569,NA
SH10_t016_ch02.tif.gz,12,0.46,31.42007185052396,3.250159086246855,NA
SH10_t016_ch02.tif.gz,12,0.47,31.42007185052396,3.250159086246855,NA
SH10_t016_ch02.tif.gz,12,0.48,31.42007185052396,3.250159086246855,NA
SH10_t016_ch02.tif.gz,12,0.49,31.42007185052396,3.250159086246855,NA
SH10_t016_ch02.tif.gz,13,0.5,29.863850041876177,1.6122426408883692,NA
SH10_t016_ch02.tif.gz,13,0.51,29.863850041876177,1.6122426408883692,NA
SH10_t016_ch02.tif.gz,14,0.52,NA,NA,NA
SH10_t016_ch02.tif.gz,14,0.53,NA,NA,NA
SH10_t016_ch02.tif.gz,14,0.54,NA,NA,NA
SH10_t016_ch02.tif.gz,14,0.55,NA,NA,NA
SH10_t016_ch02.tif.gz,14,0.56,NA,NA,NA
SH10_t016_ch02.tif.gz,14,0.57,NA,NA,NA
SH10_t016_ch02.tif.gz,14,0.58,NA,NA,NA
SH10_t016_ch02.tif.gz,15,0.59,NA,NA,NA
SH10_t016_ch02.tif.gz,15,0.6,NA,NA,NA
SH10_t016_ch02.tif.gz,15,0.61,NA,NA,NA
SH10_t016_ch02.tif.gz,16,0.62,NA,NA,NA
SH12_t021_ch02.tif.gz,0,0.0,24.629500862166907,5.216972273986202,NA
SH12_t021_ch02.tif.gz,0,0.01,24.629500862166907,5.216972273986202,NA
SH12_t021_ch02.tif.gz,0,0.02,24.629500862166907,5.216972273986202,NA
SH12_t021_ch02.tif.gz,0,0.03,24.629500862166907,5.216972273986202,NA
SH12_t021_ch02.tif.gz,0,0.04,24.629500862166907,5.216972273986202,NA
SH12_t021_ch02.tif.gz,0,0.05,24.629500862166907,5.216972273986202,NA
SH12_t021_ch02.tif.gz,0,0.06,24.629500862166907,5.216972273986202,NA
SH12_t021_ch02.tif.gz,1,0.07,25.433785701260906,4.365175650046407,NA
SH12_t021_ch02.tif.gz,2,0.08,26.18077202948464,3.4013204813898046,NA
SH12_t021_ch02.tif.gz,2,0.09,26.18077202948464,3.4013204813898046,NA
SH12_t021_ch02.tif.gz,2,0.1,26.18077202948464,3.4013204813898046,NA
SH12_t021_ch02.tif.gz,2,0.11,26.18077202948464,3.4013204813898046,NA
SH12_t021_ch02.tif.gz,2,0.12,26.18077202948464,3.4013204813898046,NA
SH12_t021_ch02.tif.gz,2,0.13,26.18077202948464,3.4013204813898046,NA
SH12_t021_ch02.tif.gz,3,0.14,26.780811143592352,2.70651809218051,NA
SH12_t021_ch02.tif.gz,3,0.15,26.780811143592352,2.70651809218051,NA
SH12_t021_ch02.tif.gz,3,0.16,26.780811143592352,2.70651809218051,NA
SH12_t021_ch02.tif.gz,3,0.17,26.780811143592352,2.70651809218051,NA
SH12_t021_ch02.tif.gz,3,0.18,26.780811143592352,2.70651809218051,NA
SH12_t021_ch02.tif.gz,3,0.19,26.780811143592352,2.70651809218051,NA
SH12_t021_ch02.tif.gz,3,0.2,26.780811143592352,2.70651809218051,NA
SH12_t021_ch02.tif.gz,3,0.21,26.780811143592352,2.70651809218051,NA
SH12_t021_ch02.tif.gz,4,0.22,26.946289617766585,2.8669340793670637,NA
SH12_t021_ch02.tif.gz,4,0.23,26.946289617766585,2.8669340793670637,NA
SH12_t021_ch02.tif.gz,4,0.24,26.946289617766585,2.8669340793670637,NA
SH12_t021_ch02.tif.gz,4,0.25,26.946289617766585,2.8669340793670637,NA
SH12_t021_ch02.tif.gz,4,0.26,26.946289617766585,2.8669340793670637,NA
SH12_t021_ch02.tif.gz,4,0.27,26.946289617766585,2.8669340793670637,NA
SH12_t021_ch02.tif.gz,4,0.28,26.946289617766585,2.8669340793670637,NA
SH12_t021_ch02.tif.gz,5,0.29,27.033950295054918,3.228117658977875,NA
SH12_t021_ch02.tif.gz,7,0.3,27.523246607344213,3.385937612044748,NA
SH12_t021_ch02.tif.gz,7,0.31,27.523246607344213,3.385937612044748,NA
SH12_t021_ch02.tif.gz,7,0.32,27.523246607344213,3.385937612044748,NA
SH12_t021_ch02.tif.gz,8,0.33,27.879007363710954,3.3114818817489504,NA
SH12_t021_ch02.tif.gz,9,0.34,28.49865304487924,2.9123255678251594,NA
SH12_t021_ch02.tif.gz,10,0.35,27.213497486137317,4.9230029042243615,NA
SH12_t021_ch02.tif.gz,10,0.36,27.213497486137317,4.9230029042243615,NA
SH12_t021_ch02.tif.gz,10,0.37,27.213497486137317,4.9230029042243615,NA
SH12_t021_ch02.tif.gz,10,0.38,27.213497486137317,4.9230029042243615,NA
SH12_t021_ch02.tif.gz,11,0.39,28.776560686652903,2.939153080700039,NA
SH12_t021_ch02.tif.gz,11,0.4,28.776560686652903,2.939153080700039,NA
SH12_t021_ch02.tif.gz,11,0.41,28.776560686652903,2.939153080700039,NA
SH12_t021_ch02.tif.gz,11,0.42,28.776560686652903,2.939153080700039,NA
SH12_t021_ch02.tif.gz,11,0.43,28.776560686652903,2.939153080700039,NA
SH12_t021_ch02.tif.gz,11,0.44,28.776560686652903,2.939153080700039,NA
SH12_t021_ch02.tif.gz,13,0.45,27.600098320898486,5.261807893942325,NA
SH12_t021_ch02.tif.gz,13,0.46,27.600098320898486,5.261807893942325,NA
SH12_t021_ch02.tif.gz,13,0.47,27.600098320898486,5.261807893942325,NA
SH12_t021_ch02.tif.gz,13,0.48,27.600098320898486,5.261807893942325,NA
SH12_t021_ch02.tif.gz,14,0.49,NA,NA,NA
SH12_t021_ch02.tif.gz,14,0.5,NA,NA,NA
SH12_t021_ch02.tif.gz,15,0.51,NA,NA,NA
SH12_t021_ch02.tif.gz,15,0.52,NA,NA,NA
SH12_t021_ch02.tif.gz,15,0.53,NA,NA,NA
SH12_t021_ch02.tif.gz,16,0.54,NA,NA,NA
SI2_t017_ch02.tif.gz,0,0.0,24.56241405058352,6.409562757499129,NA
SI2_t017_ch02.tif.gz,0,0.01,24.56241405058352,6.409562757499129,NA
SI2_t017_ch02.tif.gz,0,0.02,24.56241405058352,6.409562757499129,NA
SI2_t017_ch02.tif.gz,0,0.03,24.56241405058352,6.409562757499129,NA
SI2_t017_ch02.tif.gz,0,0.04,24.56241405058352,6.409562757499129,NA
SI2_t017_ch02.tif.gz,0,0.05,24.56241405058352,6.409562757499129,NA
SI2_t017_ch02.tif.gz,2,0.06,25.83735182963588,5.826643361827889,NA
SI2_t017_ch02.tif.gz,3,0.07,26.62959548135546,5.277534463018404,NA
SI2_t017_ch02.tif.gz,3,0.08,26.62959548135546,5.277534463018404,NA
SI2_t017_ch02.tif.gz,3,0.09,26.62959548135546,5.277534463018404,NA
SI2_t017_ch02.tif.gz,4,0.1,27.066982334285694,5.458205241312082,NA
SI2_t017_ch02.tif.gz,4,0.11,27.066982334285694,5.458205241312082,NA
SI2_t017_ch02.tif.gz,4,0.12,27.066982334285694,5.458205241312082,NA
SI2_t017_ch02.tif.gz,4,0.13,27.066982334285694,5.458205241312082,NA
SI2_t017_ch02.tif.gz,4,0.14,27.066982334285694,5.458205241312082,NA
SI2_t017_ch02.tif.gz,4,0.15,27.066982334285694,5.458205241312082,NA
SI2_t017_ch02.tif.gz,4,0.16,27.066982334285694,5.458205241312082,NA
SI2_t017_ch02.tif.gz,4,0.17,27.066982334285694,5.458205241312082,NA
SI2_t017_ch02.tif.gz,4,0.18,27.066982334285694,5.458205241312082,NA
SI2_t017_ch02.tif.gz,4,0.19,27.066982334285694,5.458205241312082,NA
SI2_t017_ch02.tif.gz,4,0.2,27.066982334285694,5.458205241312082,NA
SI2_t017_ch02.tif.gz,5,0.21,27.50461425482968,5.500469561845475,NA
SI2_t017_ch02.tif.gz,5,0.22,27.50461425482968,5.500469561845475,NA
SI2_t017_ch02.tif.gz,5,0.23,27.50461425482968,5.500469561845475,NA
SI2_t017_ch02.tif.gz,6,0.24,28.648921676654574,4.145178228763302,NA
SI2_t017_ch02.tif.gz,7,0.25,29.341077615260573,3.7202494577975416,NA
SI2_t017_ch02.tif.gz,7,0.26,29.341077615260573,3.7202494577975416,NA
SI2_t017_ch02.tif.gz,8,0.27,29.91261664928225,4.058190964284197,NA
SI2_t017_ch02.tif.gz,8,0.28,29.91261664928225,4.058190964284197,NA
SI2_t017_ch02.tif.gz,8,0.29,29.91261664928225,4.058190964284197,NA
SI2_t017_ch02.tif.gz,8,0.3,29.91261664928225,4.058190964284197,NA
SI2_t017_ch02.tif.gz,8,0.31,29.91261664928225,4.058190964284197,NA
SI2_t017_ch02.tif.gz,8,0.32,29.91261664928225,4.058190964284197,NA
SI2_t017_ch02.tif.gz,8,0.33,29.91261664928225,4.058190964284197,NA
SI2_t017_ch02.tif.gz,8,0.34,29.91261664928225,4.058190964284197,NA
SI2_t017_ch02.tif.gz,8,0.35,29.91261664928225,4.058190964284197,NA
SI2_t017_ch02.tif.gz,8,0.36,29.91261664928225,4.058190964284197,NA
SI2_t017_ch02.tif.gz,8,0.37,29.91261664928225,4.058190964284197,NA
SI2_t017_ch02.tif.gz,9,0.38,29.85448496659175,5.067497401265399,NA
SI2_t017_ch02.tif.gz,9,0.39,29.85448496659175,5.067497401265399,NA
SI2_t017_ch02.tif.gz,9,0.4,29.85448496659175,5.067497401265399,NA
SI2_t017_ch02.tif.gz,9,0.41,29.85448496659175,5.067497401265399,NA
SI2_t017_ch02.tif.gz,9,0.42,29.85448496659175,5.067497401265399,NA
SI2_t017_ch02.tif.gz,9,0.43,29.85448496659175,5.067497401265399,NA
SI2_t017_ch02.tif.gz,10,0.44,29.119323181182114,5.187601906077907,NA
SI2_t017_ch02.tif.gz,10,0.45,29.119323181182114,5.187601906077907,NA
SI2_t017_ch02.tif.gz,10,0.46,29.119323181182114,5.187601906077907,NA
SI2_t017_ch02.tif.gz,11,0.47,27.12690440108357,7.284606650664323,NA
SI2_t017_ch02.tif.gz,11,0.48,27.12690440108357,7.284606650664323,NA
SI2_t017_ch02.tif.gz,11,0.49,27.12690440108357,7.284606650664323,NA
SI2_t017_ch02.tif.gz,11,0.5,27.12690440108357,7.284606650664323,NA
SI2_t017_ch02.tif.gz,11,0.51,27.12690440108357,7.284606650664323,NA
SI2_t017_ch02.tif.gz,13,0.52,27.81145846502048,6.829138821461656,NA
SI2_t017_ch02.tif.gz,13,0.53,27.81145846502048,6.829138821461656,NA
SI2_t017_ch02.tif.gz,14,0.54,NA,NA,NA
SI2_t017_ch02.tif.gz,14,0.55,NA,NA,NA
SI2_t017_ch02.tif.gz,14,0.56,NA,NA,NA
SI2_t017_ch02.tif.gz,15,0.57,NA,NA,NA
SI2_t017_ch02.tif.gz,16,0.58,NA,NA,NA
SI3_t019_ch02.tif.gz,0,0.0,25.200162179190777,4.884099890471715,NA
SI3_t019_ch02.tif.gz,0,0.01,25.200162179190777,4.884099890471715,NA
SI3_t019_ch02.tif.gz,0,0.02,25.200162179190777,4.884099890471715,NA
SI3_t019_ch02.tif.gz,0,0.03,25.200162179190777,4.884099890471715,NA
SI3_t019_ch02.tif.gz,0,0.04,25.200162179190777,4.884099890471715,NA
SI3_t019_ch02.tif.gz,0,0.05,25.200162179190777,4.884099890471715,NA
SI3_t019_ch02.tif.gz,0,0.06,25.200162179190777,4.884099890471715,NA
SI3_t019_ch02.tif.gz,0,0.07,25.200162179190777,4.884099890471715,NA
SI3_t019_ch02.tif.gz,0,0.08,25.200162179190777,4.884099890471715,NA
SI3_t019_ch02.tif.gz,0,0.09,25.200162179190777,4.884099890471715,NA
SI3_t019_ch02.tif.gz,0,0.1,25.200162179190777,4.884099890471715,NA
SI3_t019_ch02.tif.gz,1,0.11,25.70313184424755,4.659400310493246,NA
SI3_t019_ch02.tif.gz,1,0.12,25.70313184424755,4.659400310493246,NA
SI3_t019_ch02.tif.gz,1,0.13,25.70313184424755,4.659400310493246,NA
SI3_t019_ch02.tif.gz,1,0.14,25.70313184424755,4.659400310493246,NA
SI3_t019_ch02.tif.gz,1,0.15,25.70313184424755,4.659400310493246,NA
SI3_t019_ch02.tif.gz,1,0.16,25.70313184424755,4.659400310493246,NA
SI3_t019_ch02.tif.gz,1,0.17,25.70313184424755,4.659400310493246,NA
SI3_t019_ch02.tif.gz,1,0.18,25.70313184424755,4.659400310493246,NA
SI3_t019_ch02.tif.gz,1,0.19,25.70313184424755,4.659400310493246,NA
SI3_t019_ch02.tif.gz,1,0.2,25.70313184424755,4.659400310493246,NA
SI3_t019_ch02.tif.gz,2,0.21,25.94067331800232,4.888967895077276,NA
SI3_t019_ch02.tif.gz,3,0.22,26.308708974175946,4.967386424283509,NA
SI3_t019_ch02.tif.gz,4,0.23,26.622269844027613,5.221468323169612,NA
SI3_t019_ch02.tif.gz,7,0.24,28.805974037439366,3.7204212801013483,NA
SI3_t019_ch02.tif.gz,7,0.25,28.805974037439366,3.7204212801013483,NA
SI3_t019_ch02.tif.gz,7,0.26,28.805974037439366,3.7204212801013483,NA
SI3_t019_ch02.tif.gz,7,0.27,28.805974037439366,3.7204212801013483,NA
SI3_t019_ch02.tif.gz,7,0.28,28.805974037439366,3.7204212801013483,NA
SI3_t019_ch02.tif.gz,7,0.29,28.805974037439366,3.7204212801013483,NA
SI3_t019_ch02.tif.gz,7,0.3,28.805974037439366,3.7204212801013483,NA
SI3_t019_ch02.tif.gz,8,0.31,29.656888225141383,2.4709429683341106,NA
SI3_t019_ch02.tif.gz,8,0.32,29.656888225141383,2.4709429683341106,NA
SI3_t019_ch02.tif.gz,8,0.33,29.656888225141383,2.4709429683341106,NA
SI3_t019_ch02.tif.gz,8,0.34,29.656888225141383,2.4709429683341106,NA
SI3_t019_ch02.tif.gz,8,0.35,29.656888225141383,2.4709429683341106,NA
SI3_t019_ch02.tif.gz,9,0.36,29.852365179280973,2.4571983806068247,NA
SI3_t019_ch02.tif.gz,9,0.37,29.852365179280973,2.4571983806068247,NA
SI3_t019_ch02.tif.gz,9,0.38,29.852365179280973,2.4571983806068247,NA
SI3_t019_ch02.tif.gz,9,0.39,29.852365179280973,2.4571983806068247,NA
SI3_t019_ch02.tif.gz,9,0.4,29.852365179280973,2.4571983806068247,NA
SI3_t019_ch02.tif.gz,9,0.41,29.852365179280973,2.4571983806068247,NA
SI3_t019_ch02.tif.gz,9,0.42,29.852365179280973,2.4571983806068247,NA
SI3_t019_ch02.tif.gz,10,0.43,29.81732252499786,2.634092244348267,NA
SI3_t019_ch02.tif.gz,11,0.44,30.468095596267837,1.633416733499517,NA
SI3_t019_ch02.tif.gz,12,0.45,29.29141880929688,5.458908432124705,NA
SI3_t019_ch02.tif.gz,14,0.46,NA,NA,NA
SI3_t019_ch02.tif.gz,14,0.47,NA,NA,NA
SI3_t019_ch02.tif.gz,14,0.48,NA,NA,NA
SI3_t019_ch02.tif.gz,14,0.49,NA,NA,NA
SI3_t019_ch02.tif.gz,14,0.5,NA,NA,NA
SI3_t019_ch02.tif.gz,14,0.51,NA,NA,NA
SI3_t019_ch02.tif.gz,14,0.52,NA,NA,NA
SI3_t019_ch02.tif.gz,14,0.53,NA,NA,NA
SI3_t019_ch02.tif.gz,14,0.54,NA,NA,NA
SI3_t019_ch02.tif.gz,14,0.55,NA,NA,NA
SI3_t019_ch02.tif.gz,16,0.56,NA,NA,NA
SI4_t015_ch02.tif.gz,0,0.0,25.2363489665712,5.936142138378187,NA
SI4_t015_ch02.tif.gz,0,0.01,25.2363489665712,5.936142138378187,NA
SI4_t015_ch02.tif.gz,0,0.02,25.2363489665712,5.936142138378187,NA
SI4_t015_ch02.tif.gz,0,0.03,25.2363489665712,5.936142138378187,NA
SI4_t015_ch02.tif.gz,0,0.04,25.2363489665712,5.936142138378187,NA
SI4_t015_ch02.tif.gz,0,0.05,25.2363489665712,5.936142138378187,NA
SI4_t015_ch02.tif.gz,0,0.06,25.2363489665712,5.936142138378187,NA
SI4_t015_ch02.tif.gz,0,0.07,25.2363489665712,5.936142138378187,NA
SI4_t015_ch02.tif.gz,0,0.08,25.2363489665712,5.936142138378187,NA
SI4_t015_ch02.tif.gz,0,0.09,25.2363489665712,5.936142138378187,NA
SI4_t015_ch02.tif.gz,0,0.1,25.2363489665712,5.936142138378187,NA
SI4_t015_ch02.tif.gz,0,0.11,25.2363489665712,5.936142138378187,NA
SI4_t015_ch02.tif.gz,0,0.12,25.2363489665712,5.936142138378187,NA
SI4_t015_ch02.tif.gz,0,0.13,25.2363489665712,5.936142138378187,NA
SI4_t015_ch02.tif.gz,0,0.14,25.2363489665712,5.936142138378187,NA
SI4_t015_ch02.tif.gz,2,0.15,26.344654016446572,5.607496288177201,NA
SI4_t015_ch02.tif.gz,3,0.16,26.93878592345087,5.499292880434771,NA
SI4_t015_ch02.tif.gz,3,0.17,26.93878592345087,5.499292880434771,NA
SI4_t015_ch02.tif.gz,3,0.18,26.93878592345087,5.499292880434771,NA
SI4_t015_ch02.tif.gz,4,0.19,27.908859916379132,4.386431659171397,NA
SI4_t015_ch02.tif.gz,4,0.2,27.908859916379132,4.386431659171397,NA
SI4_t015_ch02.tif.gz,5,0.21,28.729153061877124,3.3595336313778223,NA
SI4_t015_ch02.tif.gz,5,0.22,28.729153061877124,3.3595336313778223,NA
SI4_t015_ch02.tif.gz,5,0.23,28.729153061877124,3.3595336313778223,NA
SI4_t015_ch02.tif.gz,5,0.24,28.729153061877124,3.3595336313778223,NA
SI4_t015_ch02.tif.gz,5,0.25,28.729153061877124,3.3595336313778223,NA
SI4_t015_ch02.tif.gz,5,0.26,28.729153061877124,3.3595336313778223,NA
SI4_t015_ch02.tif.gz,5,0.27,28.729153061877124,3.3595336313778223,NA
SI4_t015_ch02.tif.gz,5,0.28,28.729153061877124,3.3595336313778223,NA
SI4_t015_ch02.tif.gz,5,0.29,28.729153061877124,3.3595336313778223,NA
SI4_t015_ch02.tif.gz,5,0.3,28.729153061877124,3.3595336313778223,NA
SI4_t015_ch02.tif.gz,5,0.31,28.729153061877124,3.3595336313778223,NA
SI4_t015_ch02.tif.gz,6,0.32,29.302746304285797,3.179743749486778,NA
SI4_t015_ch02.tif.gz,6,0.33,29.302746304285797,3.179743749486778,NA
SI4_t015_ch02.tif.gz,7,0.34,30.04533110293682,1.9564550622927752,NA
SI4_t015_ch02.tif.gz,7,0.35,30.04533110293682,1.9564550622927752,NA
SI4_t015_ch02.tif.gz,7,0.36,30.04533110293682,1.9564550622927752,NA
SI4_t015_ch02.tif.gz,8,0.37,30.36306168589023,1.452367515772849,NA
SI4_t015_ch02.tif.gz,8,0.38,30.36306168589023,1.452367515772849,NA
SI4_t015_ch02.tif.gz,8,0.39,30.36306168589023,1.452367515772849,NA
SI4_t015_ch02.tif.gz,8,0.4,30.36306168589023,1.452367515772849,NA
SI4_t015_ch02.tif.gz,8,0.41,30.36306168589023,1.452367515772849,NA
SI4_t015_ch02.tif.gz,9,0.42,30.331493003016778,2.2880360173815597,NA
SI4_t015_ch02.tif.gz,9,0.43,30.331493003016778,2.2880360173815597,NA
SI4_t015_ch02.tif.gz,9,0.44,30.331493003016778,2.2880360173815597,NA
SI4_t015_ch02.tif.gz,11,0.45,29.315544934630157,4.8662394700685345,NA
SI4_t015_ch02.tif.gz,12,0.46,30.161621643112245,2.0185811851470024,NA
SI4_t015_ch02.tif.gz,13,0.47,26.63868406193012,5.458583704678703,NA
SI4_t015_ch02.tif.gz,13,0.48,26.63868406193012,5.458583704678703,NA
SI4_t015_ch02.tif.gz,14,0.49,NA,NA,NA
SI4_t015_ch02.tif.gz,14,0.5,NA,NA,NA
SI4_t015_ch02.tif.gz,15,0.51,NA,NA,NA
SI4_t015_ch02.tif.gz,16,0.52,NA,NA,NA
