name,inner.count,inner.threshold,outer.mean,outer.sd,rbb.best
C1_t040_ch01.tif.gz,0,0.0,24.593038679707067,5.502092926912597,cs1
C1_t041_ch01.tif.gz,0,0.0,24.724728230045198,5.062946831953619,cs1
C1_t042_ch01.tif.gz,0,0.0,24.893367569203974,4.899554233189822,cs4
C1_t043_ch01.tif.gz,0,0.0,24.994822339728927,4.835369258524762,cs4
C1_t044_ch01.tif.gz,0,0.0,24.923438419623945,4.994485990630932,cs4
C1_t045_ch01.tif.gz,0,0.0,24.948845749089877,5.025967035194681,cs4
C1_t046_ch01.tif.gz,0,0.0,24.954823467500777,5.017979955214582,cs4
C1_t047_ch01.tif.gz,0,0.0,24.88191250167554,5.1843376560792604,cs4
C1_t048_ch01.tif.gz,0,0.0,24.917154590751764,5.303061522725543,cs4
C1_t049_ch01.tif.gz,0,0.0,24.910951415849503,5.282976624390621,cs1
C1_t050_ch01.tif.gz,0,0.0,24.852443303932546,5.340977648822164,cs4
C1_t051_ch01.tif.gz,0,0.0,24.904557971735983,5.416795128428762,cs1
C1_t052_ch01.tif.gz,0,0.0,24.912676015866673,5.4725887767565125,cs1
C1_t053_ch01.tif.gz,0,0.0,24.765216986748065,5.521822141491659,cs1
C1_t054_ch01.tif.gz,0,0.0,24.797973204595557,5.293884718841067,cs1
C1_t055_ch01.tif.gz,0,0.0,24.83553529620765,5.143559415929232,cs1
C1_t056_ch01.tif.gz,0,0.0,24.77642837099232,4.971675801734794,cs1
C1_t057_ch01.tif.gz,0,0.0,24.758002503037616,4.897759313437573,cs1
C1_t058_ch01.tif.gz,0,0.0,24.67174043648628,4.782871686989461,cs1
C1_t059_ch01.tif.gz,0,0.0,24.63853815172303,4.616271755673153,cs1
C1_t060_ch01.tif.gz,0,0.0,24.573407967819506,4.353247670445109,cs1
C1_t061_ch01.tif.gz,0,0.0,24.48390460748806,4.277617993396409,cs1
C1_t062_ch01.tif.gz,0,0.0,24.40954603441903,4.048196409831641,cs1
C1_t063_ch01.tif.gz,0,0.0,24.378757740985705,3.792513206170602,cs1
C1_t064_ch01.tif.gz,0,0.0,24.335295329631947,3.496386360514496,cs1
C1_t065_ch01.tif.gz,0,0.0,24.259701478590173,3.3732818619253497,cs1
C1_t066_ch01.tif.gz,0,0.0,24.232827262983804,3.4044937237762163,cs1
C1_t067_ch01.tif.gz,0,0.0,24.134328576110967,3.254288877800843,cs1
C1_t068_ch01.tif.gz,0,0.0,24.036118595329825,3.2005722377930272,cs1
C1_t069_ch01.tif.gz,0,0.0,23.914876637344495,3.1715586253214507,cs1
C1_t070_ch01.tif.gz,0,0.0,23.8870387819171,2.73722491179382,cs2
C1_t071_ch01.tif.gz,0,0.0,24.018716579594102,2.8352534233954985,cs2
C1_t072_ch01.tif.gz,0,0.0,24.30270344165332,3.134038720781802,cs1
C1_t073_ch01.tif.gz,0,0.0,24.284252368222177,3.4009691247481624,cs1
C2_t038_ch01.tif.gz,0,0.0,24.223350425443556,4.8652079787939355,NR
C2_t039_ch01.tif.gz,0,0.0,24.22654032774796,4.113482567889569,cs5
C2_t040_ch01.tif.gz,0,0.0,24.210557198331973,3.6165302970553053,cs5
C2_t041_ch01.tif.gz,0,0.0,24.224771918043224,3.37082445381658,cs2
C2_t042_ch01.tif.gz,0,0.0,24.212859247311645,3.228329208262893,cs2
C2_t043_ch01.tif.gz,0,0.0,24.23103774234526,3.244654539372555,cs2
C2_t044_ch01.tif.gz,0,0.0,24.190696307307054,3.06668417932633,cs2
C2_t045_ch01.tif.gz,0,0.0,24.19956168001761,3.08391783402805,cs2
C2_t046_ch01.tif.gz,0,0.0,24.208812467189887,3.0202937391154334,cs2
C2_t047_ch01.tif.gz,0,0.0,24.184442652286258,2.958756143382738,cs2
C2_t048_ch01.tif.gz,0,0.0,24.181795797903824,2.8980307391639224,d2d
C2_t049_ch01.tif.gz,0,0.0,24.157140141148236,2.943575499730496,d2d
C2_t050_ch01.tif.gz,0,0.0,24.07667568064989,2.76331384460457,d2d
C2_t051_ch01.tif.gz,0,0.0,24.06225199513166,2.835944565305048,d2d
C2_t052_ch01.tif.gz,0,0.0,24.014066455811935,2.6636492429477676,d2d
C2_t053_ch01.tif.gz,0,0.0,23.979121946426517,2.6232608210202573,d2d
C2_t054_ch01.tif.gz,0,0.0,23.91842056340964,2.670202692120238,d2d
C2_t055_ch01.tif.gz,0,0.0,23.882407048574414,2.563442170851051,d2d
C2_t056_ch01.tif.gz,0,0.0,23.842562280984573,2.585756763477035,d2d
C2_t057_ch01.tif.gz,0,0.0,23.78184702794144,2.4922016362735193,d2d
C2_t058_ch01.tif.gz,0,0.0,23.7374573763869,2.4364723198851803,d2d
C2_t059_ch01.tif.gz,0,0.0,23.820832876450048,2.8987745242817287,d2d
C2_t060_ch01.tif.gz,0,0.0,23.786950460762252,3.0155884821235768,d2d
C3_t046_ch01.tif.gz,0,0.0,25.37496919764574,5.561748201298456,cs1
C3_t047_ch01.tif.gz,0,0.0,25.044046291958058,5.3019622531491235,cs1
C3_t048_ch01.tif.gz,0,0.0,24.90121738234103,5.494937106507269,cs1
C3_t049_ch01.tif.gz,0,0.0,24.78863962263053,5.423778637366515,cs1
C3_t050_ch01.tif.gz,0,0.0,24.6098862937978,5.193903463518775,cs1
C3_t051_ch01.tif.gz,0,0.0,24.395026841952628,4.988060985678977,cs1
C3_t052_ch01.tif.gz,0,0.0,24.209227537747857,4.743099972170003,cs1
C3_t053_ch01.tif.gz,0,0.0,24.043717422144596,4.456066849482866,cs1
C3_t054_ch01.tif.gz,0,0.0,23.903248385390572,4.213949347827115,cs1
C3_t055_ch01.tif.gz,0,0.0,23.78193999802728,4.119504807466325,cs1
C3_t056_ch01.tif.gz,0,0.0,23.729380168326898,4.02885969962487,cs1
C3_t057_ch01.tif.gz,0,0.0,23.69507229363655,3.8637715970592943,cs1
C3_t058_ch01.tif.gz,0,0.0,23.634163031246715,3.7400955405258696,cs1
C3_t059_ch01.tif.gz,0,0.0,23.58964398667417,3.6784291002626857,cs1
C3_t060_ch01.tif.gz,0,0.0,23.57943986892493,3.437914795492862,cs1
C3_t061_ch01.tif.gz,0,0.0,23.54483561160493,3.414854472350945,cs1
C3_t062_ch01.tif.gz,0,0.0,23.57407631952868,3.4949810433450166,cs1
C3_t063_ch01.tif.gz,0,0.0,23.523130917548386,3.4011770757428614,cs1
C3_t064_ch01.tif.gz,0,0.0,23.503109031806893,3.195807284756143,cs1
C3_t065_ch01.tif.gz,0,0.0,23.473332500455214,3.1798254964862034,cs1
C3_t066_ch01.tif.gz,0,0.0,23.499180370079372,3.3463057371355265,cs1
C3_t067_ch01.tif.gz,0,0.0,23.475806957257873,3.293773936518035,cs1
C3_t068_ch01.tif.gz,0,0.0,23.503595064643296,3.277691735381035,c2v2
C3_t069_ch01.tif.gz,0,0.0,23.42711337241414,3.1087330703378013,c2v2
C3_t070_ch01.tif.gz,0,0.0,23.40600778463558,3.0864717337951384,cs2
C3_t071_ch01.tif.gz,0,0.0,23.41604376472772,3.111118282811732,cs2
C3_t072_ch01.tif.gz,0,0.0,23.419593064330492,3.1343358940653023,c2v2
C3_t073_ch01.tif.gz,0,0.0,23.450131629469738,3.1241859862441395,c2v2
C3_t074_ch01.tif.gz,0,0.0,23.43264597900023,3.132042400251798,c2v2
C3_t075_ch01.tif.gz,0,0.0,23.52018917428007,3.0560915916204126,c2v2
C3_t076_ch01.tif.gz,0,0.0,23.763943238794518,3.350404475219079,c2v2
C3_t077_ch01.tif.gz,0,0.0,23.994587709709485,3.284036501720965,c2v2
C4_t035_ch01.tif.gz,0,0.0,25.040497645612582,5.0926343552982,c13
C4_t036_ch01.tif.gz,0,0.0,25.074878607056185,4.593817134182672,c13
C4_t037_ch01.tif.gz,0,0.0,25.015190564408904,4.033136002316892,c13
C4_t038_ch01.tif.gz,0,0.0,25.00672558502074,3.85413729430752,cs2
C4_t039_ch01.tif.gz,0,0.0,25.00050576270101,3.855687089334926,cs2
C4_t040_ch01.tif.gz,0,0.0,25.028327576063756,3.750511564688668,cs2
C4_t041_ch01.tif.gz,0,0.0,24.974967142268966,3.7274001256345186,cs2
C4_t042_ch01.tif.gz,0,0.0,24.974475919788503,3.6950690747321753,cs2
C4_t043_ch01.tif.gz,0,0.0,24.987193362839616,3.5508183821957062,cs2
C4_t044_ch01.tif.gz,0,0.0,24.9547176104948,3.5513777358827996,cs2
C4_t045_ch01.tif.gz,0,0.0,24.91954120093104,3.5766667858489782,cs2
C4_t046_ch01.tif.gz,0,0.0,24.91960626055625,3.6988868494909375,cs2
C4_t047_ch01.tif.gz,0,0.0,24.885833655898285,3.5957443452955533,cs2
C4_t048_ch01.tif.gz,0,0.0,24.89090835729245,3.564353840349047,d2d
C4_t049_ch01.tif.gz,0,0.0,24.83682085660162,3.522671771823387,cs2
C4_t050_ch01.tif.gz,0,0.0,24.770510983513674,3.480102447003321,d2d
C4_t051_ch01.tif.gz,0,0.0,24.743817129778108,3.4462618401475527,d2d
C4_t052_ch01.tif.gz,0,0.0,24.677807961350396,3.5108040351649494,d2d
C4_t053_ch01.tif.gz,0,0.0,24.63922897819159,3.442388058370164,d2d
C4_t054_ch01.tif.gz,0,0.0,24.588553183864363,3.4196672485059456,d2d
C4_t055_ch01.tif.gz,0,0.0,24.540543462624257,3.423187413603532,d2d
C4_t056_ch01.tif.gz,0,0.0,24.492323925343644,3.3494023621914626,d2d
C4_t057_ch01.tif.gz,0,0.0,24.387921235567866,3.223763019921054,d2d
C4_t058_ch01.tif.gz,0,0.0,24.377513588071295,3.163487960103611,d2d
C4_t059_ch01.tif.gz,0,0.0,24.305760146305815,3.1294761226943306,d2d
C4_t060_ch01.tif.gz,0,0.0,24.27451791719743,3.083894404925941,d2d
C4_t061_ch01.tif.gz,0,0.0,24.205637601521623,2.935262883911994,d2d
C4_t062_ch01.tif.gz,0,0.0,24.15749123770717,2.9247095107368453,d2d
C4_t063_ch01.tif.gz,0,0.0,24.0718348761212,2.7031654996678216,d2d
C4_t064_ch01.tif.gz,0,0.0,23.97913203616827,2.5104140265191304,d2d
C4_t065_ch01.tif.gz,0,0.0,24.148738321233132,2.6820251841312333,d2d
C4_t066_ch01.tif.gz,0,0.0,24.4849772333464,3.5268198248195337,cs2
C5_t049_ch01.tif.gz,0,0.0,23.945266585974764,6.21603928420621,cs1
C5_t050_ch01.tif.gz,0,0.0,23.85793498159213,6.189325489168629,cs1
C5_t051_ch01.tif.gz,0,0.0,23.734362880343802,6.111316204369609,cs1
C5_t052_ch01.tif.gz,0,0.0,23.79355805030245,6.021699653577572,cs1
C5_t053_ch01.tif.gz,0,0.0,23.77936954358429,5.561779408725738,cs1
C5_t054_ch01.tif.gz,0,0.0,23.794767721249606,5.3634381039068435,cs1
C5_t055_ch01.tif.gz,0,0.0,23.86783189804763,4.991191820991862,cs1
C5_t056_ch01.tif.gz,0,0.0,23.86879586619575,4.7552330169396475,cs2
C5_t057_ch01.tif.gz,0,0.0,23.90356905968477,4.4888117054708365,cs2
C5_t058_ch01.tif.gz,0,0.0,23.891999943228335,4.384255536714458,cs2
C5_t059_ch01.tif.gz,0,0.0,23.89457300103728,4.18666078969697,cs2
C5_t060_ch01.tif.gz,0,0.0,23.900183489969802,4.115179179683171,cs2
C5_t061_ch01.tif.gz,0,0.0,23.8292365211269,4.00069153611498,cs2
C5_t062_ch01.tif.gz,0,0.0,23.80016591202797,3.873153650856159,cs2
C5_t063_ch01.tif.gz,0,0.0,23.8224266171189,3.752915105625225,cs2
C5_t064_ch01.tif.gz,0,0.0,23.829414250573016,3.778372161391476,cs2
C5_t065_ch01.tif.gz,0,0.0,23.834035293954027,3.7282548407196474,cs2
C5_t066_ch01.tif.gz,0,0.0,23.798580199772005,3.673467875564254,cs2
C5_t067_ch01.tif.gz,0,0.0,23.769828316637565,3.577876956419346,cs2
C5_t068_ch01.tif.gz,0,0.0,23.77156400370607,3.597206880686804,cs2
C5_t069_ch01.tif.gz,0,0.0,23.769701727913176,3.5736970545315736,cs2
C5_t070_ch01.tif.gz,0,0.0,23.755637532180373,3.636628245338543,cs2
C5_t071_ch01.tif.gz,0,0.0,23.713849217676945,3.6067137433154164,cs2
C5_t072_ch01.tif.gz,0,0.0,23.732362284778105,3.5565130353739356,cs2
C5_t073_ch01.tif.gz,0,0.0,23.766884579004213,3.2565058914045433,cs2
C5_t074_ch01.tif.gz,0,0.0,23.7849570912529,3.0110325371307067,cs2
C5_t075_ch01.tif.gz,0,0.0,23.823411072588975,2.9132256732301665,cs2
C5_t076_ch01.tif.gz,0,0.0,23.800771573106708,2.8507823694908736,cs2
C5_t077_ch01.tif.gz,0,0.0,23.818791144114712,2.9478372346437927,cs2
C5_t078_ch01.tif.gz,0,0.0,23.817329373060204,2.963855667300429,cs2
C5_t079_ch01.tif.gz,0,0.0,23.786112723993433,3.140580023572827,cs2
C5_t080_ch01.tif.gz,0,0.0,23.793033400571034,2.9469610895210976,d2d
C5_t081_ch01.tif.gz,0,0.0,23.85316048983847,2.9563669277140447,d2d
C6_t044_ch01.tif.gz,0,0.0,27.001788968151708,5.229775823291148,NR
C6_t045_ch01.tif.gz,0,0.0,26.869483419901666,4.903943336016848,NR
C6_t046_ch01.tif.gz,0,0.0,26.729623945930534,4.605592571211525,NR
C6_t047_ch01.tif.gz,0,0.0,26.661823325793662,4.402854059520917,NR
C6_t048_ch01.tif.gz,0,0.0,26.61224838030568,4.38375687524366,NR
C6_t049_ch01.tif.gz,0,0.0,26.544793659023412,4.220239666367686,NR
C6_t050_ch01.tif.gz,0,0.0,26.38172074126817,4.137350518519446,NR
C6_t051_ch01.tif.gz,0,0.0,26.336487193902844,4.143042492158383,NR
C6_t052_ch01.tif.gz,0,0.0,26.219132060084895,4.294627796586017,NR
C6_t053_ch01.tif.gz,0,0.0,26.103628280609712,4.249873128303591,NR
C6_t054_ch01.tif.gz,0,0.0,25.974416376885365,4.214895746116836,NR
C6_t055_ch01.tif.gz,0,0.0,25.79904142832454,4.205982390287223,NR
C6_t056_ch01.tif.gz,0,0.0,25.772921858575007,4.40399342643986,NR
C6_t057_ch01.tif.gz,0,0.0,25.618099227240833,4.380621526886422,NR
C6_t058_ch01.tif.gz,0,0.0,25.47679111078365,4.277900394565269,NR
C6_t059_ch01.tif.gz,0,0.0,25.280639134423,4.283144141594831,NR
C6_t060_ch01.tif.gz,0,0.0,25.065489084070876,4.070125621464166,c12
C6_t061_ch01.tif.gz,0,0.0,24.939177807185082,3.908494406345813,c12
C6_t062_ch01.tif.gz,0,0.0,24.891856685845234,3.8710682482810563,c12
C6_t063_ch01.tif.gz,0,0.0,24.811670907667015,3.678859728240207,c12
C6_t064_ch01.tif.gz,0,0.0,24.7227437708632,3.7240556832511005,c12
C6_t065_ch01.tif.gz,0,0.0,24.73359809145963,3.577338290874844,c12
C6_t066_ch01.tif.gz,0,0.0,24.78883383189303,3.553623644605788,c12
C6_t067_ch01.tif.gz,0,0.0,24.58269560735744,3.4296547202884904,c12
C6_t068_ch01.tif.gz,0,0.0,24.520216495740296,3.6233378368995677,c12
C6_t069_ch01.tif.gz,0,0.0,24.34457929883483,3.4713074184331543,c12
C6_t070_ch01.tif.gz,0,0.0,24.30776897990767,3.3514053092820553,c12
C6_t071_ch01.tif.gz,0,0.0,24.4848685983418,3.5697229673160855,c12
C6_t072_ch01.tif.gz,0,0.0,24.758929154738496,3.790420030615291,c12
C7_t055_ch01.tif.gz,0,0.0,26.46215303848693,8.03565999776664,NR
C7_t056_ch01.tif.gz,0,0.0,26.378792465422393,7.956001677293193,NR
C7_t057_ch01.tif.gz,0,0.0,26.19678852450143,7.905713785999145,NR
C7_t058_ch01.tif.gz,0,0.0,26.136234547887575,7.88541117362928,NR
C7_t059_ch01.tif.gz,0,0.0,26.044180119811294,7.862811722923944,NR
C7_t060_ch01.tif.gz,0,0.0,25.871670352078507,7.749101520204064,NR
C7_t061_ch01.tif.gz,0,0.0,25.770620543615948,7.608439364562969,NR
C7_t062_ch01.tif.gz,0,0.0,25.618145340363434,7.4341172637248265,NR
C7_t063_ch01.tif.gz,0,0.0,25.5574106883479,7.330824676708637,NR
C7_t064_ch01.tif.gz,0,0.0,25.34084439073857,7.347653723191629,cs1
C7_t065_ch01.tif.gz,0,0.0,25.299521596312395,7.253978094989434,NR
C7_t066_ch01.tif.gz,0,0.0,25.15880594821563,7.0734884504249536,NR
C7_t067_ch01.tif.gz,0,0.0,24.924859477860867,6.7682544792397685,cs1
C7_t068_ch01.tif.gz,0,0.0,24.788444337797273,6.519026166483736,cs1
C7_t069_ch01.tif.gz,0,0.0,24.609978813911134,6.289956333892523,cs1
C7_t070_ch01.tif.gz,0,0.0,24.50810999877664,6.124307018385558,cs1
C7_t071_ch01.tif.gz,0,0.0,24.384119017910173,5.8293177564529115,cs4
C7_t072_ch01.tif.gz,0,0.0,24.30512155192126,5.600640974682265,cs4
C7_t073_ch01.tif.gz,0,0.0,24.241498924682617,5.4971055037872985,cs4
C7_t074_ch01.tif.gz,0,0.0,24.11519932613332,5.233622507086291,cs4
C7_t075_ch01.tif.gz,0,0.0,24.047527376210105,5.05176579832084,cs4
C7_t076_ch01.tif.gz,0,0.0,23.968136516143286,4.701607061550824,cs4
C7_t077_ch01.tif.gz,0,0.0,23.93886932175214,4.633754502273701,cs4
C7_t078_ch01.tif.gz,0,0.0,23.83695319579668,4.369376727115287,cs4
C7_t079_ch01.tif.gz,0,0.0,23.77739983066781,4.242450611165639,cs4
C7_t080_ch01.tif.gz,0,0.0,23.787853891763987,3.9386608879706233,cs4
C7_t081_ch01.tif.gz,0,0.0,23.782121478110582,3.841070347212734,cs4
C7_t082_ch01.tif.gz,0,0.0,23.747144485661455,3.6093686643649834,cs2
C7_t083_ch01.tif.gz,0,0.0,23.688897660578792,3.476470588942777,cs2
C7_t084_ch01.tif.gz,0,0.0,23.655709724885735,3.4654419959675504,cs2
C7_t085_ch01.tif.gz,0,0.0,23.610552636756786,3.4604854187862024,cs2
C7_t086_ch01.tif.gz,0,0.0,23.6354151209569,3.5138932446172326,cs2
C7_t087_ch01.tif.gz,0,0.0,23.686320752364455,3.696474494422866,cs2
C7_t088_ch01.tif.gz,0,0.0,23.85536181233274,3.928538002676236,cs2
C7_t089_ch01.tif.gz,0,0.0,23.897397750003815,4.209995505277256,cs2
D1_t027_ch01.tif.gz,0,0.0,24.183386534574538,3.185675327583605,cs4
D1_t028_ch01.tif.gz,0,0.0,24.173712380991745,3.110333238993033,cs2
D1_t029_ch01.tif.gz,0,0.0,24.180998302228872,2.9559057965186866,cs2
D1_t030_ch01.tif.gz,0,0.0,24.126118171615666,2.895066498019782,cs2
D1_t031_ch01.tif.gz,0,0.0,24.059118111594216,2.781121668234136,cs2
D1_t032_ch01.tif.gz,0,0.0,24.021138676915086,2.7591327483433314,cs2
D1_t033_ch01.tif.gz,0,0.0,23.939385247252766,2.620702583608451,cs2
D1_t034_ch01.tif.gz,0,0.0,23.90747475469489,2.5824091989694105,d2d
D1_t035_ch01.tif.gz,0,0.0,23.879564764209377,2.657298982084019,d2d
D1_t036_ch01.tif.gz,0,0.0,23.82892620052737,2.4651489825149686,d2d
D1_t037_ch01.tif.gz,0,0.0,23.79289891633767,2.659632607209668,cs2
D1_t038_ch01.tif.gz,0,0.0,23.778753931274366,2.695177942149929,cs2
D1_t039_ch01.tif.gz,0,0.0,23.798904885817187,2.8662995180032302,cs2
D1_t040_ch01.tif.gz,0,0.0,23.76702685843948,2.825415944114377,cs2
D1_t041_ch01.tif.gz,0,0.0,23.75679233229257,2.8443062750567725,cs2
D1_t042_ch01.tif.gz,0,0.0,23.727667937776943,3.0534643492603517,cs2
D1_t043_ch01.tif.gz,0,0.0,23.723477407769117,3.008822007148976,cs2
D1_t044_ch01.tif.gz,0,0.0,23.73624482918143,2.973546832288473,cs2
D1_t045_ch01.tif.gz,0,0.0,23.716536327540084,2.9296354580315485,cs2
D1_t046_ch01.tif.gz,0,0.0,23.692256930415397,2.9784142041503,cs2
D1_t047_ch01.tif.gz,0,0.0,23.726058542591264,2.955900050599423,cs2
D1_t048_ch01.tif.gz,0,0.0,23.7252979572883,2.9430544801280254,cs2
D1_t049_ch01.tif.gz,0,0.0,23.699363815039675,3.0003707004703406,cs2
D1_t050_ch01.tif.gz,0,0.0,23.69861565151416,2.965117638635616,cs2
D1_t051_ch01.tif.gz,0,0.0,23.768611071365044,2.9607456431876162,cs2
D1_t052_ch01.tif.gz,0,0.0,23.79867573885732,2.579346119204325,cs2
D1_t053_ch01.tif.gz,0,0.0,23.91470281879538,2.634624329052981,cs2
D2_t029_ch01.tif.gz,0,0.0,25.47514148185495,5.776014314619924,c11
D2_t030_ch01.tif.gz,0,0.0,25.55527157931501,5.50968753999949,c11
D2_t031_ch01.tif.gz,0,0.0,25.734173923556718,5.4637912919775165,c11
D2_t032_ch01.tif.gz,0,0.0,25.83973870174821,5.464193510214849,cs2
D2_t033_ch01.tif.gz,0,0.0,25.813354707000613,5.5258018671046285,cs2
D2_t034_ch01.tif.gz,0,0.0,25.772171254207638,5.563253494433079,cs2
D2_t035_ch01.tif.gz,0,0.0,25.76228326943032,5.567377625800316,cs2
D2_t036_ch01.tif.gz,0,0.0,25.60425080201442,5.576580690284479,cs2
D2_t037_ch01.tif.gz,0,0.0,25.667727866224553,5.45475941878942,cs2
D2_t038_ch01.tif.gz,0,0.0,25.57229591036495,5.390941448453072,cs2
D2_t039_ch01.tif.gz,0,0.0,25.517293152828564,5.415654337787029,cs2
D2_t040_ch01.tif.gz,0,0.0,25.415012227935055,5.3478632371419765,c11
D2_t041_ch01.tif.gz,0,0.0,25.342093788399346,5.223721146110951,c11
D2_t042_ch01.tif.gz,0,0.0,25.31513187278886,5.230912795856349,c11
D2_t043_ch01.tif.gz,0,0.0,25.24078620332312,5.150207567516169,c11
D2_t044_ch01.tif.gz,0,0.0,25.14792604842725,5.08994768757277,c11
D2_t045_ch01.tif.gz,0,0.0,25.094442768359723,4.946794307483258,c11
D2_t046_ch01.tif.gz,0,0.0,25.033895613969925,4.90546696127387,c11
D2_t047_ch01.tif.gz,0,0.0,25.061442422330344,4.889279501322973,c11
D2_t048_ch01.tif.gz,0,0.0,24.90485677110968,4.714351604814121,c11
D2_t049_ch01.tif.gz,0,0.0,24.867628764010895,4.641671260213307,c11
D2_t050_ch01.tif.gz,0,0.0,24.810087985817784,4.622831021386317,c11
D2_t051_ch01.tif.gz,0,0.0,24.729857280628735,4.459359736582123,c11
D2_t052_ch01.tif.gz,0,0.0,24.628437574413873,4.288539654651616,c11
D2_t053_ch01.tif.gz,0,0.0,24.614115260574792,4.259173868772977,c11
D2_t054_ch01.tif.gz,0,0.0,24.495108652369662,4.086589227939637,c11
D2_t055_ch01.tif.gz,0,0.0,24.457182928710193,4.001134677030793,c11
D2_t056_ch01.tif.gz,0,0.0,24.39849048216432,3.837855259651693,c11
D2_t057_ch01.tif.gz,0,0.0,24.36412403786545,3.732020101418288,c11
D2_t058_ch01.tif.gz,0,0.0,24.344958571358525,3.744997195505575,c11
D3_t028_ch01.tif.gz,0,0.0,23.805424647644916,4.304584568239827,cs1
D3_t029_ch01.tif.gz,0,0.0,23.829706449371848,3.7159744468834965,cs1
D3_t030_ch01.tif.gz,0,0.0,23.877632574032337,3.570122605678808,cs1
D3_t031_ch01.tif.gz,0,0.0,23.86902944649386,3.5259559483607803,cs1
D3_t032_ch01.tif.gz,0,0.0,23.769336246187112,3.4617474753938535,cs1
D3_t033_ch01.tif.gz,0,0.0,23.707337253203782,3.546990116063236,cs1
D3_t034_ch01.tif.gz,0,0.0,23.629769736688555,3.6177693215395466,cs1
D3_t035_ch01.tif.gz,0,0.0,23.54722044542527,3.5829165039453117,cs1
D3_t036_ch01.tif.gz,0,0.0,23.49973160736547,3.4025570062133355,cs4
D3_t037_ch01.tif.gz,0,0.0,23.38885153647648,3.3998800942038288,cs4
D3_t038_ch01.tif.gz,0,0.0,23.33382257098011,3.2633396377782353,cs4
D3_t039_ch01.tif.gz,0,0.0,23.257631788371782,3.220979378721972,cs2
D3_t040_ch01.tif.gz,0,0.0,23.177927295223185,3.2049390271221645,cs2
D3_t041_ch01.tif.gz,0,0.0,23.165635749843368,3.0810880702605785,cs2
D3_t042_ch01.tif.gz,0,0.0,23.07414838206494,3.1263903711284535,cs2
D3_t043_ch01.tif.gz,0,0.0,23.029852776980963,3.207654993780506,cs2
D3_t044_ch01.tif.gz,0,0.0,23.044277045517177,3.1041731022975463,cs2
D3_t045_ch01.tif.gz,0,0.0,23.027655826713573,3.0319590191834163,cs2
D3_t046_ch01.tif.gz,0,0.0,22.978821636632013,3.0297080343831286,cs2
D3_t047_ch01.tif.gz,0,0.0,22.990227636290204,3.0523439464980564,cs2
D3_t048_ch01.tif.gz,0,0.0,22.935909183026617,2.9748301977264044,cs2
D3_t049_ch01.tif.gz,0,0.0,22.931907946434656,2.8846856858358145,cs2
D3_t050_ch01.tif.gz,0,0.0,22.893609210009586,2.8201787241754457,cs2
D3_t051_ch01.tif.gz,0,0.0,22.86686046803414,2.850514251253419,cs2
D3_t052_ch01.tif.gz,0,0.0,22.880405735984105,2.7735216587818217,cs2
D3_t053_ch01.tif.gz,0,0.0,22.834159099700038,2.7303293784451483,cs2
D3_t054_ch01.tif.gz,0,0.0,23.476336524490986,4.030380635563807,cs2
D3_t055_ch01.tif.gz,0,0.0,22.766777588407642,2.679985783523139,d2d
D3_t056_ch01.tif.gz,0,0.0,22.758174353220546,2.7712655906122166,cs2
D3_t057_ch01.tif.gz,0,0.0,22.816022526319415,2.75967047708891,d2d
D3_t058_ch01.tif.gz,0,0.0,22.81147183331643,3.16492984075018,d2d
D4_t022_ch01.tif.gz,0,0.0,26.087744421299057,5.483855521143639,NR
D4_t023_ch01.tif.gz,0,0.0,26.062768198631662,5.421326649808614,NR
D4_t024_ch01.tif.gz,0,0.0,25.950974616814936,5.269223673261747,NR
D4_t025_ch01.tif.gz,0,0.0,25.922147370680428,5.204756005881419,NR
D4_t026_ch01.tif.gz,0,0.0,25.84500131538752,5.365327113853858,NR
D4_t027_ch01.tif.gz,0,0.0,25.78694208074169,5.295896263273056,NR
D4_t028_ch01.tif.gz,0,0.0,25.84179979186437,5.490826739325555,NR
D4_t029_ch01.tif.gz,0,0.0,25.723283020284534,5.364543540536225,NR
D4_t030_ch01.tif.gz,0,0.0,25.659223389472515,5.503663873787536,NR
D4_t031_ch01.tif.gz,0,0.0,25.607109128736216,5.446192837519452,NR
D4_t032_ch01.tif.gz,0,0.0,25.463900672045057,5.508770000197124,NR
D4_t033_ch01.tif.gz,0,0.0,25.339280920108173,5.431959381402211,NR
D4_t034_ch01.tif.gz,0,0.0,25.197754973025503,5.470130753465716,cs1
D4_t035_ch01.tif.gz,0,0.0,25.06161049716961,5.393439207999628,c13
D4_t036_ch01.tif.gz,0,0.0,24.85323139471604,5.168469855540441,cs1
D4_t037_ch01.tif.gz,0,0.0,24.72155365664922,5.217477396841144,c13
D4_t038_ch01.tif.gz,0,0.0,24.58086086123904,5.034901535393036,c13
D4_t039_ch01.tif.gz,0,0.0,24.533076342128,5.115014048573031,c13
D4_t040_ch01.tif.gz,0,0.0,24.46889058528791,5.0082761337637605,cs1
D4_t041_ch01.tif.gz,0,0.0,24.39355946910964,5.0418612678697965,cs1
D4_t042_ch01.tif.gz,0,0.0,24.30233003999115,4.91922058345765,cs1
D4_t043_ch01.tif.gz,0,0.0,24.283413354461416,4.94391398733735,cs1
D4_t044_ch01.tif.gz,0,0.0,24.173019587625078,4.951694836180833,cs1
D4_t045_ch01.tif.gz,0,0.0,24.22069921438721,5.1580881274996155,cs1
D4_t046_ch01.tif.gz,0,0.0,24.393387784061662,5.078001214931676,cs1
D4_t047_ch01.tif.gz,0,0.0,25.47072647327207,5.23482150243589,cs1
D4_t048_ch01.tif.gz,0,0.0,25.458167841304032,5.241277745319319,cs1
D5_t028_ch01.tif.gz,0,0.0,24.87037384392249,3.2744777199294126,cs4
D5_t029_ch01.tif.gz,0,0.0,24.974425293894846,2.9796168229627797,NR
D5_t030_ch01.tif.gz,0,0.0,24.902506388890878,3.022894796547813,cs2
D5_t031_ch01.tif.gz,0,0.0,24.870067987379848,2.946224138942192,cs2
D5_t032_ch01.tif.gz,0,0.0,24.858048123232233,3.003136798328161,NR
D5_t033_ch01.tif.gz,0,0.0,24.770855255969522,3.0086216393598937,d2d
D5_t034_ch01.tif.gz,0,0.0,24.83229524408474,2.9413655100769973,d2d
D5_t035_ch01.tif.gz,0,0.0,24.694751451824576,3.003302578948972,d2d
D5_t036_ch01.tif.gz,0,0.0,24.614676351426645,3.209681243940812,cs2
D5_t037_ch01.tif.gz,0,0.0,24.587264441100444,3.056395902002558,cs2
D5_t038_ch01.tif.gz,0,0.0,24.545297480614842,3.1500200228924067,cs2
D5_t039_ch01.tif.gz,0,0.0,24.521742497915525,3.127256057983426,cs2
D5_t040_ch01.tif.gz,0,0.0,24.482215854326057,3.2142029330994677,cs2
D5_t041_ch01.tif.gz,0,0.0,24.404742649911967,3.12690617281493,d2d
D5_t042_ch01.tif.gz,0,0.0,24.415288045804516,3.2587642936323196,d2d
D5_t043_ch01.tif.gz,0,0.0,24.348260048632877,3.2546775266241155,d2d
D5_t044_ch01.tif.gz,0,0.0,24.29290163358297,3.152410178800899,d2d
D5_t045_ch01.tif.gz,0,0.0,24.25620062535706,3.1369129333737553,d2d
D5_t046_ch01.tif.gz,0,0.0,24.253296799354544,3.1040350547620346,d2d
D5_t047_ch01.tif.gz,0,0.0,24.260639399559796,3.118829251451802,d2d
D5_t048_ch01.tif.gz,0,0.0,24.196153674858927,2.8854209066629033,d2d
D5_t049_ch01.tif.gz,0,0.0,24.145421712309506,2.6493926724784815,d2d
D5_t050_ch01.tif.gz,0,0.0,24.14439308191441,2.6504777386277714,d2d
D5_t051_ch01.tif.gz,0,0.0,24.153088611737658,2.5350355721150306,d2d
D5_t052_ch01.tif.gz,0,0.0,24.103526927257604,2.501339185315054,d2d
D5_t053_ch01.tif.gz,0,0.0,24.09207577226115,2.5359896069891934,d2d
D5_t054_ch01.tif.gz,0,0.0,24.084637262313237,2.383174808062828,d2d
D5_t055_ch01.tif.gz,0,0.0,24.057650946661738,2.3954756007009346,d2d
D5_t056_ch01.tif.gz,0,0.0,24.098897889031843,2.4447500693973563,d2d
D5_t057_ch01.tif.gz,0,0.0,24.06067339049278,2.2388793025749036,d2d
D5_t058_ch01.tif.gz,0,0.0,24.121131232259476,2.674145494684174,cs2
D5_t059_ch01.tif.gz,0,0.0,24.135493426087308,2.9510215678826386,cs2
D5_t060_ch01.tif.gz,0,0.0,24.09888726622471,2.9021842787191314,cs2
D6_t037_ch01.tif.gz,0,0.0,25.870787029227678,5.309329073326453,NR
D6_t038_ch01.tif.gz,0,0.0,26.07637466870672,4.997809885479743,NR
D6_t039_ch01.tif.gz,0,0.0,26.190178933031085,4.791069798067428,NR
D6_t040_ch01.tif.gz,0,0.0,26.25731984112835,4.718937926165035,NR
D6_t041_ch01.tif.gz,0,0.0,26.245604807032127,4.7292288443597625,NR
D6_t042_ch01.tif.gz,0,0.0,26.094477588118338,4.709974557031831,NR
D6_t043_ch01.tif.gz,0,0.0,26.111713745105686,4.729733219625906,NR
D6_t044_ch01.tif.gz,0,0.0,26.057352357558283,4.737980487703147,NR
D6_t045_ch01.tif.gz,0,0.0,26.0473516240143,4.737848962392916,NR
D6_t046_ch01.tif.gz,0,0.0,25.74772965505594,4.651668301914585,NR
D6_t047_ch01.tif.gz,0,0.0,25.80936326979879,4.782520812159622,NR
D6_t048_ch01.tif.gz,0,0.0,25.735330301931754,4.813784967941922,NR
D6_t049_ch01.tif.gz,0,0.0,25.589011912219114,4.716307109158424,NR
D6_t050_ch01.tif.gz,0,0.0,25.482953250792594,4.678071355709608,NR
D6_t051_ch01.tif.gz,0,0.0,25.410427483787892,4.739291024104734,NR
D6_t052_ch01.tif.gz,0,0.0,25.397254459581184,4.794305971021441,NR
D6_t053_ch01.tif.gz,0,0.0,25.354423917547663,4.767442348397301,NR
D6_t054_ch01.tif.gz,0,0.0,25.21651661317058,4.812825160560197,NR
D6_t055_ch01.tif.gz,0,0.0,25.179723302027128,4.833913166155707,NR
D6_t056_ch01.tif.gz,0,0.0,25.19996648462071,4.883618639819799,NR
D6_t057_ch01.tif.gz,0,0.0,25.131104811851046,4.922580619313257,NR
D6_t058_ch01.tif.gz,0,0.0,25.027864605341303,4.861355923463584,NR
D6_t059_ch01.tif.gz,0,0.0,25.022018955639716,4.79470389830906,NR
D6_t060_ch01.tif.gz,0,0.0,24.984900478916735,4.912664208432251,NR
D6_t061_ch01.tif.gz,0,0.0,25.016516588932184,4.765202975686555,NR
D6_t062_ch01.tif.gz,0,0.0,25.026192734914666,4.5611103713703445,NR
D6_t063_ch01.tif.gz,0,0.0,25.106564160859833,4.341044563313464,NR
D6_t064_ch01.tif.gz,0,0.0,24.898715049406615,4.472683376010677,cs1
D7_t022_ch01.tif.gz,0,0.0,24.78229128698907,3.7217149547763246,c13
D7_t023_ch01.tif.gz,0,0.0,24.819441634126225,3.969477250341182,c13
D7_t024_ch01.tif.gz,0,0.0,24.80115527359459,4.137868119240439,c13
D7_t025_ch01.tif.gz,0,0.0,24.72695934054147,4.122956374101242,c13
D7_t026_ch01.tif.gz,0,0.0,24.669876983076776,4.085956691690597,c13
D7_t027_ch01.tif.gz,0,0.0,24.591246892634345,4.0084077611624895,c13
D7_t028_ch01.tif.gz,0,0.0,24.67279221319029,3.903528232987654,c13
D7_t029_ch01.tif.gz,0,0.0,24.529981707120797,3.8516098150386897,cs5
D7_t030_ch01.tif.gz,0,0.0,24.542650217850337,3.7268484277193363,cs5
D7_t031_ch01.tif.gz,0,0.0,24.507949696018002,3.6399303439442137,cs5
D7_t032_ch01.tif.gz,0,0.0,24.4913352630401,3.6294665638897556,cs5
D7_t033_ch01.tif.gz,0,0.0,24.40086143315667,3.4386888094704213,d2d
D7_t034_ch01.tif.gz,0,0.0,24.357629193513716,3.2885759023496073,cs5
D7_t035_ch01.tif.gz,0,0.0,24.23062992675792,3.1800328894102936,d2d
D7_t036_ch01.tif.gz,0,0.0,24.147721233146136,3.018254352100636,d2d
D7_t037_ch01.tif.gz,0,0.0,24.112935946289674,2.64204530863405,d2d
D7_t038_ch01.tif.gz,0,0.0,24.048528953630147,2.6919334002709525,d2d
D7_t039_ch01.tif.gz,0,0.0,24.000346879951273,2.4476814436515615,d2d
D7_t040_ch01.tif.gz,0,0.0,23.95140705157187,2.3457527091833823,d2d
D7_t041_ch01.tif.gz,0,0.0,23.88046968877272,2.321057383255091,d2d
D7_t042_ch01.tif.gz,0,0.0,23.879461291345255,2.2462136237543318,d2d
D7_t043_ch01.tif.gz,0,0.0,23.838795189153288,2.266546918005448,d2d
D7_t044_ch01.tif.gz,0,0.0,23.85156870643573,2.3571803834669343,d2d
D7_t045_ch01.tif.gz,0,0.0,23.82203872754777,2.317244202781506,d2d
D7_t046_ch01.tif.gz,0,0.0,23.84039910815551,2.4192206523989004,d2d
D7_t047_ch01.tif.gz,0,0.0,23.923410553601986,2.621387278768914,d2d
D7_t048_ch01.tif.gz,0,0.0,24.22526591516238,2.6736949482661823,d2d
D7_t049_ch01.tif.gz,0,0.0,24.23582698659878,2.905819857708506,cs2
D7_t050_ch01.tif.gz,0,0.0,24.192864781586984,3.080452983089999,cs2
D8_t021_ch01.tif.gz,0,0.0,24.003917331914028,2.214900220100153,cs2
D8_t022_ch01.tif.gz,0,0.0,24.051096905094298,1.8816538037628767,cs2
D8_t023_ch01.tif.gz,0,0.0,24.071416001495315,1.8492112121168336,cs2
D8_t024_ch01.tif.gz,0,0.0,24.10407407237349,1.7920415080011087,cs2
D8_t025_ch01.tif.gz,0,0.0,24.118182341408783,1.7508515451751057,cs2
D8_t026_ch01.tif.gz,0,0.0,24.12322160981831,1.686713708535002,cs2
D8_t027_ch01.tif.gz,0,0.0,24.109699121778192,1.7040855702704525,cs2
D8_t028_ch01.tif.gz,0,0.0,24.095862954634175,1.7447697086205463,cs2
D8_t029_ch01.tif.gz,0,0.0,24.11760135864872,1.6890655763845046,cs2
D8_t030_ch01.tif.gz,0,0.0,24.09279311922566,1.7835631351780632,cs2
D8_t031_ch01.tif.gz,0,0.0,24.051487828129417,1.775773568178995,cs2
D8_t032_ch01.tif.gz,0,0.0,24.096894405650797,1.7868670516299687,cs2
D8_t033_ch01.tif.gz,0,0.0,24.0422287356403,1.8807243764023762,cs2
D8_t034_ch01.tif.gz,0,0.0,24.003133681957475,1.8604773459667094,cs2
D8_t035_ch01.tif.gz,0,0.0,23.986129381388363,1.841005458867107,cs2
D8_t036_ch01.tif.gz,0,0.0,23.971258110942564,1.9655943545654355,cs2
D8_t037_ch01.tif.gz,0,0.0,23.948437862913792,1.92142045235144,cs2
D8_t038_ch01.tif.gz,0,0.0,23.94268188529926,1.8977075230716811,d2d
D8_t039_ch01.tif.gz,0,0.0,23.95797945342298,1.8468966585584334,d2d
D8_t040_ch01.tif.gz,0,0.0,23.91142365891212,1.9306583978151877,d2d
D8_t041_ch01.tif.gz,0,0.0,23.91936578748153,1.9823172221181786,d2d
D8_t042_ch01.tif.gz,0,0.0,23.918922127203892,1.9044132528249433,d2d
D8_t043_ch01.tif.gz,0,0.0,23.914718799425348,1.8865896748166946,d2d
D8_t044_ch01.tif.gz,0,0.0,23.88139324039708,1.7900199430831472,d2d
D8_t045_ch01.tif.gz,0,0.0,23.876956792247746,1.8409391043704386,d2d
D8_t046_ch01.tif.gz,0,0.0,23.854283583945683,1.9370940796453437,d2d
D8_t047_ch01.tif.gz,0,0.0,23.864541477430244,1.8275527920642987,d2d
D8_t048_ch01.tif.gz,0,0.0,23.864864695129672,1.8198863736779363,d2d
D8_t049_ch01.tif.gz,0,0.0,23.8756999001219,1.9768237948308276,d2d
D8_t050_ch01.tif.gz,0,0.0,23.87802346300631,2.1975579834768157,d2d
E1_t024_ch01.tif.gz,0,0.0,24.34710117711024,3.6238647958525743,cs2
E1_t025_ch01.tif.gz,0,0.0,24.444320697006862,3.509662018633219,cs2
E1_t026_ch01.tif.gz,0,0.0,24.449750439279153,3.565782451984969,cs2
E1_t027_ch01.tif.gz,0,0.0,24.529743903207518,3.7300568381642214,c11
E1_t028_ch01.tif.gz,0,0.0,24.62150516581002,3.973434499066913,c11
E1_t029_ch01.tif.gz,0,0.0,24.629229215502917,4.289234324972416,c11
E1_t030_ch01.tif.gz,0,0.0,24.599245284716524,4.287849387739691,c11
E1_t031_ch01.tif.gz,0,0.0,24.537844514860453,4.348172331287909,c11
E1_t032_ch01.tif.gz,0,0.0,24.42485071740495,4.176203661350466,c11
E1_t033_ch01.tif.gz,0,0.0,24.35039379965287,4.146845927618451,c11
E1_t034_ch01.tif.gz,0,0.0,24.26072346936442,4.167359293501331,c11
E1_t035_ch01.tif.gz,0,0.0,24.136118430321844,4.233371002485846,c11
E1_t036_ch01.tif.gz,0,0.0,24.073751313584765,3.996064528125347,c11
E1_t037_ch01.tif.gz,0,0.0,24.044724498885646,4.158167415377559,c11
E1_t038_ch01.tif.gz,0,0.0,23.941489626141326,3.9985181766195668,c11
E1_t039_ch01.tif.gz,0,0.0,23.83950919936555,3.801245544527323,cs2
E1_t040_ch01.tif.gz,0,0.0,23.811172368630587,3.8087559493646856,cs2
E1_t041_ch01.tif.gz,0,0.0,23.813181391109048,3.713946376534172,cs2
E1_t042_ch01.tif.gz,0,0.0,23.780121733064703,3.671847236033742,cs2
E1_t043_ch01.tif.gz,0,0.0,23.73736335911146,3.538110322017298,cs2
E1_t044_ch01.tif.gz,0,0.0,23.815949891789213,3.4731362686315674,cs2
E1_t045_ch01.tif.gz,0,0.0,23.84304410416526,3.0404839622763093,cs2
E1_t046_ch01.tif.gz,0,0.0,23.85181426602382,3.0461265301899703,cs2
E1_t047_ch01.tif.gz,0,0.0,23.823005768786842,3.0516007232494307,cs2
E1_t048_ch01.tif.gz,0,0.0,23.850967513657068,3.2656651776361634,cs2
E1_t049_ch01.tif.gz,0,0.0,23.812882493415103,2.8903099437079627,cs2
E1_t050_ch01.tif.gz,0,0.0,23.813383430467905,2.8489292862772206,cs2
E1_t051_ch01.tif.gz,0,0.0,23.93132366420575,3.0965728918360207,cs2
E1_t052_ch01.tif.gz,0,0.0,24.125316706401172,4.57365764030118,cs2
E1_t053_ch01.tif.gz,0,0.0,24.49854130979782,5.5979821784944646,cs2
E2_t024_ch01.tif.gz,0,0.0,24.03714496827191,6.0147439860949605,cs5
E2_t025_ch01.tif.gz,0,0.0,24.030039248998193,5.364797442371552,cs5
E2_t026_ch01.tif.gz,0,0.0,23.930715729753665,5.0649501775572725,cs2
E2_t027_ch01.tif.gz,0,0.0,23.992413411930606,4.859041106871983,cs2
E2_t028_ch01.tif.gz,0,0.0,24.088839534625443,4.7174040002318005,cs2
E2_t029_ch01.tif.gz,0,0.0,24.125430958555377,4.5683509853229,cs2
E2_t030_ch01.tif.gz,0,0.0,24.163376142421306,4.629804822224579,c11
E2_t031_ch01.tif.gz,0,0.0,24.136280019885,4.5296324745142,c11
E2_t032_ch01.tif.gz,0,0.0,24.09802065455637,4.402932904525496,c11
E2_t033_ch01.tif.gz,0,0.0,24.01643289035513,4.3301640160331685,c11
E2_t034_ch01.tif.gz,0,0.0,23.970803514498286,4.324296578465903,c11
E2_t035_ch01.tif.gz,0,0.0,23.944764710911794,4.304039452964397,c11
E2_t036_ch01.tif.gz,0,0.0,23.88868300490773,4.1710644863272,c11
E2_t037_ch01.tif.gz,0,0.0,23.864116993416136,3.962197107732696,cs5
E2_t038_ch01.tif.gz,0,0.0,23.83480164284093,3.9573290002669794,cs5
E2_t039_ch01.tif.gz,0,0.0,23.794009128199164,3.8506560703729735,cs5
E2_t040_ch01.tif.gz,0,0.0,23.766418658154095,3.8798985029626825,cs5
E2_t041_ch01.tif.gz,0,0.0,23.73262552473473,3.7399981609924056,cs5
E2_t042_ch01.tif.gz,0,0.0,23.698658794207677,3.609934816267438,cs5
E2_t043_ch01.tif.gz,0,0.0,23.728299988769592,3.7558522156971437,cs5
E2_t044_ch01.tif.gz,0,0.0,23.670183161723905,3.697992400970243,cs5
E2_t045_ch01.tif.gz,0,0.0,23.65850008021662,3.483406940387,cs5
E2_t046_ch01.tif.gz,0,0.0,23.668935277647712,3.5526674842185066,cs5
E2_t047_ch01.tif.gz,0,0.0,23.707220062462056,3.498943897734501,cs5
E2_t048_ch01.tif.gz,0,0.0,23.67603730562313,3.53584427563337,cs5
E2_t049_ch01.tif.gz,0,0.0,23.7202179528041,3.306100071230419,cs5
E2_t050_ch01.tif.gz,0,0.0,23.689988129726277,3.3487904572127705,cs5
E2_t051_ch01.tif.gz,0,0.0,23.694280365375974,3.248800103899481,cs5
E2_t052_ch01.tif.gz,0,0.0,23.721616256911226,3.44850775890983,cs5
E2_t053_ch01.tif.gz,0,0.0,23.743182684911687,3.405700709580479,cs5
E2_t054_ch01.tif.gz,0,0.0,23.731753603312207,3.511174126478462,cs5
E2_t055_ch01.tif.gz,0,0.0,23.659762233823685,3.3811083116420386,cs5
E2_t056_ch01.tif.gz,0,0.0,23.68309093557987,3.3432612050185178,cs5
E2_t057_ch01.tif.gz,0,0.0,23.783803059332744,3.590344933050683,cs5
E2_t058_ch01.tif.gz,0,0.0,24.219628691237027,3.6425510693154464,cs5
E2_t059_ch01.tif.gz,0,0.0,24.207625523716942,3.2825528702823905,cs5
E3_t045_ch01.tif.gz,0,0.0,27.389161802527436,8.021611550449279,NR
E3_t046_ch01.tif.gz,0,0.0,27.39180715852391,7.930481946394696,NR
E3_t047_ch01.tif.gz,0,0.0,27.296105150020864,7.788558366497814,NR
E3_t048_ch01.tif.gz,0,0.0,27.067831981595464,7.6482524200366235,NR
E3_t049_ch01.tif.gz,0,0.0,27.08994365868627,7.573918856545089,NR
E3_t050_ch01.tif.gz,0,0.0,26.82493480004893,7.314591980961131,NR
E3_t051_ch01.tif.gz,0,0.0,26.817083631635576,7.278128532993445,NR
E3_t052_ch01.tif.gz,0,0.0,26.805563229919755,7.380396435197254,NR
E3_t053_ch01.tif.gz,0,0.0,26.57053304927117,7.340140569367783,NR
E3_t054_ch01.tif.gz,0,0.0,26.42265305327161,7.30633252485737,NR
E3_t055_ch01.tif.gz,0,0.0,26.33789958888091,7.222325302381649,NR
E3_t056_ch01.tif.gz,0,0.0,26.051012852708908,7.081747104435637,NR
E3_t057_ch01.tif.gz,0,0.0,25.829655395538488,6.901462721364271,NR
E3_t058_ch01.tif.gz,0,0.0,25.59112612583145,6.770028446595795,NR
E3_t059_ch01.tif.gz,0,0.0,25.465556218584908,6.688270609393202,NR
E3_t060_ch01.tif.gz,0,0.0,25.1289218039772,6.669787815403779,NR
E3_t061_ch01.tif.gz,0,0.0,24.87371080272392,6.563197044772934,NR
E3_t062_ch01.tif.gz,0,0.0,24.82769323231504,6.371559212054306,NR
E3_t063_ch01.tif.gz,0,0.0,24.569810558751442,6.252019653540924,NR
E3_t064_ch01.tif.gz,0,0.0,24.281449819709565,6.144924270250719,NR
E3_t065_ch01.tif.gz,0,0.0,24.132200128642808,6.014768082352433,NR
E3_t066_ch01.tif.gz,0,0.0,24.031027497695774,5.9612280304592185,NR
E3_t067_ch01.tif.gz,0,0.0,24.148247013161807,5.758858713343632,NR
E3_t068_ch01.tif.gz,0,0.0,23.99285879800434,5.817993309391508,NR
E3_t069_ch01.tif.gz,0,0.0,23.738075890139683,5.533767672607655,c11
E3_t070_ch01.tif.gz,0,0.0,23.931463398936415,5.164096972553887,c11
E3_t071_ch01.tif.gz,0,0.0,24.02580847359126,5.226589145915737,c11
E3_t072_ch01.tif.gz,0,0.0,23.84737552234631,4.90997710538184,c11
E3_t073_ch01.tif.gz,0,0.0,23.860349449388202,4.60855134545146,c11
E3_t074_ch01.tif.gz,0,0.0,23.73983114166386,4.386831684707993,c11
E3_t075_ch01.tif.gz,0,0.0,23.91191694932975,4.46393924790575,c11
E3_t076_ch01.tif.gz,0,0.0,23.80481432891186,4.434344533621502,c11
E3_t077_ch01.tif.gz,0,0.0,23.84794947698318,4.5670339159913125,c11
E3_t078_ch01.tif.gz,0,0.0,23.794822744120424,4.565237010171092,c11
E3_t079_ch01.tif.gz,0,0.0,23.758154737374717,4.624440072954712,c11
E3_t080_ch01.tif.gz,0,0.0,24.392376175088135,4.671414888931351,c11
E3_t081_ch01.tif.gz,0,0.0,25.082205572060325,5.059450861450407,c11
E3_t082_ch01.tif.gz,0,0.0,25.028981171029812,6.007673145978355,c11
E4_t030_ch01.tif.gz,0,0.0,24.769239133330252,5.77525562634157,cs4
E4_t031_ch01.tif.gz,0,0.0,24.811124796902547,5.7544835541540795,cs4
E4_t032_ch01.tif.gz,0,0.0,24.849427856943763,5.63356249126294,cs4
E4_t033_ch01.tif.gz,0,0.0,24.780192348134612,5.35320550253011,cs4
E4_t034_ch01.tif.gz,0,0.0,24.726407571513,5.049779461650987,cs4
E4_t035_ch01.tif.gz,0,0.0,24.625777499858167,4.918176142982121,cs4
E4_t036_ch01.tif.gz,0,0.0,24.569670435852032,4.600704259811105,cs4
E4_t037_ch01.tif.gz,0,0.0,24.471666803502778,4.678397374017871,cs4
E4_t038_ch01.tif.gz,0,0.0,24.455571538379814,4.281646038984038,cs4
E4_t039_ch01.tif.gz,0,0.0,24.348823978150953,4.247812362333762,cs4
E4_t040_ch01.tif.gz,0,0.0,24.235995112742184,4.1410247681868455,cs4
E4_t041_ch01.tif.gz,0,0.0,24.15497721880758,3.9819618102753136,cs4
E4_t042_ch01.tif.gz,0,0.0,24.162706449163323,3.975121946568819,cs4
E4_t043_ch01.tif.gz,0,0.0,24.0206581708387,3.7908197371493872,cs4
E4_t044_ch01.tif.gz,0,0.0,23.909490222668893,3.7592305779532635,cs4
E4_t045_ch01.tif.gz,0,0.0,23.853702093168728,3.57181522499101,cs4
E4_t046_ch01.tif.gz,0,0.0,23.83592337667151,3.547431618033899,cs4
E4_t047_ch01.tif.gz,0,0.0,23.81521454418354,3.622388642588662,cs4
E4_t048_ch01.tif.gz,0,0.0,23.728234821405245,3.618834039702714,cs4
E4_t049_ch01.tif.gz,0,0.0,23.71938761288554,3.7205719791176697,cs4
E4_t050_ch01.tif.gz,0,0.0,23.740311536018368,3.733620998940903,cs4
E4_t051_ch01.tif.gz,0,0.0,23.73338596826953,3.6694041766457066,cs4
E4_t052_ch01.tif.gz,0,0.0,23.67327215806155,3.7134294665081025,cs4
E4_t053_ch01.tif.gz,0,0.0,23.842207685229546,4.195047306354496,cs4
E4_t054_ch01.tif.gz,0,0.0,24.015479910999467,4.719958029303654,cs4
E5_t034_ch01.tif.gz,0,0.0,24.24114368481728,5.921829833320626,c13
E5_t035_ch01.tif.gz,0,0.0,24.02881413973001,6.0522520215376705,c13
E5_t036_ch01.tif.gz,0,0.0,24.042201897537034,5.950046026932407,c13
E5_t037_ch01.tif.gz,0,0.0,24.05277239654309,5.705347665154984,c13
E5_t038_ch01.tif.gz,0,0.0,24.119192988099527,5.567591510211852,c13
E5_t039_ch01.tif.gz,0,0.0,24.085047927792335,5.295155679442325,c13
E5_t040_ch01.tif.gz,0,0.0,24.180870269848594,4.8900084163042425,c13
E5_t041_ch01.tif.gz,0,0.0,24.18961824766984,4.8594469694441065,c13
E5_t042_ch01.tif.gz,0,0.0,24.16861702212298,4.732746318021253,c13
E5_t043_ch01.tif.gz,0,0.0,24.17233051687188,4.7244060993621435,c13
E5_t044_ch01.tif.gz,0,0.0,24.182728989620955,4.378169838292965,c13
E5_t045_ch01.tif.gz,0,0.0,24.118834479563894,4.2809157555218,c13
E5_t046_ch01.tif.gz,0,0.0,24.134844677365635,4.20132374673932,cs2
E5_t047_ch01.tif.gz,0,0.0,24.102726064361683,4.115318652484541,cs2
E5_t048_ch01.tif.gz,0,0.0,24.10262254430463,3.9986605558399564,cs2
E5_t049_ch01.tif.gz,0,0.0,24.083611970267036,4.059297332983933,cs2
E5_t050_ch01.tif.gz,0,0.0,24.040358991901414,3.8976677394915646,cs2
E5_t051_ch01.tif.gz,0,0.0,24.019756624383096,3.7427339026546327,cs2
E5_t052_ch01.tif.gz,0,0.0,23.981396537470957,3.69464460981762,cs2
E5_t053_ch01.tif.gz,0,0.0,23.979751660877756,3.674511546627849,cs2
E5_t054_ch01.tif.gz,0,0.0,23.938067706844826,3.5913824172846285,cs2
E5_t055_ch01.tif.gz,0,0.0,23.899874316909596,3.380959155902085,cs2
E5_t056_ch01.tif.gz,0,0.0,23.8821214052438,3.418757369148421,cs2
E5_t057_ch01.tif.gz,0,0.0,23.87210729223155,3.4264515239725553,cs2
E5_t058_ch01.tif.gz,0,0.0,23.83380188741442,3.3232099808185738,cs2
E5_t059_ch01.tif.gz,0,0.0,23.823982771642616,3.349321131297785,cs2
E5_t060_ch01.tif.gz,0,0.0,23.798631499289186,3.1412512211996235,cs2
E5_t061_ch01.tif.gz,0,0.0,23.75566099245439,3.1003359561598764,cs2
E5_t062_ch01.tif.gz,0,0.0,23.742814502606684,3.076007063299313,cs2
E5_t063_ch01.tif.gz,0,0.0,23.735598926843984,3.0392738440517952,cs2
E5_t064_ch01.tif.gz,0,0.0,23.7157845226716,3.1461375485740777,cs2
E5_t065_ch01.tif.gz,0,0.0,23.839225126554812,2.433470665770186,cs2
E5_t066_ch01.tif.gz,0,0.0,24.161171359880882,2.7529092268033724,cs2
E5_t067_ch01.tif.gz,0,0.0,24.22416854530554,3.532173026164843,cs2
F1_t171_ch00.tif.gz,0,0.0,23.877472435884147,2.3057682563656834,d2d
F1_t179_ch00.tif.gz,0,0.0,23.913475989238638,2.1647446745320784,d2d
F1_t186_ch00.tif.gz,0,0.0,23.913889420478192,2.2599936409183536,d2d
F1_t193_ch00.tif.gz,0,0.0,23.81570889084778,2.401318426439376,d2d
F1_t201_ch00.tif.gz,0,0.0,23.776586334560292,2.3609209940496387,d2d
F1_t209_ch00.tif.gz,0,0.0,23.752650311497344,2.251119102541362,d2d
F1_t216_ch00.tif.gz,0,0.0,23.710833833915224,2.262182144631234,d2d
F1_t223_ch00.tif.gz,0,0.0,23.665956797231676,2.2673084485338753,d2d
F1_t231_ch00.tif.gz,0,0.0,23.654645505460394,2.4048628794018723,d2d
F1_t239_ch00.tif.gz,0,0.0,23.597729478797575,2.5609161493261645,d2d
F1_t246_ch00.tif.gz,0,0.0,23.554187294176142,2.843153695463338,d2d
F1_t253_ch00.tif.gz,0,0.0,23.55772622703539,2.773498122955443,d2d
F1_t261_ch00.tif.gz,0,0.0,23.49592673355712,2.894755072096421,d2d
F1_t269_ch00.tif.gz,0,0.0,23.455434163458467,2.9485953352361944,d2d
F1_t276_ch00.tif.gz,0,0.0,23.42487880726394,2.874117506402274,d2d
F1_t283_ch00.tif.gz,0,0.0,23.401829884644336,2.6852459141036102,d2d
F1_t291_ch00.tif.gz,0,0.0,23.37362840866508,2.8852844174792254,d2d
F1_t299_ch00.tif.gz,0,0.0,23.366077189846507,2.8312694823978126,d2d
F1_t306_ch00.tif.gz,0,0.0,23.379170329893903,2.8368649044724514,d2d
F1_t313_ch00.tif.gz,0,0.0,23.44845513569326,2.6799120625486808,d2d
F1_t321_ch00.tif.gz,0,0.0,23.499742681774407,2.3155614368473323,d2d
F1_t329_ch00.tif.gz,0,0.0,23.565489975139496,1.9784772500754384,d2d
F1_t336_ch00.tif.gz,0,0.0,23.549376255932636,2.1144049875791113,d2d
F1_t343_ch00.tif.gz,0,0.0,23.532395548436664,2.2099298401621756,d2d
F1_t351_ch00.tif.gz,0,0.0,23.514167431795407,2.2553257979433443,d2d
F1_t359_ch00.tif.gz,0,0.0,23.519112696155275,2.0527911755156123,d2d
F1_t366_ch00.tif.gz,0,0.0,23.517733287370532,1.9636405090273668,d2d
F1_t373_ch00.tif.gz,0,0.0,23.50782082806397,2.098880014034095,d2d
F1_t381_ch00.tif.gz,0,0.0,23.521323727758485,1.9720678690886928,d2d
F1_t389_ch00.tif.gz,0,0.0,23.540015330877278,2.024651086534682,d2d
F1_t396_ch00.tif.gz,0,0.0,23.543610066996614,2.0418951034483186,d2d
F1_t403_ch00.tif.gz,0,0.0,23.553152449230133,1.9276204685537308,d2d
F1_t411_ch00.tif.gz,0,0.0,23.588383752776956,1.7822554834059945,d2d
F1_t419_ch00.tif.gz,0,0.0,23.599451496453476,1.8728713386449973,d2d
F1_t426_ch00.tif.gz,0,0.0,23.664871801653,1.6951401257142011,d2d
F1_t433_ch00.tif.gz,0,0.0,23.704564094939116,1.468251392970854,d2d
F2_t113_ch00.tif.gz,0,0.0,24.874468016796335,2.3708439676488817,c13
F2_t121_ch00.tif.gz,0,0.0,24.930759183605762,2.19635366609976,d2d
F2_t128_ch00.tif.gz,0,0.0,24.937678706261018,2.1513726942564926,d2d
F2_t135_ch00.tif.gz,0,0.0,24.913375563475824,2.3874099083382845,d2d
F2_t143_ch00.tif.gz,0,0.0,24.932284732478504,2.4587563564805284,d2d
F2_t151_ch00.tif.gz,0,0.0,24.834393505590782,2.5628508271265997,d2d
F2_t158_ch00.tif.gz,0,0.0,24.81151122688167,2.60083026880863,d2d
F2_t165_ch00.tif.gz,0,0.0,24.74146435169248,2.680294300990802,d2d
F2_t173_ch00.tif.gz,0,0.0,24.718953974889402,2.5853291194136405,d2d
F2_t181_ch00.tif.gz,0,0.0,24.68112697557283,2.6739163989144044,d2d
F2_t188_ch00.tif.gz,0,0.0,24.6063246208994,2.672069436575904,d2d
F2_t195_ch00.tif.gz,0,0.0,24.58085909532729,2.6253084298446203,d2d
F2_t203_ch00.tif.gz,0,0.0,24.519208820268453,2.656761655407983,d2d
F2_t211_ch00.tif.gz,0,0.0,24.45494958167285,2.6818041507841754,d2d
F2_t218_ch00.tif.gz,0,0.0,24.384014647626895,2.616495525435736,d2d
F2_t225_ch00.tif.gz,0,0.0,24.328825080373353,2.5999075771082163,d2d
F2_t233_ch00.tif.gz,0,0.0,24.28513373068566,2.6011231665536396,d2d
F2_t241_ch00.tif.gz,0,0.0,24.23502280318543,2.6128397498637588,d2d
F2_t248_ch00.tif.gz,0,0.0,24.183971439233865,2.750434097197436,d2d
F2_t255_ch00.tif.gz,0,0.0,24.156129485996182,2.76404357896543,d2d
F2_t263_ch00.tif.gz,0,0.0,24.11833641549049,2.694101111104987,d2d
F2_t271_ch00.tif.gz,0,0.0,24.057918922754425,2.654595102254709,d2d
F2_t278_ch00.tif.gz,0,0.0,24.086141714407546,2.5946955890669448,d2d
F2_t285_ch00.tif.gz,0,0.0,24.07305994398683,2.4575700096570157,d2d
F2_t293_ch00.tif.gz,0,0.0,24.118431226557515,2.25385453157632,d2d
F2_t301_ch00.tif.gz,0,0.0,24.09783568240136,2.248035036230614,d2d
F2_t308_ch00.tif.gz,0,0.0,24.106991524903393,2.2026798487240744,d2d
F2_t315_ch00.tif.gz,0,0.0,24.112688065831342,2.180901477388024,d2d
F2_t323_ch00.tif.gz,0,0.0,24.070135279961033,2.2537832535621733,d2d
F2_t331_ch00.tif.gz,0,0.0,24.03052789117884,2.241827411803253,d2d
F2_t338_ch00.tif.gz,0,0.0,24.032888773850797,2.2154795307184734,d2d
F2_t345_ch00.tif.gz,0,0.0,24.019755545552258,2.2094245543567097,d2d
F2_t353_ch00.tif.gz,0,0.0,23.993414708548393,2.1850101955460204,d2d
F2_t361_ch00.tif.gz,0,0.0,23.98521813623764,2.2168851264142613,d2d
F2_t368_ch00.tif.gz,0,0.0,23.987468347033627,2.0691425867046416,d2d
F2_t375_ch00.tif.gz,0,0.0,23.966588846037997,2.0288043989878495,d2d
F2_t383_ch00.tif.gz,0,0.0,23.956699344742894,1.8517105656405144,d2d
F2_t391_ch00.tif.gz,0,0.0,24.078856488160465,2.388628534003586,d2d
F2_t398_ch00.tif.gz,0,0.0,24.258577722889083,2.2149246744249886,d2d
F2_t405_ch00.tif.gz,0,0.0,24.2556741936506,2.3692236732602034,d2d
F3_t068_ch00.tif.gz,0,0.0,24.463126220971205,5.393271878515653,c11
F3_t075_ch00.tif.gz,0,0.0,24.524464738409293,5.20394117982833,c11
F3_t083_ch00.tif.gz,0,0.0,24.615730512271448,5.233310857621723,cs1
F3_t090_ch00.tif.gz,0,0.0,24.692187865785748,5.079989658291212,cs1
F3_t098_ch00.tif.gz,0,0.0,24.655333939686216,4.870343123008088,cs1
F3_t105_ch00.tif.gz,0,0.0,24.655149950145965,4.928951227414011,cs1
F3_t113_ch00.tif.gz,0,0.0,24.658810345038546,4.738292283738166,cs2
F3_t120_ch00.tif.gz,0,0.0,24.702204457773085,4.379990147368523,cs2
F3_t128_ch00.tif.gz,0,0.0,24.769703583487782,4.328860835035311,cs2
F3_t135_ch00.tif.gz,0,0.0,24.775326318794832,4.346809589041546,cs2
F3_t143_ch00.tif.gz,0,0.0,24.745050390984918,4.418271339817274,cs2
F3_t150_ch00.tif.gz,0,0.0,24.771394569243085,4.449565550866511,cs2
F3_t158_ch00.tif.gz,0,0.0,24.748411546412356,4.552288193500121,cs2
F3_t165_ch00.tif.gz,0,0.0,24.75584514997003,4.563042947542485,cs2
F3_t173_ch00.tif.gz,0,0.0,24.752783916845168,4.559467557968357,cs2
F3_t180_ch00.tif.gz,0,0.0,24.718228759185912,4.461312035032788,cs2
F3_t188_ch00.tif.gz,0,0.0,24.70252327993218,4.426171820995057,cs2
F3_t195_ch00.tif.gz,0,0.0,24.701144412978998,4.495232150581247,cs2
F3_t203_ch00.tif.gz,0,0.0,24.658958846028007,4.601973635742245,cs2
F3_t210_ch00.tif.gz,0,0.0,24.633090092552283,4.439742848573472,cs2
F3_t218_ch00.tif.gz,0,0.0,24.651189061012914,4.435728147924227,cs2
F3_t225_ch00.tif.gz,0,0.0,24.636504330644133,4.3260101003853375,cs2
F3_t233_ch00.tif.gz,0,0.0,24.5674923353789,4.411552882896133,cs2
F3_t240_ch00.tif.gz,0,0.0,24.543966002581023,4.378950752430548,cs2
F3_t248_ch00.tif.gz,0,0.0,24.48260178198525,4.326662726448774,cs2
F3_t255_ch00.tif.gz,0,0.0,24.438289702408373,4.178861696932422,cs2
F3_t263_ch00.tif.gz,0,0.0,24.44259712075901,3.793217918574891,cs2
F3_t270_ch00.tif.gz,0,0.0,24.416095434785483,3.464046464858581,cs2
F3_t278_ch00.tif.gz,0,0.0,24.320519728005394,3.2204572441824086,cs2
F3_t285_ch00.tif.gz,0,0.0,24.25801732461318,2.9303840393664715,cs2
F3_t293_ch00.tif.gz,0,0.0,24.117095172762568,2.8524932632493862,cs2
F3_t300_ch00.tif.gz,0,0.0,23.92999768638118,2.5591246571780673,cs2
F3_t308_ch00.tif.gz,0,0.0,23.876190597665772,2.392531895335531,cs2
F3_t315_ch00.tif.gz,0,0.0,23.78927225089045,2.1637721021805363,cs2
F3_t323_ch00.tif.gz,0,0.0,23.736793778711455,2.0504739057664643,cs2
F3_t330_ch00.tif.gz,0,0.0,23.758028279091263,1.8105946871965106,cs2
F3_t338_ch00.tif.gz,0,0.0,23.733371093501766,1.8530574588791207,cs2
F3_t345_ch00.tif.gz,0,0.0,23.666980567664044,1.849817508241996,cs2
F3_t353_ch00.tif.gz,0,0.0,23.650511065361144,2.0457768838988355,cs2
F3_t360_ch00.tif.gz,0,0.0,23.58010374512137,1.9439135378559544,cs2
F3_t368_ch00.tif.gz,0,0.0,23.727866762676182,2.216108167404801,cs2
F3_t375_ch00.tif.gz,0,0.0,23.604412345543743,2.5745807735486643,cs2
F4_t185_ch00.tif.gz,0,0.0,24.504104773436104,4.426094015357595,cs2
F4_t193_ch00.tif.gz,0,0.0,24.52220714056586,4.044026284728427,cs2
F4_t200_ch00.tif.gz,0,0.0,24.438785844694777,4.045860662888397,cs2
F4_t207_ch00.tif.gz,0,0.0,24.437756922567356,4.0912368904741685,cs2
F4_t215_ch00.tif.gz,0,0.0,24.422327380359846,4.154345436993741,cs2
F4_t223_ch00.tif.gz,0,0.0,24.36551778239765,4.2802819375823615,cs2
F4_t230_ch00.tif.gz,0,0.0,24.384300405672477,4.278459363673679,cs2
F4_t237_ch00.tif.gz,0,0.0,24.308055614821267,4.340029699276281,cs2
F4_t245_ch00.tif.gz,0,0.0,24.2149506090483,4.292315490680512,cs2
F4_t253_ch00.tif.gz,0,0.0,24.145741618074545,4.247488007488148,cs2
F4_t260_ch00.tif.gz,0,0.0,24.093714573612797,4.215810661487287,cs2
F4_t267_ch00.tif.gz,0,0.0,24.020087991491373,4.094026649317485,cs2
F4_t275_ch00.tif.gz,0,0.0,24.005898640529566,4.237082388261714,cs2
F4_t283_ch00.tif.gz,0,0.0,23.906493485763498,4.155136613567869,cs2
F4_t290_ch00.tif.gz,0,0.0,23.882502046677978,4.035507320114767,cs2
F4_t297_ch00.tif.gz,0,0.0,23.829109697328143,4.071816507269392,cs2
F4_t305_ch00.tif.gz,0,0.0,23.74037694789623,3.8964816993736306,cs2
F4_t313_ch00.tif.gz,0,0.0,23.72938899325993,3.843133992549622,cs2
F4_t320_ch00.tif.gz,0,0.0,23.664287944912566,3.857248431705408,cs2
F4_t327_ch00.tif.gz,0,0.0,23.671252424677558,3.923582827702157,cs2
F4_t335_ch00.tif.gz,0,0.0,23.64754608302634,3.7318666247148307,cs2
F4_t343_ch00.tif.gz,0,0.0,23.643761954404635,3.621649562916889,cs2
F4_t350_ch00.tif.gz,0,0.0,23.641338734699975,3.6262291950891026,cs2
F4_t357_ch00.tif.gz,0,0.0,23.63140942006062,3.5560978022243708,cs2
F4_t365_ch00.tif.gz,0,0.0,23.6774363425599,3.2618949456899164,cs2
F4_t373_ch00.tif.gz,0,0.0,23.729339732808402,3.2000196530089355,cs2
F4_t380_ch00.tif.gz,0,0.0,23.67823602624526,3.1917886949598393,cs2
F4_t387_ch00.tif.gz,0,0.0,23.62291908183147,3.426267487722789,cs2
G1_t245_ch00.tif.gz,0,0.0,24.62831465836509,2.9395432623361164,cs2
G1_t253_ch00.tif.gz,0,0.0,24.526634979904173,3.1610557720110077,cs2
G1_t260_ch00.tif.gz,0,0.0,24.5175129895862,3.130508863213518,cs2
G1_t267_ch00.tif.gz,0,0.0,24.482132095802957,3.200245199716074,cs2
G1_t275_ch00.tif.gz,0,0.0,24.445247453159652,3.132700121346416,cs2
G1_t283_ch00.tif.gz,0,0.0,24.33783050336887,3.2014763160930606,cs2
G1_t290_ch00.tif.gz,0,0.0,24.261437127488186,3.207463275485502,cs2
G1_t297_ch00.tif.gz,0,0.0,24.239258012033577,3.106227391360244,cs2
G1_t305_ch00.tif.gz,0,0.0,24.1911649094151,3.0158682845238416,cs2
G1_t313_ch00.tif.gz,0,0.0,24.105821634762783,3.121655947583656,cs2
G1_t320_ch00.tif.gz,0,0.0,24.002928957783816,3.2262749085230085,cs2
G1_t327_ch00.tif.gz,0,0.0,23.977182529672515,3.1642008508183777,cs2
G1_t335_ch00.tif.gz,0,0.0,23.903311813857968,3.2276100684710065,cs2
G1_t343_ch00.tif.gz,0,0.0,23.84959589683684,3.2451708001044888,cs2
G1_t350_ch00.tif.gz,0,0.0,23.794038046511176,3.1423965979892543,cs2
G1_t357_ch00.tif.gz,0,0.0,23.784306066776523,2.888579179414787,cs2
G1_t365_ch00.tif.gz,0,0.0,23.77211724539918,2.6365429275893413,cs2
G1_t373_ch00.tif.gz,0,0.0,23.70580011663432,2.516282579707895,cs2
G1_t380_ch00.tif.gz,0,0.0,23.668247696706963,2.7202381566529823,cs2
G1_t387_ch00.tif.gz,0,0.0,23.592136861281368,2.71593905114922,cs2
G1_t395_ch00.tif.gz,0,0.0,23.61703819804474,2.698028489918229,cs2
G1_t403_ch00.tif.gz,0,0.0,23.56599525996289,2.566874356817144,cs2
G1_t410_ch00.tif.gz,0,0.0,23.710220445165263,2.4566417270066236,cs2
G1_t417_ch00.tif.gz,0,0.0,23.84854818040303,2.701704372196569,cs2
G1_t425_ch00.tif.gz,0,0.0,24.06437517476347,2.3166652517526587,cs2
G2_t054_ch00.tif.gz,0,0.0,24.262503790404484,3.347754708944418,cs5
G2_t062_ch00.tif.gz,0,0.0,24.384699803243244,3.4603572442029433,cs2
G2_t069_ch00.tif.gz,0,0.0,24.5088322735528,3.4267958672979546,cs2
G2_t076_ch00.tif.gz,0,0.0,24.50538553897413,3.6493013829344707,cs2
G2_t084_ch00.tif.gz,0,0.0,24.5524398887049,3.4708175229749694,cs2
G2_t092_ch00.tif.gz,0,0.0,24.54864147452806,3.474326072109131,cs2
G2_t099_ch00.tif.gz,0,0.0,24.550126519286152,3.5244788064581254,cs2
G2_t106_ch00.tif.gz,0,0.0,24.566265219629635,3.3060781252471543,cs2
G2_t114_ch00.tif.gz,0,0.0,24.486892933936126,3.2695546235495,cs2
G2_t122_ch00.tif.gz,0,0.0,24.446602481226524,3.2321879741872523,cs2
G2_t129_ch00.tif.gz,0,0.0,24.442155022997472,3.0374720671531406,cs2
G2_t136_ch00.tif.gz,0,0.0,24.368446254308747,3.064891187993838,cs2
G2_t144_ch00.tif.gz,0,0.0,24.344442567902455,3.0987920119456427,cs2
G2_t152_ch00.tif.gz,0,0.0,24.386340270323508,2.9463858229855,cs2
G2_t159_ch00.tif.gz,0,0.0,24.306421207686228,2.8988688901776687,cs2
G2_t166_ch00.tif.gz,0,0.0,24.249508367977107,2.90059922362283,cs2
G2_t174_ch00.tif.gz,0,0.0,24.202519354614257,2.975191890211759,cs2
G2_t182_ch00.tif.gz,0,0.0,24.14951929780895,3.095222483897476,cs2
G2_t189_ch00.tif.gz,0,0.0,24.150260208866044,3.1287263652583595,cs2
G2_t196_ch00.tif.gz,0,0.0,24.091072832275003,3.1142156498605655,cs2
G2_t204_ch00.tif.gz,0,0.0,24.094215340311074,3.0400337970767466,d2d
G2_t212_ch00.tif.gz,0,0.0,24.059159319433817,2.904679204941567,d2d
G2_t219_ch00.tif.gz,0,0.0,24.015852251065986,2.8928832286071864,d2d
G2_t226_ch00.tif.gz,0,0.0,23.98813214169608,2.93309184158588,d2d
G2_t234_ch00.tif.gz,0,0.0,23.96810782467224,2.854358045648623,d2d
G2_t242_ch00.tif.gz,0,0.0,23.87904417211648,2.86395274544966,d2d
G2_t249_ch00.tif.gz,0,0.0,23.844120152257602,2.841415788871601,d2d
G2_t256_ch00.tif.gz,0,0.0,23.796850359909108,2.6475909614784796,d2d
G2_t264_ch00.tif.gz,0,0.0,23.74910655461357,2.6586096588576194,d2d
G2_t272_ch00.tif.gz,0,0.0,23.723393105750297,2.5791882385687908,d2d
G2_t279_ch00.tif.gz,0,0.0,23.726259103192834,2.490807561246693,d2d
G2_t286_ch00.tif.gz,0,0.0,23.67086624391908,2.3577735618362605,d2d
G2_t294_ch00.tif.gz,0,0.0,23.634095534542983,2.1571993313355806,d2d
G2_t302_ch00.tif.gz,0,0.0,23.637151928113248,1.9858077271959973,d2d
G2_t309_ch00.tif.gz,0,0.0,23.603661212937844,1.710558869701305,d2d
G2_t316_ch00.tif.gz,0,0.0,23.69625824978067,2.0292630392005226,d2d
G2_t324_ch00.tif.gz,0,0.0,23.712575146276283,2.1330705433294637,d2d
G2_t332_ch00.tif.gz,0,0.0,23.677295514428188,1.8774991803408325,d2d
G3_t189_ch00.tif.gz,0,0.0,24.46757486121489,3.778813182341804,cs2
G3_t197_ch00.tif.gz,0,0.0,24.54802547373979,3.504179862030064,d2d
G3_t204_ch00.tif.gz,0,0.0,24.57556791110667,3.3287261640176027,d2d
G3_t211_ch00.tif.gz,0,0.0,24.56311137224447,3.369007231462361,d2d
G3_t219_ch00.tif.gz,0,0.0,24.563916310603403,3.2996041020863043,d2d
G3_t227_ch00.tif.gz,0,0.0,24.59189804807243,3.216468733405745,d2d
G3_t234_ch00.tif.gz,0,0.0,24.561972637406566,3.0923584683201035,d2d
G3_t241_ch00.tif.gz,0,0.0,24.553410480326054,2.995119642907786,d2d
G3_t249_ch00.tif.gz,0,0.0,24.55585434398985,3.0260650523863695,d2d
G3_t257_ch00.tif.gz,0,0.0,24.557715867254643,3.0773347702656744,d2d
G3_t264_ch00.tif.gz,0,0.0,24.528917884407804,3.0207123465080357,d2d
G3_t271_ch00.tif.gz,0,0.0,24.48869602278377,2.9719547118282668,d2d
G3_t279_ch00.tif.gz,0,0.0,24.462781371817805,2.994784716521674,d2d
G3_t287_ch00.tif.gz,0,0.0,24.411584370545356,3.002590155831429,d2d
G3_t294_ch00.tif.gz,0,0.0,24.40668713596053,3.0783273409837295,d2d
G3_t301_ch00.tif.gz,0,0.0,24.403290529518486,3.1409527138506297,d2d
G3_t309_ch00.tif.gz,0,0.0,24.374767695504104,3.0723431486138164,d2d
G3_t317_ch00.tif.gz,0,0.0,24.363113182090196,2.827461944318361,d2d
G3_t324_ch00.tif.gz,0,0.0,24.34716786462885,2.7882443163062405,d2d
G3_t331_ch00.tif.gz,0,0.0,24.24917108979437,2.7262454335095767,d2d
G3_t339_ch00.tif.gz,0,0.0,24.1619235235818,2.7253368688686472,d2d
G3_t347_ch00.tif.gz,0,0.0,24.084631935146987,2.7050297696258245,d2d
G3_t354_ch00.tif.gz,0,0.0,24.02900032025031,2.7492439000179907,d2d
G3_t361_ch00.tif.gz,0,0.0,23.9592311690634,2.6194142266965037,d2d
G3_t369_ch00.tif.gz,0,0.0,23.83074204012013,2.5705714178971433,d2d
G3_t377_ch00.tif.gz,0,0.0,23.761531253849494,2.7013969206701436,d2d
G3_t384_ch00.tif.gz,0,0.0,23.69419869347702,2.723504929162584,d2d
G3_t391_ch00.tif.gz,0,0.0,23.673493964078418,2.5301149700592713,d2d
G3_t399_ch00.tif.gz,0,0.0,23.638786607577586,2.7424423385770105,d2d
G3_t407_ch00.tif.gz,0,0.0,23.621102540859248,2.6093304596214972,d2d
G3_t414_ch00.tif.gz,0,0.0,23.54161625047685,2.5352948243921896,d2d
G3_t421_ch00.tif.gz,0,0.0,23.55309519262921,2.4584877230484614,d2d
G3_t429_ch00.tif.gz,0,0.0,23.527903046986673,2.1282498238579306,d2d
G3_t437_ch00.tif.gz,0,0.0,23.526226002528624,2.195677202746718,d2d
G3_t444_ch00.tif.gz,0,0.0,23.535978117911906,2.0219800100518723,d2d
G3_t451_ch00.tif.gz,0,0.0,23.509678948602165,2.1097726949134317,d2d
G3_t459_ch00.tif.gz,0,0.0,23.486889600204815,1.8396465651943663,d2d
G3_t467_ch00.tif.gz,0,0.0,23.505022554645407,1.9584268271611083,d2d
G3_t474_ch00.tif.gz,0,0.0,23.55075201831552,2.089748551293866,d2d
G3_t481_ch00.tif.gz,0,0.0,23.555166386263934,2.121615976513987,d2d
G4_t128_ch00.tif.gz,0,0.0,24.957489366576787,2.7486986278245977,cs2
G4_t136_ch00.tif.gz,0,0.0,24.843836302535742,3.0558866533420628,c2v1
G4_t143_ch00.tif.gz,0,0.0,24.806945387064843,3.3522508908734054,c2v1
G4_t150_ch00.tif.gz,0,0.0,24.7236470025756,3.625164172417218,c2v1
G4_t158_ch00.tif.gz,0,0.0,24.784831121934435,3.806398366285671,c2v1
G4_t166_ch00.tif.gz,0,0.0,24.750312779232587,3.8095578490578172,c2v1
G4_t173_ch00.tif.gz,0,0.0,24.71799780693282,3.759873278768492,c2v1
G4_t180_ch00.tif.gz,0,0.0,24.727120453506878,3.7100126046343207,c2v1
G4_t188_ch00.tif.gz,0,0.0,24.701463901983075,3.6869660605736545,c2v1
G4_t196_ch00.tif.gz,0,0.0,24.645436392267285,3.580200929269368,c2v1
G4_t203_ch00.tif.gz,0,0.0,24.62215378072474,3.513494531699411,c2v1
G4_t210_ch00.tif.gz,0,0.0,24.583041380379477,3.3413855530960848,c2v1
G4_t218_ch00.tif.gz,0,0.0,24.555124689426307,3.158324692408236,d2d
G4_t226_ch00.tif.gz,0,0.0,24.462919078502306,3.058417837229592,d2d
G4_t233_ch00.tif.gz,0,0.0,24.424454903674544,3.0689957753946264,d2d
G4_t240_ch00.tif.gz,0,0.0,24.349324972484734,2.9588549411444998,d2d
G4_t248_ch00.tif.gz,0,0.0,24.298559849943853,3.022251940251164,d2d
G4_t256_ch00.tif.gz,0,0.0,24.244541906597995,2.9290318242276623,d2d
G4_t263_ch00.tif.gz,0,0.0,24.182796525407053,2.9586253922768853,d2d
G4_t270_ch00.tif.gz,0,0.0,24.129119025745943,2.9144304986006304,d2d
G4_t278_ch00.tif.gz,0,0.0,24.058528946668183,2.841060266350029,d2d
G4_t286_ch00.tif.gz,0,0.0,24.014326158326618,2.864519660387473,d2d
G4_t293_ch00.tif.gz,0,0.0,23.972463709162916,2.7475470642493627,d2d
G4_t300_ch00.tif.gz,0,0.0,23.936413925916025,2.6885745257049742,d2d
G4_t308_ch00.tif.gz,0,0.0,23.886909534908995,2.4944252212484646,d2d
G4_t316_ch00.tif.gz,0,0.0,23.84725372041583,2.313323554933308,d2d
G4_t323_ch00.tif.gz,0,0.0,23.778847837417366,1.9621988575955036,d2d
G4_t330_ch00.tif.gz,0,0.0,23.753482997368497,1.896107932059229,d2d
G4_t338_ch00.tif.gz,0,0.0,23.72885043409532,1.8348982301794503,d2d
G4_t346_ch00.tif.gz,0,0.0,23.723012881218757,1.8092069047004844,d2d
G4_t353_ch00.tif.gz,0,0.0,23.69578811106194,1.7230773519851472,d2d
G4_t360_ch00.tif.gz,0,0.0,23.663111957734756,1.8533645434284098,d2d
G4_t368_ch00.tif.gz,0,0.0,23.620671638573544,1.7526224580866614,d2d
G4_t376_ch00.tif.gz,0,0.0,23.588863424555036,1.8788092347138665,d2d
G4_t383_ch00.tif.gz,0,0.0,23.568952242524276,1.66246094978293,d2d
G4_t390_ch00.tif.gz,0,0.0,23.61529285553041,1.73047933513421,d2d
G4_t398_ch00.tif.gz,0,0.0,23.668981641436055,1.92364168804665,d2d
G4_t406_ch00.tif.gz,0,0.0,23.552144333662522,1.6308058644534897,d2d
G5_t099_ch00.tif.gz,0,0.0,24.47389730972478,1.5962590715395975,d2d
G5_t106_ch00.tif.gz,0,0.0,24.52239660435476,1.5281570104963405,d2d
G5_t114_ch00.tif.gz,0,0.0,24.433843856024527,1.665925237548305,d2d
G5_t121_ch00.tif.gz,0,0.0,24.455230766284277,1.7919311721473112,d2d
G5_t129_ch00.tif.gz,0,0.0,24.479430217903577,1.9048146341292385,d2d
G5_t136_ch00.tif.gz,0,0.0,24.513699834868092,2.112468181980154,d2d
G5_t144_ch00.tif.gz,0,0.0,24.483754389701076,2.2648117600047155,d2d
G5_t151_ch00.tif.gz,0,0.0,24.46378473288649,2.382865965134515,d2d
G5_t159_ch00.tif.gz,0,0.0,24.425451620829232,2.249427875159556,d2d
G5_t166_ch00.tif.gz,0,0.0,24.473205765247283,2.278495234098406,d2d
G5_t174_ch00.tif.gz,0,0.0,24.45996134477187,2.1999778188390593,d2d
G5_t181_ch00.tif.gz,0,0.0,24.412558456224406,2.2368346960865653,d2d
G5_t189_ch00.tif.gz,0,0.0,24.4448373837541,2.1725777780489044,d2d
G5_t196_ch00.tif.gz,0,0.0,24.43053092466871,2.1067823864992063,d2d
G5_t204_ch00.tif.gz,0,0.0,24.3268274768683,2.142465140515927,d2d
G5_t211_ch00.tif.gz,0,0.0,24.356498467875497,2.1100128467457098,d2d
G5_t219_ch00.tif.gz,0,0.0,24.374337100672843,2.252361202809032,d2d
G5_t226_ch00.tif.gz,0,0.0,24.350680992479557,2.369251739594057,d2d
G5_t234_ch00.tif.gz,0,0.0,24.36227209906572,2.4233391224664502,d2d
G5_t241_ch00.tif.gz,0,0.0,24.33132461914939,2.427939218335161,d2d
G5_t249_ch00.tif.gz,0,0.0,24.343976557026945,2.3799711051115575,d2d
G5_t256_ch00.tif.gz,0,0.0,24.35273941285888,2.2477818216897076,d2d
G5_t264_ch00.tif.gz,0,0.0,24.350712043297328,2.1776019223959677,d2d
G5_t271_ch00.tif.gz,0,0.0,24.3668001675223,2.0329704077720296,d2d
G5_t279_ch00.tif.gz,0,0.0,24.37116344677932,1.8680411998311788,d2d
G5_t286_ch00.tif.gz,0,0.0,24.355988171923308,1.71872277377388,d2d
G5_t294_ch00.tif.gz,0,0.0,24.33323331976327,1.6424284582228457,d2d
G5_t301_ch00.tif.gz,0,0.0,24.303469834597102,1.6536261994660704,d2d
G5_t309_ch00.tif.gz,0,0.0,24.296855156735802,1.5657082918198946,d2d
G5_t316_ch00.tif.gz,0,0.0,24.225147861025228,1.573642210676138,d2d
G5_t324_ch00.tif.gz,0,0.0,24.137465638455808,1.6707717122033168,d2d
G5_t331_ch00.tif.gz,0,0.0,24.098764446364004,1.6087975094797013,d2d
G5_t339_ch00.tif.gz,0,0.0,24.041064888186433,1.7561437278454057,d2d
G5_t346_ch00.tif.gz,0,0.0,23.98221258000341,1.791573996667622,d2d
G5_t354_ch00.tif.gz,0,0.0,23.899904288896437,1.827278364339626,d2d
G5_t361_ch00.tif.gz,0,0.0,23.876050282969018,1.8245804272304553,d2d
G5_t369_ch00.tif.gz,0,0.0,23.815908943994188,1.7841709287555156,d2d
G5_t376_ch00.tif.gz,0,0.0,23.79954182363823,1.7836951919762438,d2d
G5_t384_ch00.tif.gz,0,0.0,23.710216131726817,1.9002978451879067,cs2
G5_t391_ch00.tif.gz,0,0.0,23.666766833967795,1.812292197382471,cs2
G5_t399_ch00.tif.gz,0,0.0,23.71015949721837,1.8901366735831882,d2d
G5_t406_ch00.tif.gz,0,0.0,23.661402744340222,1.966748161892708,d2d
G5_t414_ch00.tif.gz,0,0.0,23.620738404692055,1.91541624562626,d2d
