name,x,y
FA10_t008_ch02.tif.gz,5.035488128662109,-8.147588729858398
FA10_t009_ch02.tif.gz,7.168325901031494,-1.246319055557251
FA10_t010_ch02.tif.gz,6.981190204620361,-1.2839573621749878
FA10_t011_ch02.tif.gz,6.577391147613525,-0.8509864807128906
FA10_t012_ch02.tif.gz,5.04403018951416,0.7211906909942627
FA10_t013_ch02.tif.gz,3.782515287399292,0.966790497303009
FA10_t014_ch02.tif.gz,5.393564701080322,-0.2417571097612381
FA10_t015_ch02.tif.gz,3.4678585529327393,-3.612260103225708
FA10_t016_ch02.tif.gz,3.4304556846618652,-3.170384645462036
FA10_t017_ch02.tif.gz,3.13114857673645,-2.965700149536133
FA10_t018_ch02.tif.gz,4.566988945007324,-3.608872175216675
FA10_t019_ch02.tif.gz,4.239995002746582,-4.561853408813477
FA10_t020_ch02.tif.gz,3.5101165771484375,-0.2802830934524536
FA10_t021_ch02.tif.gz,3.4816887378692627,-1.2506681680679321
FA10_t022_ch02.tif.gz,3.898084878921509,-2.1835856437683105
FA10_t023_ch02.tif.gz,4.448731899261475,-4.883191108703613
FA10_t024_ch02.tif.gz,6.234230041503906,-4.555266857147217
FA10_t025_ch02.tif.gz,6.417903900146484,-5.535812854766846
FA10_t026_ch02.tif.gz,6.087094306945801,-5.0008158683776855
FA10_t027_ch02.tif.gz,8.358072280883789,-3.3742575645446777
FA10_t028_ch02.tif.gz,8.387419700622559,-3.4457168579101562
FA10_t029_ch02.tif.gz,7.896941184997559,-5.769231796264648
FA10_t030_ch02.tif.gz,9.276457786560059,-3.8640551567077637
FA10_t031_ch02.tif.gz,6.282726287841797,-6.663891792297363
FA10_t032_ch02.tif.gz,7.838001251220703,-6.568785190582275
FA10_t033_ch02.tif.gz,6.955819606781006,-7.06964111328125
FA10_t034_ch02.tif.gz,6.975393295288086,-2.893728017807007
FA10_t035_ch02.tif.gz,9.757499694824219,-6.916487693786621
FA10_t036_ch02.tif.gz,9.65754222869873,-6.774363994598389
FA10_t037_ch02.tif.gz,10.314305305480957,-4.9387407302856445
FA10_t038_ch02.tif.gz,10.194011688232422,-6.084855079650879
FA10_t039_ch02.tif.gz,10.52688217163086,-4.953952312469482
FA10_t040_ch02.tif.gz,5.591681957244873,-1.492940902709961
FA10_t041_ch02.tif.gz,8.079095840454102,-1.0967453718185425
FA10_t042_ch02.tif.gz,11.25297737121582,-8.080399513244629
FA10_t043_ch02.tif.gz,10.633430480957031,-7.097231388092041
FA10_t044_ch02.tif.gz,5.794920444488525,-6.572093486785889
FA11_t013_ch02.tif.gz,0.4482334554195404,-0.2599008083343506
FA11_t014_ch02.tif.gz,-0.018278762698173523,0.09611129015684128
FA11_t015_ch02.tif.gz,-2.8877854347229004,-1.8835171461105347
FA11_t016_ch02.tif.gz,-2.5368058681488037,-1.9124900102615356
FA11_t017_ch02.tif.gz,-1.186906099319458,-11.952787399291992
FA11_t018_ch02.tif.gz,-0.463962584733963,-11.138985633850098
FA11_t019_ch02.tif.gz,0.7225565910339355,-9.97072696685791
FA11_t020_ch02.tif.gz,-0.08305579423904419,-11.533540725708008
FA11_t021_ch02.tif.gz,1.1543809175491333,-11.506670951843262
FA11_t022_ch02.tif.gz,1.7776713371276855,-11.328819274902344
FA11_t023_ch02.tif.gz,2.551140308380127,1.1893235445022583
FA11_t024_ch02.tif.gz,1.9949748516082764,1.647719144821167
FA11_t025_ch02.tif.gz,-3.190661907196045,-11.120332717895508
FA11_t026_ch02.tif.gz,-0.8287287950515747,0.8368879556655884
FA11_t027_ch02.tif.gz,-2.6547977924346924,-0.10122416168451309
FA11_t028_ch02.tif.gz,-2.970750570297241,-11.407349586486816
FA11_t029_ch02.tif.gz,-1.5005581378936768,1.2710204124450684
FA11_t030_ch02.tif.gz,-1.017342448234558,1.6345707178115845
FA11_t031_ch02.tif.gz,-2.1363275051116943,-6.090570449829102
FA11_t032_ch02.tif.gz,-1.9460983276367188,-7.896083831787109
FA11_t033_ch02.tif.gz,-3.0216166973114014,-9.371442794799805
FA11_t034_ch02.tif.gz,-3.676985740661621,-8.58858585357666
FA11_t035_ch02.tif.gz,-1.0912387371063232,-10.596658706665039
FA11_t036_ch02.tif.gz,-1.0843230485916138,-8.732231140136719
FA11_t037_ch02.tif.gz,-3.7518787384033203,-6.468602180480957
FA11_t038_ch02.tif.gz,-4.349754810333252,-4.5390095710754395
FA11_t039_ch02.tif.gz,-3.69105863571167,-7.416739463806152
FA11_t040_ch02.tif.gz,-3.7070987224578857,-8.765427589416504
FA11_t041_ch02.tif.gz,-6.049239635467529,-6.91652774810791
FA11_t042_ch02.tif.gz,-2.088710308074951,-7.4214277267456055
FA11_t043_ch02.tif.gz,-7.197896480560303,-7.067115306854248
FA11_t044_ch02.tif.gz,-5.806234836578369,-6.906641006469727
FA11_t045_ch02.tif.gz,-5.96409273147583,-7.932209014892578
FA12_t008_ch02.tif.gz,5.870705604553223,17.422670364379883
FA12_t009_ch02.tif.gz,4.847206115722656,16.877981185913086
FA12_t010_ch02.tif.gz,3.897468328475952,16.6108341217041
FA12_t011_ch02.tif.gz,3.8617773056030273,16.2177791595459
FA12_t012_ch02.tif.gz,2.299417495727539,15.755424499511719
FA12_t013_ch02.tif.gz,4.556797027587891,15.51180648803711
FA12_t014_ch02.tif.gz,2.3880228996276855,14.950257301330566
FA12_t015_ch02.tif.gz,2.367655038833618,14.21413803100586
FA12_t016_ch02.tif.gz,1.8493082523345947,13.301092147827148
FA12_t017_ch02.tif.gz,1.4475446939468384,12.859238624572754
FA12_t018_ch02.tif.gz,3.246953010559082,13.749215126037598
FA12_t019_ch02.tif.gz,2.712406635284424,12.4663667678833
FA12_t020_ch02.tif.gz,2.8227827548980713,12.740358352661133
FA12_t021_ch02.tif.gz,3.5423524379730225,11.971446990966797
FA12_t022_ch02.tif.gz,5.740733623504639,13.458346366882324
FA12_t023_ch02.tif.gz,5.640624046325684,13.276934623718262
FA12_t024_ch02.tif.gz,4.18582820892334,13.893902778625488
FA12_t025_ch02.tif.gz,4.2503533363342285,11.840139389038086
FA12_t026_ch02.tif.gz,3.655102491378784,10.609075546264648
FA12_t027_ch02.tif.gz,0.6154093146324158,13.970783233642578
FA12_t028_ch02.tif.gz,1.788802146911621,10.31669807434082
FA12_t029_ch02.tif.gz,2.399937868118286,10.474665641784668
FA12_t030_ch02.tif.gz,3.4610023498535156,9.51323127746582
FA12_t031_ch02.tif.gz,4.398351669311523,2.3434951305389404
FA12_t032_ch02.tif.gz,0.9050610661506653,11.176145553588867
FA12_t033_ch02.tif.gz,0.7125163674354553,10.835491180419922
FA12_t034_ch02.tif.gz,2.5174689292907715,8.698702812194824
FA13_t003_ch02.tif.gz,27.765830993652344,8.35621166229248
FA13_t004_ch02.tif.gz,27.690279006958008,8.30240249633789
FA13_t005_ch02.tif.gz,24.926694869995117,8.651593208312988
FA13_t006_ch02.tif.gz,24.96600914001465,7.833019256591797
FA13_t007_ch02.tif.gz,24.28371810913086,9.291791915893555
FA13_t008_ch02.tif.gz,25.513427734375,9.27133846282959
FA13_t009_ch02.tif.gz,27.34731674194336,9.438301086425781
FA13_t010_ch02.tif.gz,25.609159469604492,10.356569290161133
FA13_t011_ch02.tif.gz,22.417137145996094,9.676107406616211
FA13_t012_ch02.tif.gz,23.08928871154785,9.674930572509766
FA13_t013_ch02.tif.gz,18.146438598632812,8.444987297058105
FA13_t014_ch02.tif.gz,19.70427131652832,7.082720756530762
FA13_t015_ch02.tif.gz,15.118906021118164,9.53767204284668
FA13_t016_ch02.tif.gz,14.716465950012207,9.734245300292969
FA13_t017_ch02.tif.gz,15.145906448364258,8.623680114746094
FA13_t018_ch02.tif.gz,14.668076515197754,7.813466548919678
FA13_t019_ch02.tif.gz,13.826191902160645,1.3148338794708252
FA13_t020_ch02.tif.gz,12.271648406982422,4.9574971199035645
FA13_t021_ch02.tif.gz,16.413528442382812,7.213382720947266
FA13_t022_ch02.tif.gz,10.739668846130371,4.068702220916748
FA13_t023_ch02.tif.gz,13.20199203491211,6.509934902191162
FA13_t024_ch02.tif.gz,8.942667961120605,4.8540215492248535
FA13_t025_ch02.tif.gz,6.467381954193115,4.698113441467285
FA13_t026_ch02.tif.gz,6.938780784606934,3.3985342979431152
FA13_t027_ch02.tif.gz,5.56400203704834,4.751333236694336
FA13_t028_ch02.tif.gz,3.0553252696990967,6.0444817543029785
FA13_t029_ch02.tif.gz,5.04846715927124,5.424917697906494
FA13_t030_ch02.tif.gz,0.38561153411865234,6.025092601776123
FA13_t031_ch02.tif.gz,3.040919065475464,5.83910608291626
FA13_t032_ch02.tif.gz,1.847790241241455,4.959095478057861
FA13_t033_ch02.tif.gz,0.7086573243141174,5.6234331130981445
FA13_t034_ch02.tif.gz,3.963134527206421,4.179650783538818
FA13_t035_ch02.tif.gz,3.101520538330078,3.4867918491363525
FA13_t036_ch02.tif.gz,-0.6991630792617798,2.98993182182312
FA13_t037_ch02.tif.gz,11.339447975158691,-2.412670373916626
FA14_t016_ch02.tif.gz,34.9947395324707,8.485431671142578
FA14_t017_ch02.tif.gz,34.42771911621094,8.926410675048828
FA14_t018_ch02.tif.gz,33.94475555419922,9.262896537780762
FA14_t019_ch02.tif.gz,32.1859245300293,7.592260360717773
FA14_t020_ch02.tif.gz,31.026933670043945,7.35658073425293
FA14_t021_ch02.tif.gz,30.60100746154785,7.356858253479004
FA14_t022_ch02.tif.gz,26.735830307006836,5.28035306930542
FA14_t023_ch02.tif.gz,22.46514320373535,3.0804569721221924
FA14_t024_ch02.tif.gz,17.60184669494629,5.190905570983887
FA14_t025_ch02.tif.gz,-1.985849142074585,-4.28087854385376
FA14_t026_ch02.tif.gz,-2.3437230587005615,-3.9426286220550537
FA14_t027_ch02.tif.gz,-4.8568501472473145,5.492763519287109
FA14_t028_ch02.tif.gz,-15.05013370513916,-2.1405842304229736
FA14_t029_ch02.tif.gz,-14.307269096374512,-4.691833972930908
FA14_t030_ch02.tif.gz,-11.9710054397583,-7.742333889007568
FA14_t031_ch02.tif.gz,-14.188276290893555,-6.990406036376953
FA14_t032_ch02.tif.gz,-14.59744930267334,-6.964071273803711
FA14_t033_ch02.tif.gz,-14.585729598999023,-5.13390588760376
FA14_t034_ch02.tif.gz,-12.980087280273438,-6.120287895202637
FA14_t035_ch02.tif.gz,-15.1093111038208,-3.0421042442321777
FA14_t036_ch02.tif.gz,-15.086560249328613,-6.409308433532715
FA14_t037_ch02.tif.gz,-16.227035522460938,-6.233752250671387
FA14_t038_ch02.tif.gz,-16.60462760925293,-5.144084930419922
FA14_t039_ch02.tif.gz,-16.732629776000977,-5.842486381530762
FA14_t040_ch02.tif.gz,-17.71307373046875,-5.865355968475342
FA14_t041_ch02.tif.gz,-19.348880767822266,-6.240234375
FA14_t042_ch02.tif.gz,-19.762283325195312,-4.820655345916748
FA14_t043_ch02.tif.gz,-19.24077033996582,-4.87014102935791
FA14_t044_ch02.tif.gz,-18.81873893737793,-6.306817054748535
FA14_t045_ch02.tif.gz,-16.329252243041992,-4.456948280334473
FA14_t046_ch02.tif.gz,-20.27460479736328,-5.044139862060547
FA14_t047_ch02.tif.gz,-16.481353759765625,-7.127061367034912
FA14_t048_ch02.tif.gz,-18.450485229492188,-4.031960964202881
FA14_t049_ch02.tif.gz,-18.552942276000977,-3.4302070140838623
FA14_t050_ch02.tif.gz,-18.143386840820312,-2.952807903289795
FA14_t051_ch02.tif.gz,-18.49959373474121,-3.0617098808288574
FA14_t052_ch02.tif.gz,-17.57923126220703,-2.6277542114257812
FA15_t009_ch02.tif.gz,13.677677154541016,4.235604763031006
FA15_t010_ch02.tif.gz,16.116729736328125,3.7702438831329346
FA15_t011_ch02.tif.gz,16.21717643737793,3.880336046218872
FA15_t012_ch02.tif.gz,15.765408515930176,1.496253490447998
FA15_t013_ch02.tif.gz,14.180753707885742,-0.6547232866287231
FA15_t014_ch02.tif.gz,13.563530921936035,-1.5233135223388672
FA15_t015_ch02.tif.gz,11.608073234558105,2.5693187713623047
FA15_t016_ch02.tif.gz,-5.397956371307373,12.621252059936523
FA15_t017_ch02.tif.gz,-1.8491703271865845,7.041612148284912
FA15_t018_ch02.tif.gz,18.014949798583984,0.702111542224884
FA15_t019_ch02.tif.gz,-1.8327761888504028,7.143828868865967
FA15_t020_ch02.tif.gz,-6.091062068939209,18.92267417907715
FA15_t021_ch02.tif.gz,-6.835239410400391,8.16905403137207
FA15_t022_ch02.tif.gz,-4.9751081466674805,9.247687339782715
FA15_t023_ch02.tif.gz,-7.420410633087158,13.937273979187012
FA15_t024_ch02.tif.gz,-7.461793899536133,13.794907569885254
FA15_t025_ch02.tif.gz,-5.633228302001953,-10.066325187683105
FA15_t026_ch02.tif.gz,-1.7976738214492798,5.884058952331543
FA15_t027_ch02.tif.gz,-6.681497573852539,8.808259010314941
FA15_t028_ch02.tif.gz,-6.074955940246582,9.200517654418945
FA15_t029_ch02.tif.gz,-5.097105979919434,9.283299446105957
FA15_t030_ch02.tif.gz,-3.976402997970581,11.82687759399414
FA15_t031_ch02.tif.gz,-7.812878131866455,11.382776260375977
FA15_t032_ch02.tif.gz,-7.921491622924805,11.347692489624023
FA15_t033_ch02.tif.gz,-3.341651439666748,11.0035400390625
FA15_t034_ch02.tif.gz,-2.171257972717285,11.500435829162598
FA15_t035_ch02.tif.gz,-3.139965534210205,11.070695877075195
FA15_t036_ch02.tif.gz,-4.047188758850098,10.871793746948242
FA15_t037_ch02.tif.gz,-2.8136773109436035,9.803692817687988
FA15_t038_ch02.tif.gz,-3.8407249450683594,8.47821044921875
FA15_t039_ch02.tif.gz,-5.657480239868164,11.08410930633545
FA15_t040_ch02.tif.gz,-4.85623025894165,10.983272552490234
FA15_t041_ch02.tif.gz,-3.989966869354248,9.84903621673584
FA16_t011_ch02.tif.gz,-1.4693697690963745,-1.967536211013794
FA16_t012_ch02.tif.gz,-6.173370838165283,-0.6473311185836792
FA16_t013_ch02.tif.gz,-3.782646894454956,6.210577964782715
FA16_t014_ch02.tif.gz,-5.245534896850586,-1.006765604019165
FA16_t015_ch02.tif.gz,-5.231200218200684,-2.177035093307495
FA16_t016_ch02.tif.gz,-6.245901107788086,-4.8993449211120605
FA16_t017_ch02.tif.gz,-6.171603202819824,-4.0095534324646
FA16_t018_ch02.tif.gz,-8.555611610412598,-2.6814346313476562
FA16_t019_ch02.tif.gz,-6.715341567993164,-5.354565620422363
FA16_t020_ch02.tif.gz,-8.677303314208984,-1.0785568952560425
FA16_t021_ch02.tif.gz,-8.296130180358887,-1.0419368743896484
FA16_t022_ch02.tif.gz,-8.408514022827148,-2.9135215282440186
FA16_t023_ch02.tif.gz,-7.8893256187438965,-2.1062705516815186
FA16_t024_ch02.tif.gz,-9.223610877990723,-2.4352357387542725
FA16_t025_ch02.tif.gz,-6.538960933685303,-2.3317949771881104
FA16_t026_ch02.tif.gz,-5.456273078918457,7.082464218139648
FA16_t027_ch02.tif.gz,8.901778221130371,-10.581609725952148
FA16_t028_ch02.tif.gz,5.278569221496582,-11.440912246704102
FA16_t029_ch02.tif.gz,-4.787403583526611,-0.6751536726951599
FA16_t030_ch02.tif.gz,-3.8911664485931396,-2.6873276233673096
FA16_t031_ch02.tif.gz,-10.18613338470459,0.3429698944091797
FA16_t032_ch02.tif.gz,-10.012182235717773,0.24076400697231293
FA16_t033_ch02.tif.gz,-11.982670783996582,-1.471139907836914
FA16_t034_ch02.tif.gz,-12.272269248962402,-1.6836745738983154
FA16_t035_ch02.tif.gz,-10.859929084777832,-1.6752240657806396
FA16_t036_ch02.tif.gz,-10.62951374053955,-1.5422149896621704
FA16_t037_ch02.tif.gz,-11.602441787719727,-2.2812938690185547
FA16_t038_ch02.tif.gz,-11.1670503616333,-2.748784065246582
FA16_t039_ch02.tif.gz,-10.204512596130371,-5.6199259757995605
FA16_t040_ch02.tif.gz,-10.499007225036621,-5.963370323181152
FA16_t041_ch02.tif.gz,-11.454197883605957,-4.523136615753174
FA16_t042_ch02.tif.gz,-8.481555938720703,-7.832961082458496
FA16_t043_ch02.tif.gz,-8.945075035095215,-8.60623550415039
FA16_t044_ch02.tif.gz,-7.818904876708984,-9.937037467956543
FA16_t045_ch02.tif.gz,-10.100539207458496,-7.726333141326904
FA16_t046_ch02.tif.gz,-10.1225004196167,-3.774656057357788
FA16_t047_ch02.tif.gz,-13.069103240966797,-0.5730106234550476
FA17_t002_ch02.tif.gz,27.019163131713867,11.566673278808594
FA17_t003_ch02.tif.gz,26.740497589111328,6.404115200042725
FA17_t004_ch02.tif.gz,24.076711654663086,12.19309139251709
FA17_t005_ch02.tif.gz,25.126708984375,12.345754623413086
FA17_t006_ch02.tif.gz,23.47417640686035,12.395509719848633
FA17_t007_ch02.tif.gz,20.57381820678711,13.951112747192383
FA17_t008_ch02.tif.gz,20.78948974609375,14.478693962097168
FA17_t009_ch02.tif.gz,19.918867111206055,13.418333053588867
FA17_t010_ch02.tif.gz,19.66571617126465,13.571430206298828
FA17_t011_ch02.tif.gz,18.21207618713379,14.4844388961792
FA17_t012_ch02.tif.gz,16.712196350097656,15.044683456420898
FA17_t013_ch02.tif.gz,15.760887145996094,14.10692024230957
FA17_t014_ch02.tif.gz,16.246936798095703,14.739450454711914
FA17_t015_ch02.tif.gz,16.66170310974121,15.316849708557129
FA17_t016_ch02.tif.gz,-6.816895484924316,5.427577495574951
FA17_t017_ch02.tif.gz,-7.248506546020508,5.8008809089660645
FA17_t018_ch02.tif.gz,-7.730931758880615,5.97157096862793
FA17_t019_ch02.tif.gz,-8.751656532287598,5.481128215789795
FA17_t020_ch02.tif.gz,-8.850482940673828,5.466609954833984
FA17_t021_ch02.tif.gz,-8.948610305786133,8.136333465576172
FA17_t022_ch02.tif.gz,-9.382804870605469,7.979465007781982
FA17_t023_ch02.tif.gz,-10.099310874938965,9.87477970123291
FA17_t024_ch02.tif.gz,-9.357080459594727,10.135042190551758
FA17_t025_ch02.tif.gz,-9.5097017288208,9.37890911102295
FA17_t026_ch02.tif.gz,-9.01508617401123,8.860611915588379
FA17_t027_ch02.tif.gz,-10.623003005981445,10.314117431640625
FA17_t028_ch02.tif.gz,-0.3230457305908203,17.06433868408203
FA17_t029_ch02.tif.gz,-10.559513092041016,7.027770042419434
FA17_t030_ch02.tif.gz,-10.634074211120605,6.952930927276611
FA17_t031_ch02.tif.gz,-11.107576370239258,4.966876983642578
FA17_t032_ch02.tif.gz,-11.388143539428711,8.847193717956543
FA17_t033_ch02.tif.gz,-23.63332748413086,6.271293640136719
FA17_t034_ch02.tif.gz,-22.510215759277344,5.2700324058532715
FA17_t035_ch02.tif.gz,-22.517864227294922,7.0596795082092285
FA17_t036_ch02.tif.gz,-21.815519332885742,8.119450569152832
FA17_t037_ch02.tif.gz,-22.1999568939209,6.432087421417236
FA17_t038_ch02.tif.gz,-22.693750381469727,8.248865127563477
FA17_t039_ch02.tif.gz,-22.95398712158203,8.53816032409668
FA18_t009_ch02.tif.gz,34.498146057128906,11.775809288024902
FA18_t010_ch02.tif.gz,33.56870651245117,12.496794700622559
FA18_t011_ch02.tif.gz,33.915809631347656,12.50629711151123
FA18_t012_ch02.tif.gz,33.54526138305664,11.872760772705078
FA18_t013_ch02.tif.gz,33.05940246582031,10.68188762664795
FA18_t014_ch02.tif.gz,32.4748420715332,12.085387229919434
FA18_t015_ch02.tif.gz,32.6263542175293,11.790499687194824
FA18_t016_ch02.tif.gz,32.091121673583984,11.487822532653809
FA18_t017_ch02.tif.gz,31.928020477294922,10.762015342712402
FA18_t018_ch02.tif.gz,30.716571807861328,10.807666778564453
FA18_t019_ch02.tif.gz,30.24297523498535,10.767276763916016
FA18_t020_ch02.tif.gz,27.420673370361328,11.219923973083496
FA18_t021_ch02.tif.gz,26.49355697631836,12.111045837402344
FA18_t022_ch02.tif.gz,22.11176872253418,8.16568374633789
FA18_t023_ch02.tif.gz,21.847402572631836,8.010054588317871
FA18_t024_ch02.tif.gz,11.921560287475586,9.857391357421875
FA18_t025_ch02.tif.gz,12.691422462463379,-0.06982358545064926
FA18_t026_ch02.tif.gz,9.4649019241333,2.1589853763580322
FA18_t027_ch02.tif.gz,7.46368408203125,1.215355634689331
FA18_t028_ch02.tif.gz,9.738300323486328,10.170257568359375
FA18_t029_ch02.tif.gz,10.233654022216797,8.592427253723145
FA18_t030_ch02.tif.gz,9.847370147705078,9.568440437316895
FA18_t031_ch02.tif.gz,8.24779987335205,9.582447052001953
FA18_t032_ch02.tif.gz,9.536970138549805,11.278709411621094
FA18_t033_ch02.tif.gz,9.097774505615234,0.3621821999549866
FA18_t034_ch02.tif.gz,8.35312557220459,9.37454891204834
FA18_t035_ch02.tif.gz,9.108457565307617,8.027819633483887
FA18_t036_ch02.tif.gz,6.444945335388184,9.896198272705078
FA18_t037_ch02.tif.gz,7.4298176765441895,10.706271171569824
FA18_t038_ch02.tif.gz,7.1645612716674805,9.893439292907715
FA18_t039_ch02.tif.gz,6.810055732727051,7.690051555633545
FA18_t040_ch02.tif.gz,7.240776538848877,7.680262565612793
FA18_t041_ch02.tif.gz,7.346009254455566,8.323418617248535
FA18_t042_ch02.tif.gz,6.395303726196289,9.457512855529785
FA18_t043_ch02.tif.gz,6.8697686195373535,6.554166793823242
FA18_t044_ch02.tif.gz,5.640878677368164,7.430648326873779
FA18_t045_ch02.tif.gz,3.6721739768981934,7.686254978179932
FA19_t008_ch02.tif.gz,11.829556465148926,11.502681732177734
FA19_t009_ch02.tif.gz,12.369292259216309,12.471280097961426
FA19_t010_ch02.tif.gz,12.458662033081055,12.582507133483887
FA19_t011_ch02.tif.gz,11.659366607666016,5.6189703941345215
FA19_t012_ch02.tif.gz,0.8226458430290222,7.441521644592285
FA19_t013_ch02.tif.gz,-11.590651512145996,13.058021545410156
FA19_t014_ch02.tif.gz,-11.587740898132324,13.010051727294922
FA19_t015_ch02.tif.gz,-4.049910068511963,15.036073684692383
FA19_t016_ch02.tif.gz,-4.789503574371338,13.900321960449219
FA19_t017_ch02.tif.gz,-4.329822540283203,14.508007049560547
FA19_t018_ch02.tif.gz,-7.010923385620117,9.98611831665039
FA19_t019_ch02.tif.gz,-5.9280290603637695,14.114700317382812
FA19_t020_ch02.tif.gz,-2.5632481575012207,16.3483943939209
FA19_t021_ch02.tif.gz,-4.079222679138184,17.74109649658203
FA19_t022_ch02.tif.gz,-4.832385063171387,16.31803321838379
FA19_t023_ch02.tif.gz,-4.9715256690979,16.958269119262695
FA19_t024_ch02.tif.gz,-5.71090841293335,16.968006134033203
FA19_t025_ch02.tif.gz,-5.126336574554443,17.374460220336914
FA19_t026_ch02.tif.gz,-6.505725383758545,17.539751052856445
FA19_t027_ch02.tif.gz,-3.895296096801758,18.98760986328125
FA19_t028_ch02.tif.gz,-3.522392749786377,19.622039794921875
FA19_t029_ch02.tif.gz,-0.7361865043640137,8.831110000610352
FA19_t030_ch02.tif.gz,-10.676437377929688,17.810985565185547
FA19_t031_ch02.tif.gz,-9.373571395874023,13.698113441467285
FA19_t032_ch02.tif.gz,-10.85014820098877,16.411754608154297
FA19_t033_ch02.tif.gz,-10.419244766235352,16.445295333862305
FA19_t034_ch02.tif.gz,-5.916032791137695,21.783639907836914
FA19_t035_ch02.tif.gz,-5.911792755126953,21.7963809967041
FA19_t036_ch02.tif.gz,-9.060898780822754,15.661811828613281
FA19_t037_ch02.tif.gz,-7.917757987976074,16.16705322265625
FA19_t038_ch02.tif.gz,-7.4940505027771,16.196908950805664
FA19_t039_ch02.tif.gz,-7.253093242645264,15.90880298614502
FA19_t040_ch02.tif.gz,-7.976918697357178,19.469812393188477
FA19_t041_ch02.tif.gz,-7.834974765777588,19.75177001953125
FA19_t042_ch02.tif.gz,-8.586162567138672,18.61196517944336
FA19_t043_ch02.tif.gz,-6.929600238800049,12.543719291687012
FA19_t044_ch02.tif.gz,-8.511590003967285,18.209848403930664
FA20_t022_ch02.tif.gz,19.567237854003906,4.8442487716674805
FA20_t023_ch02.tif.gz,-2.521324872970581,13.960616111755371
FA20_t024_ch02.tif.gz,1.4897072315216064,19.23490333557129
FA20_t025_ch02.tif.gz,1.137323021888733,20.215972900390625
FA20_t026_ch02.tif.gz,-18.367101669311523,8.747791290283203
FA20_t027_ch02.tif.gz,-11.781839370727539,1.80647873878479
FA20_t028_ch02.tif.gz,-18.34632682800293,8.708733558654785
FA20_t029_ch02.tif.gz,-23.529844284057617,13.519968032836914
FA20_t030_ch02.tif.gz,-22.304744720458984,13.325614929199219
FA20_t031_ch02.tif.gz,-12.953667640686035,3.9809343814849854
FA20_t032_ch02.tif.gz,-17.65458106994629,10.91004467010498
FA20_t033_ch02.tif.gz,-21.567846298217773,12.784459114074707
FA20_t034_ch02.tif.gz,-19.901290893554688,10.534902572631836
FA20_t035_ch02.tif.gz,-12.38138198852539,15.727972984313965
FA20_t036_ch02.tif.gz,-16.937667846679688,13.279092788696289
FA20_t037_ch02.tif.gz,-17.289873123168945,15.825671195983887
FA20_t038_ch02.tif.gz,-18.29330062866211,14.713923454284668
FA20_t039_ch02.tif.gz,-16.46712875366211,17.296772003173828
FA20_t040_ch02.tif.gz,-15.621964454650879,14.527137756347656
FA20_t041_ch02.tif.gz,-16.66571617126465,16.655359268188477
FA20_t042_ch02.tif.gz,-17.252653121948242,11.949697494506836
FA20_t043_ch02.tif.gz,-16.749631881713867,13.185900688171387
FA20_t044_ch02.tif.gz,-16.139137268066406,18.152673721313477
FA20_t045_ch02.tif.gz,-18.423505783081055,17.58088493347168
FA20_t046_ch02.tif.gz,-15.314229011535645,16.500219345092773
FA20_t047_ch02.tif.gz,-18.837854385375977,14.268343925476074
FA20_t048_ch02.tif.gz,-18.582185745239258,14.692959785461426
FA20_t049_ch02.tif.gz,-19.948755264282227,10.563826560974121
FA20_t050_ch02.tif.gz,-20.281818389892578,15.479599952697754
FA20_t051_ch02.tif.gz,-21.044553756713867,12.603096961975098
FA20_t052_ch02.tif.gz,-19.74495506286621,14.954095840454102
FA20_t053_ch02.tif.gz,-19.272586822509766,13.061837196350098
FA21_t030_ch02.tif.gz,-6.871230602264404,3.1161606311798096
FA21_t031_ch02.tif.gz,-8.327154159545898,1.9324754476547241
FA21_t032_ch02.tif.gz,-3.887301445007324,2.506577968597412
FA21_t033_ch02.tif.gz,-3.8275058269500732,2.4257919788360596
FA21_t034_ch02.tif.gz,-3.151165723800659,3.8036949634552
FA21_t035_ch02.tif.gz,-3.703526020050049,3.607408285140991
FA21_t036_ch02.tif.gz,-5.806530475616455,2.3252594470977783
FA21_t037_ch02.tif.gz,-4.2743730545043945,3.37048602104187
FA21_t038_ch02.tif.gz,-5.69925594329834,1.6249778270721436
FA21_t039_ch02.tif.gz,-5.292078971862793,2.4829494953155518
FA21_t040_ch02.tif.gz,-10.793188095092773,-10.715437889099121
FA21_t041_ch02.tif.gz,-11.662102699279785,-11.931416511535645
FA21_t042_ch02.tif.gz,-10.816903114318848,-12.616393089294434
FA21_t043_ch02.tif.gz,-12.475859642028809,-12.663455963134766
FA21_t044_ch02.tif.gz,-12.308304786682129,-12.075984001159668
FA21_t045_ch02.tif.gz,-12.906594276428223,-14.448777198791504
FA21_t046_ch02.tif.gz,-12.016203880310059,-13.376086235046387
FA21_t047_ch02.tif.gz,-13.459991455078125,-12.987476348876953
FA21_t048_ch02.tif.gz,-14.396659851074219,-10.915983200073242
FA21_t049_ch02.tif.gz,-14.571056365966797,-11.134422302246094
FA21_t050_ch02.tif.gz,-15.701488494873047,-11.07207202911377
FA21_t051_ch02.tif.gz,-13.843010902404785,-10.02436351776123
FA21_t052_ch02.tif.gz,-16.81087875366211,-9.963627815246582
FA21_t053_ch02.tif.gz,-15.203350067138672,-11.914039611816406
FA21_t054_ch02.tif.gz,-15.676379203796387,-13.639184951782227
FA21_t055_ch02.tif.gz,0.9322266578674316,3.2172956466674805
FA21_t056_ch02.tif.gz,-14.350281715393066,21.803592681884766
FA22_t004_ch02.tif.gz,4.410791873931885,20.04424476623535
FA22_t005_ch02.tif.gz,9.890643119812012,6.401592254638672
FA22_t006_ch02.tif.gz,-12.433785438537598,18.426095962524414
FA22_t007_ch02.tif.gz,-22.67581558227539,-7.600718975067139
FA22_t008_ch02.tif.gz,-15.925469398498535,10.053980827331543
FA22_t009_ch02.tif.gz,-15.864263534545898,10.031599998474121
FA22_t010_ch02.tif.gz,-14.804864883422852,14.254106521606445
FA22_t011_ch02.tif.gz,-14.179104804992676,11.3718900680542
FA22_t012_ch02.tif.gz,-14.57040023803711,11.857502937316895
FA22_t013_ch02.tif.gz,-13.883806228637695,10.787535667419434
FA22_t014_ch02.tif.gz,-13.994807243347168,10.599223136901855
FA22_t015_ch02.tif.gz,-13.853911399841309,13.78225040435791
FA22_t016_ch02.tif.gz,-13.592681884765625,8.150142669677734
FA22_t017_ch02.tif.gz,-14.113304138183594,7.785723686218262
FA22_t018_ch02.tif.gz,-14.809789657592773,7.167544841766357
FA22_t019_ch02.tif.gz,-16.204607009887695,6.879391670227051
FA22_t020_ch02.tif.gz,-15.038847923278809,7.022252082824707
FA22_t021_ch02.tif.gz,-15.299773216247559,5.032229423522949
FA22_t022_ch02.tif.gz,-16.172725677490234,5.173904895782471
FA22_t023_ch02.tif.gz,-14.99576473236084,5.474861145019531
FA22_t024_ch02.tif.gz,-18.047117233276367,6.234106540679932
FA22_t025_ch02.tif.gz,-15.579113006591797,6.175240516662598
FA22_t026_ch02.tif.gz,-16.503173828125,2.4811344146728516
FA22_t027_ch02.tif.gz,-18.239757537841797,5.130127906799316
FA22_t028_ch02.tif.gz,-17.61396026611328,3.4371120929718018
FA22_t029_ch02.tif.gz,-17.46929359436035,3.8145124912261963
FA22_t030_ch02.tif.gz,-17.37639045715332,4.73387336730957
FA22_t031_ch02.tif.gz,-18.625825881958008,2.5625078678131104
FA22_t032_ch02.tif.gz,-18.344152450561523,2.832899570465088
FA22_t033_ch02.tif.gz,-18.838716506958008,4.975854873657227
FA22_t034_ch02.tif.gz,-19.124622344970703,3.2752139568328857
FA22_t035_ch02.tif.gz,-19.161216735839844,4.011814117431641
FA22_t036_ch02.tif.gz,-19.419069290161133,3.708510398864746
FA22_t037_ch02.tif.gz,-16.416372299194336,1.681876301765442
FA22_t038_ch02.tif.gz,-18.68124008178711,1.4854480028152466
FA22_t039_ch02.tif.gz,-17.069047927856445,0.6767549514770508
FA22_t040_ch02.tif.gz,-16.984302520751953,0.553037166595459
FA23_t009_ch02.tif.gz,-27.153667449951172,-11.373655319213867
FA23_t010_ch02.tif.gz,-22.81850242614746,-0.6987432837486267
FA23_t011_ch02.tif.gz,-22.715572357177734,-0.9058313965797424
FA23_t012_ch02.tif.gz,-24.77450180053711,-5.395582675933838
FA23_t013_ch02.tif.gz,-24.752466201782227,-1.7808218002319336
FA23_t014_ch02.tif.gz,-25.024856567382812,-4.623682498931885
FA23_t015_ch02.tif.gz,-25.24095916748047,-5.20450496673584
FA23_t016_ch02.tif.gz,-26.692646026611328,-6.077769756317139
FA23_t017_ch02.tif.gz,-27.7050724029541,1.7883343696594238
FA23_t018_ch02.tif.gz,-26.89870262145996,-5.9320878982543945
FA23_t019_ch02.tif.gz,-26.810649871826172,-3.1101653575897217
FA23_t020_ch02.tif.gz,-26.366119384765625,-5.116483211517334
FA23_t021_ch02.tif.gz,-27.755393981933594,-4.4750189781188965
FA23_t022_ch02.tif.gz,-26.50797462463379,-4.533360958099365
FA23_t023_ch02.tif.gz,-28.26706314086914,-3.1253886222839355
FA23_t024_ch02.tif.gz,-28.922998428344727,-0.7292397022247314
FA23_t025_ch02.tif.gz,-27.809507369995117,-2.229539394378662
FA23_t026_ch02.tif.gz,-28.931177139282227,-2.8600730895996094
FA23_t027_ch02.tif.gz,-27.406099319458008,-0.6710430383682251
FA23_t028_ch02.tif.gz,-28.22960090637207,-0.4361518919467926
FA23_t029_ch02.tif.gz,-26.753772735595703,-1.292580485343933
FA23_t030_ch02.tif.gz,-29.151948928833008,1.2711073160171509
FA23_t031_ch02.tif.gz,-24.676307678222656,-0.6930086612701416
FA23_t032_ch02.tif.gz,-26.95542335510254,-1.2179404497146606
FA23_t033_ch02.tif.gz,-26.13340187072754,-0.019024930894374847
FA23_t034_ch02.tif.gz,-25.188833236694336,-0.17644956707954407
FA23_t035_ch02.tif.gz,-30.270570755004883,-1.8718124628067017
FA23_t036_ch02.tif.gz,-30.08154296875,-1.4866873025894165
FA23_t037_ch02.tif.gz,-29.154661178588867,0.4797658324241638
FA23_t038_ch02.tif.gz,-28.878582000732422,-1.6031571626663208
FA23_t039_ch02.tif.gz,-27.97559928894043,-3.3421082496643066
FA23_t040_ch02.tif.gz,-24.6685733795166,1.6398481130599976
FA23_t041_ch02.tif.gz,-26.23380470275879,0.8878089189529419
FA23_t042_ch02.tif.gz,-25.42473030090332,0.08481856435537338
FA23_t043_ch02.tif.gz,-29.30445671081543,-3.9236438274383545
FA23_t044_ch02.tif.gz,-29.996639251708984,-3.492474317550659
FA23_t045_ch02.tif.gz,-25.2869815826416,-3.351360321044922
FA1_t005_ch02.tif.gz,25.689678192138672,7.468044757843018
FA1_t006_ch02.tif.gz,23.195945739746094,5.57172155380249
FA1_t007_ch02.tif.gz,23.159774780273438,5.478183269500732
FA1_t008_ch02.tif.gz,-5.932364463806152,-20.820131301879883
FA1_t009_ch02.tif.gz,-6.5857110023498535,-20.47597312927246
FA1_t010_ch02.tif.gz,-7.311963081359863,-20.003416061401367
FA1_t011_ch02.tif.gz,-9.303226470947266,-18.72948455810547
FA1_t012_ch02.tif.gz,-8.706134796142578,-20.881650924682617
FA1_t013_ch02.tif.gz,-10.683882713317871,-20.306400299072266
FA1_t014_ch02.tif.gz,-10.190960884094238,-19.023473739624023
FA1_t015_ch02.tif.gz,-11.734557151794434,-19.379253387451172
FA1_t016_ch02.tif.gz,-9.073477745056152,-18.329069137573242
FA1_t017_ch02.tif.gz,-13.18861198425293,-19.734086990356445
FA1_t018_ch02.tif.gz,-13.576334953308105,-19.413557052612305
FA1_t019_ch02.tif.gz,-11.705684661865234,-20.955318450927734
FA1_t020_ch02.tif.gz,-12.163236618041992,-20.321046829223633
FA1_t021_ch02.tif.gz,-12.01014232635498,-21.578245162963867
FA1_t022_ch02.tif.gz,-13.946136474609375,-18.370620727539062
FA1_t023_ch02.tif.gz,-14.201634407043457,-17.67282485961914
FA1_t024_ch02.tif.gz,-11.861663818359375,-18.352313995361328
FA1_t025_ch02.tif.gz,-14.233085632324219,-21.9962100982666
FA1_t026_ch02.tif.gz,-12.845337867736816,-20.624191284179688
FA1_t027_ch02.tif.gz,-12.90507984161377,-21.870195388793945
FA1_t028_ch02.tif.gz,-13.960007667541504,-20.779388427734375
FA1_t029_ch02.tif.gz,-14.542738914489746,-20.051145553588867
FA1_t030_ch02.tif.gz,-15.39670467376709,-20.191219329833984
FA1_t031_ch02.tif.gz,-12.858589172363281,-19.01144027709961
FA1_t032_ch02.tif.gz,-13.551453590393066,-17.860105514526367
FA1_t033_ch02.tif.gz,-11.259811401367188,-14.465068817138672
FA1_t034_ch02.tif.gz,-10.99643325805664,-15.930458068847656
FA1_t035_ch02.tif.gz,-11.033336639404297,-14.998861312866211
FA1_t036_ch02.tif.gz,-11.210832595825195,-15.161272048950195
FA1_t037_ch02.tif.gz,-12.848444938659668,-9.636353492736816
FA1_t038_ch02.tif.gz,-15.854372024536133,-19.85372543334961
FA1_t039_ch02.tif.gz,-7.786631107330322,-5.218654632568359
FA2_t017_ch02.tif.gz,27.932470321655273,4.600132465362549
FA2_t018_ch02.tif.gz,25.030885696411133,3.892852783203125
FA2_t019_ch02.tif.gz,25.04416847229004,3.8008642196655273
FA2_t020_ch02.tif.gz,24.74468994140625,0.7667201161384583
FA2_t021_ch02.tif.gz,22.10700798034668,1.6521300077438354
FA2_t022_ch02.tif.gz,24.435428619384766,1.357829213142395
FA2_t023_ch02.tif.gz,22.558330535888672,-1.2050597667694092
FA2_t024_ch02.tif.gz,21.284770965576172,2.0207719802856445
FA2_t025_ch02.tif.gz,17.11103630065918,-3.07175350189209
FA2_t026_ch02.tif.gz,22.450639724731445,0.7780998945236206
FA2_t027_ch02.tif.gz,20.912113189697266,1.881271243095398
FA2_t028_ch02.tif.gz,19.227689743041992,-0.5850637555122375
FA2_t029_ch02.tif.gz,19.920122146606445,-1.2378380298614502
FA2_t030_ch02.tif.gz,17.217390060424805,-2.1082844734191895
FA2_t031_ch02.tif.gz,16.547643661499023,-2.070246696472168
FA2_t032_ch02.tif.gz,19.59841537475586,-1.3131160736083984
FA2_t033_ch02.tif.gz,17.201339721679688,-0.44305816292762756
FA2_t034_ch02.tif.gz,16.0180606842041,-0.20763590931892395
FA2_t035_ch02.tif.gz,18.115720748901367,2.769059181213379
FA2_t036_ch02.tif.gz,15.55035400390625,-2.6910769939422607
FA2_t037_ch02.tif.gz,21.345693588256836,-0.6854162812232971
FA2_t038_ch02.tif.gz,15.565442085266113,-1.5052138566970825
FA2_t039_ch02.tif.gz,15.104647636413574,-1.0509181022644043
FA2_t040_ch02.tif.gz,14.69654655456543,0.47086772322654724
FA2_t041_ch02.tif.gz,15.726696968078613,0.2303885668516159
FA2_t042_ch02.tif.gz,10.854669570922852,-0.8369460701942444
FA2_t043_ch02.tif.gz,18.91484832763672,0.20924657583236694
FA2_t044_ch02.tif.gz,12.450679779052734,1.9938507080078125
FA2_t045_ch02.tif.gz,12.727463722229004,1.9288723468780518
FA2_t046_ch02.tif.gz,14.419194221496582,2.8360753059387207
FA2_t047_ch02.tif.gz,14.473668098449707,3.518104314804077
FA2_t048_ch02.tif.gz,19.18479347229004,2.208589553833008
FA3_t017_ch02.tif.gz,19.7058048248291,10.36607837677002
FA3_t018_ch02.tif.gz,28.89713478088379,9.83873462677002
FA3_t019_ch02.tif.gz,29.356761932373047,11.926414489746094
FA3_t020_ch02.tif.gz,28.0875244140625,12.709939956665039
FA3_t021_ch02.tif.gz,21.153173446655273,-4.498464107513428
FA3_t022_ch02.tif.gz,20.217321395874023,-8.43188762664795
FA3_t023_ch02.tif.gz,20.618206024169922,-5.091159343719482
FA3_t024_ch02.tif.gz,20.133216857910156,-9.467820167541504
FA3_t025_ch02.tif.gz,20.06354331970215,-7.486886501312256
FA3_t026_ch02.tif.gz,20.139698028564453,-9.393319129943848
FA3_t027_ch02.tif.gz,21.77232551574707,-11.825323104858398
FA3_t028_ch02.tif.gz,21.571632385253906,-11.997831344604492
FA3_t029_ch02.tif.gz,21.36430549621582,-12.714393615722656
FA3_t030_ch02.tif.gz,21.08795928955078,-12.908760070800781
FA3_t031_ch02.tif.gz,20.57012176513672,-15.814271926879883
FA3_t032_ch02.tif.gz,18.570655822753906,-16.077472686767578
FA3_t033_ch02.tif.gz,20.68968963623047,-15.81760025024414
FA3_t034_ch02.tif.gz,17.890127182006836,-12.942159652709961
FA3_t035_ch02.tif.gz,16.02572250366211,-16.972631454467773
FA3_t036_ch02.tif.gz,15.953756332397461,-16.45895767211914
FA3_t037_ch02.tif.gz,16.928730010986328,-13.868546485900879
FA3_t038_ch02.tif.gz,15.39015007019043,-16.036876678466797
FA3_t039_ch02.tif.gz,15.81494140625,-15.24917221069336
FA3_t040_ch02.tif.gz,16.0202693939209,-14.879827499389648
FA3_t041_ch02.tif.gz,18.766279220581055,-16.33527183532715
FA3_t042_ch02.tif.gz,15.507935523986816,-14.599730491638184
FA3_t043_ch02.tif.gz,12.347851753234863,-15.272957801818848
FA3_t044_ch02.tif.gz,12.831188201904297,-10.737465858459473
FA3_t045_ch02.tif.gz,12.905641555786133,-15.012556076049805
FA3_t046_ch02.tif.gz,14.127238273620605,-12.004510879516602
FA3_t047_ch02.tif.gz,13.981759071350098,-12.824230194091797
FA3_t048_ch02.tif.gz,13.558488845825195,-13.801868438720703
FA3_t049_ch02.tif.gz,12.618081092834473,-11.338976860046387
FA3_t050_ch02.tif.gz,13.3160982131958,-13.153709411621094
FA3_t051_ch02.tif.gz,11.081674575805664,-11.873147964477539
FA3_t052_ch02.tif.gz,13.323786735534668,-13.224656105041504
FA3_t053_ch02.tif.gz,15.458491325378418,-11.568528175354004
FA3_t054_ch02.tif.gz,14.567109107971191,-10.016417503356934
FA3_t055_ch02.tif.gz,14.81225872039795,-11.801204681396484
FA4_t013_ch02.tif.gz,7.706017971038818,14.33348274230957
FA4_t014_ch02.tif.gz,9.951153755187988,16.854248046875
FA4_t015_ch02.tif.gz,8.843989372253418,15.656572341918945
FA4_t016_ch02.tif.gz,9.925687789916992,15.686917304992676
FA4_t017_ch02.tif.gz,10.267481803894043,15.718989372253418
FA4_t018_ch02.tif.gz,16.082345962524414,-7.51618766784668
FA4_t019_ch02.tif.gz,10.953329086303711,15.450560569763184
FA4_t020_ch02.tif.gz,12.037978172302246,19.648984909057617
FA4_t021_ch02.tif.gz,13.287915229797363,17.403209686279297
FA4_t022_ch02.tif.gz,13.305597305297852,18.345991134643555
FA4_t023_ch02.tif.gz,13.462211608886719,18.60706329345703
FA4_t024_ch02.tif.gz,12.725021362304688,20.132728576660156
FA4_t025_ch02.tif.gz,13.91493034362793,20.100038528442383
FA4_t026_ch02.tif.gz,14.101363182067871,20.778427124023438
FA4_t027_ch02.tif.gz,13.009271621704102,21.473434448242188
FA4_t028_ch02.tif.gz,13.370728492736816,22.388891220092773
FA4_t029_ch02.tif.gz,13.728096008300781,22.59665870666504
FA4_t030_ch02.tif.gz,14.74026107788086,21.640684127807617
FA4_t031_ch02.tif.gz,11.59857177734375,23.73798179626465
FA4_t032_ch02.tif.gz,10.872064590454102,21.008821487426758
FA4_t033_ch02.tif.gz,10.013690948486328,20.414430618286133
FA4_t034_ch02.tif.gz,9.871478080749512,19.27754783630371
FA4_t035_ch02.tif.gz,9.357314109802246,20.768001556396484
FA4_t036_ch02.tif.gz,9.78481388092041,22.690683364868164
FA4_t037_ch02.tif.gz,10.368654251098633,22.61566734313965
FA4_t038_ch02.tif.gz,8.497479438781738,22.5899715423584
FA4_t039_ch02.tif.gz,9.08478832244873,23.29877281188965
FA4_t040_ch02.tif.gz,11.186060905456543,23.283178329467773
FA4_t041_ch02.tif.gz,8.879585266113281,20.954282760620117
FA4_t042_ch02.tif.gz,8.61371898651123,23.486677169799805
FA5_t005_ch02.tif.gz,25.401988983154297,-5.559147834777832
FA5_t006_ch02.tif.gz,25.32212257385254,-5.856106281280518
FA5_t007_ch02.tif.gz,24.818973541259766,-7.30626106262207
FA5_t008_ch02.tif.gz,24.79650115966797,-8.328702926635742
FA5_t009_ch02.tif.gz,24.737525939941406,-8.133824348449707
FA5_t010_ch02.tif.gz,23.847448348999023,-7.542532444000244
FA5_t011_ch02.tif.gz,8.972332000732422,-17.775434494018555
FA5_t012_ch02.tif.gz,9.131572723388672,-18.9047794342041
FA5_t013_ch02.tif.gz,8.61378002166748,-19.547306060791016
FA5_t014_ch02.tif.gz,8.189682960510254,-17.22417640686035
FA5_t015_ch02.tif.gz,5.095341205596924,-20.719438552856445
FA5_t016_ch02.tif.gz,5.841810703277588,-20.231307983398438
FA5_t017_ch02.tif.gz,6.437321186065674,-19.008028030395508
FA5_t018_ch02.tif.gz,6.229485511779785,-19.20379638671875
FA5_t019_ch02.tif.gz,7.363520622253418,-17.6489315032959
FA5_t020_ch02.tif.gz,3.9678196907043457,-20.256994247436523
FA5_t021_ch02.tif.gz,5.509092807769775,-21.804603576660156
FA5_t022_ch02.tif.gz,3.311776876449585,-21.05324935913086
FA5_t023_ch02.tif.gz,3.649531126022339,-19.91304588317871
FA5_t024_ch02.tif.gz,1.898956537246704,-17.099029541015625
FA5_t025_ch02.tif.gz,1.6547927856445312,-18.06270408630371
FA5_t026_ch02.tif.gz,7.999823093414307,-21.69501495361328
FA5_t027_ch02.tif.gz,3.866379737854004,-16.50273895263672
FA5_t028_ch02.tif.gz,6.907868385314941,-19.82843589782715
FA5_t029_ch02.tif.gz,4.87513542175293,-18.82325553894043
FA5_t030_ch02.tif.gz,7.894350051879883,-21.320171356201172
FA5_t031_ch02.tif.gz,6.704721450805664,-16.757713317871094
FA5_t032_ch02.tif.gz,4.442762851715088,-17.152301788330078
FA5_t033_ch02.tif.gz,4.786874294281006,-17.683218002319336
FA5_t034_ch02.tif.gz,2.260664463043213,-16.983028411865234
FA5_t035_ch02.tif.gz,3.2952749729156494,-18.66088104248047
FA5_t036_ch02.tif.gz,3.4700117111206055,-18.148744583129883
FA5_t037_ch02.tif.gz,5.3588480949401855,-15.875207901000977
FA5_t038_ch02.tif.gz,5.239926815032959,-14.74006462097168
FA5_t039_ch02.tif.gz,4.572546482086182,-15.689098358154297
FA5_t040_ch02.tif.gz,3.439823627471924,-16.383485794067383
FA6_t017_ch02.tif.gz,32.541839599609375,8.354338645935059
FA6_t018_ch02.tif.gz,33.167396545410156,6.418582439422607
FA6_t019_ch02.tif.gz,33.92546081542969,6.961335182189941
FA6_t020_ch02.tif.gz,33.938541412353516,6.040783882141113
FA6_t021_ch02.tif.gz,32.613624572753906,5.968611240386963
FA6_t022_ch02.tif.gz,33.9090576171875,5.509357929229736
FA6_t023_ch02.tif.gz,32.59003448486328,5.19399881362915
FA6_t024_ch02.tif.gz,33.02880859375,4.625324249267578
FA6_t025_ch02.tif.gz,31.995492935180664,4.138796329498291
FA6_t026_ch02.tif.gz,32.0000114440918,3.2800791263580322
FA6_t027_ch02.tif.gz,29.15944480895996,3.5063321590423584
FA6_t028_ch02.tif.gz,29.503921508789062,2.059743881225586
FA6_t029_ch02.tif.gz,29.53644561767578,2.0829014778137207
FA6_t030_ch02.tif.gz,28.948152542114258,1.9662100076675415
FA6_t031_ch02.tif.gz,30.424633026123047,0.9003803730010986
FA6_t032_ch02.tif.gz,30.869749069213867,1.0781466960906982
FA6_t033_ch02.tif.gz,29.131916046142578,-0.12420811504125595
FA6_t034_ch02.tif.gz,28.522554397583008,0.16982050240039825
FA6_t035_ch02.tif.gz,29.876293182373047,-0.6194746494293213
FA6_t036_ch02.tif.gz,31.74635124206543,0.4818211495876312
FA6_t037_ch02.tif.gz,31.6357364654541,0.018616914749145508
FA6_t038_ch02.tif.gz,31.692604064941406,-0.32674679160118103
FA6_t039_ch02.tif.gz,30.67609977722168,-1.4570056200027466
FA6_t040_ch02.tif.gz,29.533344268798828,-0.9295127391815186
FA6_t041_ch02.tif.gz,27.750686645507812,-1.1726458072662354
FA6_t042_ch02.tif.gz,28.419939041137695,-1.5656415224075317
FA6_t043_ch02.tif.gz,29.571718215942383,-4.5072431564331055
FA6_t044_ch02.tif.gz,29.8542537689209,-4.3804497718811035
FA6_t045_ch02.tif.gz,30.570192337036133,-4.081360340118408
FA7_t010_ch02.tif.gz,17.721038818359375,-5.265466690063477
FA7_t011_ch02.tif.gz,-8.45111083984375,-15.755838394165039
FA7_t012_ch02.tif.gz,-7.233734607696533,-18.35549545288086
FA7_t013_ch02.tif.gz,-7.832023620605469,-15.3895902633667
FA7_t014_ch02.tif.gz,-6.7562360763549805,-18.301376342773438
FA7_t015_ch02.tif.gz,-7.325622081756592,-14.596112251281738
FA7_t016_ch02.tif.gz,-6.7241411209106445,-12.84028434753418
FA7_t017_ch02.tif.gz,-7.163690567016602,-13.652170181274414
FA7_t018_ch02.tif.gz,-18.446861267089844,18.062911987304688
FA7_t019_ch02.tif.gz,-8.497126579284668,2.4647376537323
FA7_t020_ch02.tif.gz,-9.443399429321289,3.2298457622528076
FA7_t021_ch02.tif.gz,-13.572602272033691,3.0770468711853027
FA7_t022_ch02.tif.gz,-1.708639144897461,-15.536911964416504
FA7_t023_ch02.tif.gz,-11.073958396911621,2.989210367202759
FA7_t024_ch02.tif.gz,-13.098941802978516,2.967121124267578
FA7_t025_ch02.tif.gz,11.352169036865234,0.9999322295188904
FA7_t026_ch02.tif.gz,-3.3840153217315674,0.44794848561286926
FA7_t027_ch02.tif.gz,-10.756682395935059,-24.302038192749023
FA7_t028_ch02.tif.gz,-1.6028460264205933,-15.248286247253418
FA7_t029_ch02.tif.gz,-4.330877780914307,-15.5967378616333
FA7_t030_ch02.tif.gz,-3.9662365913391113,-16.095449447631836
FA7_t031_ch02.tif.gz,-5.958069324493408,-16.115705490112305
FA7_t032_ch02.tif.gz,-4.759684085845947,-16.665908813476562
FA7_t033_ch02.tif.gz,-7.778768062591553,-22.82513999938965
FA7_t034_ch02.tif.gz,-4.189270496368408,-13.437917709350586
FA7_t035_ch02.tif.gz,-7.937114715576172,-22.46636390686035
FA7_t036_ch02.tif.gz,-5.66652250289917,-14.99122428894043
FA7_t037_ch02.tif.gz,9.196887969970703,3.8230667114257812
FA7_t038_ch02.tif.gz,-5.123009204864502,-14.674187660217285
FA7_t039_ch02.tif.gz,-4.027915000915527,-14.877213478088379
FA7_t040_ch02.tif.gz,-6.185804843902588,-12.108704566955566
FA7_t041_ch02.tif.gz,-1.345023274421692,-16.538042068481445
FA7_t042_ch02.tif.gz,-3.3557095527648926,-14.554786682128906
FA7_t043_ch02.tif.gz,-5.836658954620361,-10.836487770080566
FA7_t044_ch02.tif.gz,-6.07301139831543,-11.379337310791016
FA7_t045_ch02.tif.gz,-8.916244506835938,-6.419613838195801
FA7_t046_ch02.tif.gz,-8.224047660827637,-10.8782958984375
FA8_t007_ch02.tif.gz,0.6299283504486084,-14.266417503356934
FA8_t008_ch02.tif.gz,-18.792985916137695,-13.751516342163086
FA8_t009_ch02.tif.gz,-1.6199250221252441,-12.863167762756348
FA8_t010_ch02.tif.gz,-19.21405029296875,-14.44153881072998
FA8_t011_ch02.tif.gz,-19.26102066040039,-15.31406021118164
FA8_t012_ch02.tif.gz,-19.517894744873047,-15.292004585266113
FA8_t013_ch02.tif.gz,-20.652084350585938,-16.21927833557129
FA8_t014_ch02.tif.gz,-20.374998092651367,-17.03057289123535
FA8_t015_ch02.tif.gz,-21.736398696899414,-16.091093063354492
FA8_t016_ch02.tif.gz,-23.615015029907227,-14.372076988220215
FA8_t017_ch02.tif.gz,-22.865934371948242,-13.742324829101562
FA8_t018_ch02.tif.gz,-24.04266357421875,-12.289407730102539
FA8_t019_ch02.tif.gz,-22.300649642944336,-13.678277969360352
FA8_t020_ch02.tif.gz,-22.213191986083984,-12.333056449890137
FA8_t021_ch02.tif.gz,-24.3610897064209,-12.777104377746582
FA8_t022_ch02.tif.gz,-21.1613712310791,-12.715965270996094
FA8_t023_ch02.tif.gz,-21.691104888916016,-9.88821029663086
FA8_t024_ch02.tif.gz,-23.469039916992188,-12.987950325012207
FA8_t025_ch02.tif.gz,-23.739625930786133,-13.262125968933105
FA8_t026_ch02.tif.gz,-24.11383628845215,-10.301223754882812
FA8_t027_ch02.tif.gz,-24.41802406311035,-13.770634651184082
FA8_t028_ch02.tif.gz,-0.8144137263298035,3.879046678543091
FA8_t029_ch02.tif.gz,-21.821025848388672,-10.793466567993164
FA8_t030_ch02.tif.gz,-22.209270477294922,-10.28488540649414
FA8_t031_ch02.tif.gz,-20.782691955566406,-11.11096477508545
FA8_t032_ch02.tif.gz,-24.003873825073242,-10.98141860961914
FA8_t033_ch02.tif.gz,-23.313140869140625,-12.021450996398926
FA8_t034_ch02.tif.gz,-1.4107420444488525,-22.865537643432617
FA8_t035_ch02.tif.gz,-1.3549929857254028,-22.842458724975586
FA8_t036_ch02.tif.gz,-0.4502266049385071,-3.607874870300293
FA9_t011_ch02.tif.gz,17.38572120666504,10.207125663757324
FA9_t012_ch02.tif.gz,13.88385009765625,7.16281270980835
FA9_t013_ch02.tif.gz,12.740438461303711,8.480996131896973
FA9_t014_ch02.tif.gz,12.88082504272461,8.42125129699707
FA9_t015_ch02.tif.gz,15.412424087524414,6.191843509674072
FA9_t016_ch02.tif.gz,14.241501808166504,-4.963314533233643
FA9_t017_ch02.tif.gz,13.831246376037598,-4.803188800811768
FA9_t018_ch02.tif.gz,19.218059539794922,-3.0626611709594727
FA9_t019_ch02.tif.gz,14.583006858825684,-5.437114715576172
FA9_t020_ch02.tif.gz,2.9377520084381104,-12.708412170410156
FA9_t021_ch02.tif.gz,2.922528028488159,-12.704310417175293
FA9_t022_ch02.tif.gz,2.8980791568756104,-7.7256388664245605
FA9_t023_ch02.tif.gz,-0.28350040316581726,-5.935205936431885
FA9_t024_ch02.tif.gz,-0.26711010932922363,-5.924428462982178
FA9_t025_ch02.tif.gz,-1.4436067342758179,-5.773195266723633
FA9_t026_ch02.tif.gz,1.1820513010025024,-6.949318885803223
FA9_t027_ch02.tif.gz,2.686377763748169,-8.60987377166748
FA9_t028_ch02.tif.gz,1.9586619138717651,-8.097694396972656
FA9_t029_ch02.tif.gz,-3.9658260345458984,-4.888335227966309
FA9_t030_ch02.tif.gz,3.6446175575256348,-9.765571594238281
FA9_t031_ch02.tif.gz,0.871224582195282,-7.64121150970459
FA9_t032_ch02.tif.gz,0.9275868535041809,-7.650891304016113
FA9_t033_ch02.tif.gz,0.8303393125534058,-2.30999755859375
FA9_t034_ch02.tif.gz,0.9021342396736145,-2.5393013954162598
FA9_t035_ch02.tif.gz,1.2186392545700073,-4.012336254119873
FA9_t036_ch02.tif.gz,0.9603480100631714,-4.0159010887146
FA9_t037_ch02.tif.gz,1.7402489185333252,-5.356154918670654
FA9_t038_ch02.tif.gz,7.626676559448242,-13.51700210571289
FA9_t039_ch02.tif.gz,7.685824394226074,-13.429535865783691
FA9_t040_ch02.tif.gz,8.25081729888916,-12.211448669433594
FA9_t041_ch02.tif.gz,9.13625717163086,-10.01218032836914
FA9_t042_ch02.tif.gz,5.794618606567383,-10.999064445495605
FA9_t043_ch02.tif.gz,6.321439266204834,-10.619625091552734
FA9_t044_ch02.tif.gz,6.992658615112305,-10.337170600891113