id_center;selection;timestep;x;y;z;id_mother;validation
1;2;0;159;129;244;0;1
2;2;0;155;183;229;0;1
3;2;0;136;161;286;0;1
4;2;0;192;174;271;0;1
5;2;1;193;174;271;4;1
6;2;1;156;183;231;2;1
7;2;1;163;128;241;1;1
8;2;1;137;156;284;3;1
9;2;2;156;182;231;6;1
10;2;2;162;127;242;7;1
11;2;2;192;174;272;5;1
12;2;2;137;157;286;8;1
13;2;3;192;174;272;11;1
14;2;3;156;182;232;9;1
15;2;3;137;157;287;12;1
16;2;3;161;127;243;10;1
17;2;4;156;182;233;14;1
18;2;4;162;126;243;16;1
19;2;4;138;156;287;15;1
20;2;4;193;172;272;13;1
21;2;5;137;156;287;19;1
22;2;5;155;183;233;17;1
23;2;5;161;127;244;18;1
24;2;5;191;174;272;20;1
25;2;6;162;126;244;23;1
26;2;6;137;155;288;21;1
27;2;6;155;183;235;22;1
28;2;6;192;173;274;24;1
29;2;7;137;156;287;26;1
30;2;7;155;184;233;27;1
31;2;7;191;172;271;28;1
32;2;7;160;127;241;25;1
33;2;8;135;156;283;29;1
34;2;8;152;186;230;30;1
35;2;8;158;129;237;32;1
36;2;8;190;174;266;31;1
37;2;9;152;186;224;34;1
38;2;9;158;131;231;35;1
39;2;9;192;174;260;36;1
40;2;9;135;156;275;33;1
41;2;10;137;156;272;40;1
42;2;10;193;173;256;39;1
43;2;10;158;130;226;38;1
44;2;10;154;186;219;37;1
45;2;11;159;129;229;43;1
46;2;11;195;171;259;42;1
47;2;11;155;184;223;44;1
48;2;11;138;154;276;41;1
49;2;12;194;172;263;46;1
50;2;12;157;128;235;45;1
51;2;12;155;185;230;47;1
52;2;12;137;154;283;48;1
53;2;13;139;155;282;52;1
54;2;13;193;177;263;49;1
55;2;13;162;131;233;50;1
56;2;13;151;190;230;51;1
57;2;14;193;177;258;54;1
58;2;14;148;187;225;56;1
59;2;14;165;130;226;55;1
60;2;14;140;149;274;53;1
61;2;15;166;129;229;59;1
62;2;15;149;187;229;58;1
63;2;15;192;175;262;57;1
64;2;15;144;149;279;60;1
65;2;16;142;148;282;64;1
66;2;16;166;130;233;61;1
67;2;16;148;187;234;62;1
68;2;16;192;174;267;63;1
69;2;17;166;131;232;66;1
70;2;17;148;189;235;67;1
71;2;17;144;148;283;65;1
72;2;17;194;174;268;68;1
73;2;18;166;131;229;69;1
74;2;18;194;174;265;72;1
75;2;18;147;189;232;70;1
76;2;18;143;147;279;71;1
77;2;19;147;187;234;75;1
78;2;19;167;130;232;73;1
79;2;19;194;174;269;74;1
80;2;19;142;146;283;76;1
81;2;20;168;130;231;78;1
82;2;20;147;189;234;77;1
83;2;20;196;175;267;79;1
84;2;20;144;145;281;80;1
85;2;21;144;144;280;84;1
86;2;21;167;128;230;81;1
87;2;21;195;174;265;83;1
88;2;21;147;192;235;82;1
89;2;22;168;129;231;86;1
90;2;22;196;174;266;87;1
91;2;22;144;144;282;85;1
92;2;22;141;191;235;88;1
93;2;23;196;177;263;90;1
94;2;23;139;193;231;92;1
95;2;23;170;125;228;89;1
96;2;23;148;138;281;91;1
97;2;24;170;123;230;95;1
98;2;24;196;178;266;93;1
99;2;24;143;139;277;96;1
100;2;24;138;172;218;94;1
101;2;24;143;207;260;94;1
102;2;25;141;209;262;101;1
103;2;25;192;175;260;98;1
104;2;25;136;162;216;100;1
105;2;25;131;122;274;99;1
106;2;25;149;105;232;97;1
107;2;25;153;162;284;99;1
108;2;25;188;153;220;97;1
109;2;26;150;104;233;106;1
110;2;26;139;156;221;104;1
111;2;26;192;183;263;103;1
112;2;26;138;205;254;102;1
113;2;26;200;157;221;108;1
114;2;26;142;112;283;105;1
115;2;26;165;176;289;107;1
116;2;27;166;175;289;115;1
117;2;27;193;187;262;111;1
118;2;27;143;118;281;114;1
119;2;27;193;160;217;113;1
120;2;27;160;104;236;109;1
121;2;27;138;150;224;110;1
122;2;27;139;204;248;112;1
123;2;28;164;177;287;116;1
124;2;28;143;120;285;118;1
125;2;28;190;160;223;119;1
126;2;28;163;103;242;120;1
127;2;28;178;213;242;117;1
128;2;28;208;155;273;117;1
129;2;28;137;202;248;122;1
130;2;28;135;150;226;121;1
131;2;29;189;159;222;125;1
132;2;29;165;104;242;126;1
133;2;29;141;121;283;124;1
134;2;29;162;178;285;123;1
135;2;29;133;153;226;130;1
136;2;29;141;207;248;129;1
137;2;29;201;152;276;128;1
138;2;29;183;211;233;127;1
139;2;30;189;157;224;131;1
140;2;30;133;151;228;135;1
141;2;30;162;175;286;134;1
142;2;30;140;204;247;136;1
143;2;30;142;120;286;133;1
144;2;30;198;150;277;137;1
145;2;30;166;104;246;132;1
146;2;30;182;205;238;138;1
147;2;31;143;120;286;143;1
148;2;31;190;157;225;139;1
149;2;31;133;152;229;140;1
150;2;31;198;149;276;144;1
151;2;31;163;176;286;141;1
152;2;31;167;106;246;145;1
153;2;31;142;204;246;142;1
154;2;31;186;204;240;146;1
155;2;32;163;176;285;151;1
156;2;32;142;203;245;153;1
157;2;32;166;106;247;152;1
158;2;32;142;119;287;147;1
159;2;32;190;155;225;148;1
160;2;32;198;147;276;150;1
161;2;32;132;150;229;149;1
162;2;32;186;202;243;154;1
163;2;33;143;203;246;156;1
164;2;33;197;147;277;160;1
165;2;33;163;177;286;155;1
166;2;33;141;120;288;158;1
167;2;33;191;156;227;159;1
168;2;33;187;201;245;162;1
169;2;33;132;152;231;161;1
170;2;33;167;106;250;157;1
171;2;34;191;156;227;167;1
172;2;34;144;203;245;163;1
173;2;34;196;146;278;164;1
174;2;34;132;152;229;169;1
175;2;34;167;106;248;170;1
176;2;34;188;199;245;168;1
177;2;34;140;120;286;166;1
178;2;34;161;175;285;165;1
179;2;35;188;199;245;176;1
180;2;35;145;202;246;172;1
181;2;35;168;105;250;175;1
182;2;35;139;119;288;177;1
183;2;35;131;150;231;174;1
184;2;35;196;146;281;173;1
185;2;35;162;177;287;178;1
186;2;35;192;156;230;171;1
187;2;36;188;200;245;179;1
188;2;36;193;155;229;186;1
189;2;36;196;146;279;184;1
190;2;36;145;203;244;180;1
191;2;36;138;119;286;182;1
192;2;36;167;106;248;181;1
193;2;36;161;178;284;185;1
194;2;36;132;151;231;183;1
195;2;37;167;106;249;192;1
196;2;37;193;154;230;188;1
197;2;37;189;199;246;187;1
198;2;37;147;203;245;190;1
199;2;37;196;145;281;189;1
200;2;37;161;179;287;193;1
201;2;37;137;124;285;191;1
202;2;37;132;151;231;194;1
203;2;38;192;154;231;196;1
204;2;38;189;200;245;197;1
205;2;38;147;203;243;198;1
206;2;38;195;146;279;199;1
207;2;38;165;106;247;195;1
208;2;38;159;178;285;200;1
209;2;38;136;125;282;201;1
210;2;38;128;152;230;202;1
211;2;39;128;152;229;210;1
212;2;39;166;105;247;207;1
213;2;39;159;177;286;208;1
214;2;39;148;202;244;205;1
215;2;39;190;199;246;204;1
216;2;39;192;153;233;203;1
217;2;39;135;126;284;209;1
218;2;39;194;144;281;206;1
219;2;40;128;152;230;211;1
220;2;40;192;154;233;216;1
221;2;40;194;145;281;218;1
222;2;40;148;203;245;214;1
223;2;40;165;106;247;212;1
224;2;40;134;126;285;217;1
225;2;40;160;178;286;213;1
226;2;40;191;199;248;215;1
227;2;41;194;145;281;221;1
228;2;41;127;152;230;219;1
229;2;41;193;154;233;220;1
230;2;41;165;106;246;223;1
231;2;41;191;198;248;226;1
232;2;41;160;178;287;225;1
233;2;41;132;126;284;224;1
234;2;41;147;201;246;222;1
235;2;42;160;179;287;232;1
236;2;42;128;151;230;228;1
237;2;42;166;107;245;230;1
238;2;42;194;145;283;227;1
239;2;42;147;203;247;234;1
240;2;42;133;125;282;233;1
241;2;42;194;157;234;229;1
242;2;42;191;200;251;231;1
243;2;43;146;203;247;239;1
244;2;43;128;152;229;236;1
245;2;43;167;107;244;237;1
246;2;43;190;200;250;242;1
247;2;43;158;178;287;235;1
248;2;43;195;156;232;241;1
249;2;43;195;146;281;238;1
250;2;43;131;125;280;240;1
251;2;44;167;108;245;245;1
252;2;44;131;124;282;250;1
253;2;44;195;145;283;249;1
254;2;44;145;202;249;243;1
255;2;44;189;199;253;246;1
256;2;44;195;158;235;248;1
257;2;44;129;149;231;244;1
258;2;44;157;176;290;247;1
259;2;45;188;200;252;255;1
260;2;45;167;108;243;251;1
261;2;45;195;145;281;253;1
262;2;45;158;176;288;258;1
263;2;45;127;150;230;257;1
264;2;45;194;159;233;256;1
265;2;45;143;203;248;254;1
266;2;45;131;124;279;252;1
267;2;46;158;174;289;262;1
268;2;46;199;146;281;261;1
269;2;46;141;203;252;265;1
270;2;46;131;149;228;263;1
271;2;46;197;164;234;264;1
272;2;46;186;203;257;259;1
273;2;46;174;110;240;260;1
274;2;46;138;119;277;266;1
275;2;47;142;203;251;269;1
276;2;47;186;204;256;272;1
277;2;47;157;173;289;267;1
278;2;47;198;165;233;271;1
279;2;47;138;119;275;274;1
280;2;47;132;151;227;270;1
281;2;47;198;147;279;268;1
282;2;47;174;110;237;273;1
283;2;48;141;203;251;275;1
284;2;48;137;119;275;279;1
285;2;48;132;150;228;280;1
286;2;48;199;164;234;278;1
287;2;48;185;203;257;276;1
288;2;48;199;148;280;281;1
289;2;48;157;172;291;277;1
290;2;48;174;110;240;282;1
291;2;49;131;149;228;285;1
292;2;49;198;164;235;286;1
293;2;49;174;109;241;290;1
294;2;49;138;119;276;284;1
295;2;49;156;171;292;289;1
296;2;49;185;202;259;287;1
297;2;49;199;147;282;288;1
298;2;49;139;201;253;283;1
299;2;50;174;110;240;293;1
300;2;50;139;201;251;298;1
301;2;50;137;119;274;294;1
302;2;50;197;147;281;297;1
303;2;50;199;163;233;292;1
304;2;50;132;151;226;291;1
305;2;50;154;173;290;295;1
306;2;50;186;200;256;296;1
307;2;51;197;145;282;302;1
308;2;51;134;149;227;304;1
309;2;51;200;166;234;303;1
310;2;51;154;170;293;305;1
311;2;51;183;201;259;306;1
312;2;51;137;201;255;300;1
313;2;51;177;112;239;299;1
314;2;51;141;117;272;301;1
315;2;52;182;200;259;311;1
316;2;52;136;202;254;312;1
317;2;52;200;168;233;309;1
318;2;52;197;145;279;307;1
319;2;52;154;168;290;310;1
320;2;52;133;152;225;308;1
321;2;52;178;114;235;313;1
322;2;52;139;119;268;314;1
323;2;53;134;152;225;320;1
324;2;53;139;118;268;322;1
325;2;53;200;167;234;317;1
326;2;53;136;201;255;316;1
327;2;53;196;144;280;318;1
328;2;53;177;114;237;321;1
329;2;53;154;169;292;319;1
330;2;53;183;198;260;315;1
331;2;54;200;167;234;325;1
332;2;54;139;118;268;324;1
333;2;54;178;115;236;328;1
334;2;54;195;143;281;327;1
335;2;54;132;152;226;323;1
336;2;54;184;198;262;330;1
337;2;54;153;167;293;329;1
338;2;54;136;201;258;326;1
339;2;55;199;167;233;331;1
340;2;55;137;201;257;338;1
341;2;55;184;197;261;336;1
342;2;55;194;143;280;334;1
343;2;55;133;153;225;335;1
344;2;55;138;118;266;332;1
345;2;55;153;166;291;337;1
346;2;55;176;116;235;333;1
347;2;56;134;153;225;343;1
348;2;56;138;118;267;344;1
349;2;56;153;166;292;345;1
350;2;56;177;116;236;346;1
351;2;56;138;201;259;340;1
352;2;56;200;166;235;339;1
353;2;56;185;196;263;341;1
354;2;56;193;142;282;342;1
355;2;57;135;155;225;347;1
356;2;57;192;142;280;354;1
357;2;57;154;167;290;349;1
358;2;57;202;167;233;352;1
359;2;57;138;119;264;348;1
360;2;57;140;203;257;351;1
361;2;57;176;118;232;350;1
362;2;57;189;197;261;353;1
363;2;58;178;117;232;361;1
364;2;58;137;153;223;355;1
365;2;58;192;139;278;356;1
366;2;58;141;206;259;360;1
367;2;58;204;164;231;358;1
368;2;58;140;115;263;359;1
369;2;58;193;192;262;362;1
370;2;58;157;160;290;357;1
371;2;59;178;117;233;363;1
372;2;59;140;115;264;368;1
373;2;59;138;152;224;364;1
374;2;59;203;162;231;367;1
375;2;59;193;137;278;365;1
376;2;59;158;158;291;370;1
377;2;59;196;187;262;369;1
378;2;59;142;200;256;366;1
379;2;60;158;159;290;376;1
380;2;60;137;154;224;373;1
381;2;60;192;137;276;375;1
382;2;60;198;187;260;377;1
383;2;60;175;117;231;371;1
384;2;60;200;161;229;374;1
385;2;60;137;117;263;372;1
386;2;60;145;200;259;378;1
387;2;61;201;159;228;384;1
388;2;61;174;116;233;383;1
389;2;61;137;157;225;380;1
390;2;61;191;134;277;381;1
391;2;61;200;184;260;382;1
392;2;61;134;118;265;385;1
393;2;61;161;160;292;379;1
394;2;61;134;216;249;386;1
395;1;61;164;166;267;386;1
396;2;62;137;160;226;389;1
397;2;62;200;162;228;387;1
398;2;62;192;134;274;390;1
399;2;62;136;118;261;392;1
400;2;62;157;158;291;393;1
401;2;62;173;120;230;388;1
402;2;62;194;187;264;391;1
403;2;62;142;217;248;394;1
404;1;62;162;175;261;395;1
405;2;63;193;134;273;398;1
406;2;63;171;120;231;401;1
407;2;63;135;161;225;396;1
408;2;63;138;117;258;399;1
409;2;63;153;155;294;400;1
410;2;63;198;167;224;397;1
411;2;63;189;190;268;402;1
412;1;63;156;180;260;404;1
413;2;63;154;217;245;403;1
414;2;64;140;117;258;408;1
415;2;64;172;122;232;406;1
416;2;64;135;163;227;407;1
417;2;64;194;137;275;405;1
418;1;64;152;183;260;412;1
419;2;64;148;157;296;409;1
420;2;64;184;192;272;411;1
421;2;64;160;218;248;413;1
422;2;64;204;171;229;410;1
423;2;65;193;137;274;417;1
424;2;65;159;220;251;421;1
425;2;65;134;167;226;416;1
426;2;65;169;124;229;415;1
427;2;65;180;195;272;420;1
428;2;65;137;118;254;414;1
429;1;65;145;188;258;418;1
430;2;65;139;143;296;419;1
431;2;65;194;180;212;422;1
432;2;65;156;177;281;419;1
433;2;65;197;158;252;422;1
434;2;66;193;136;277;423;1
435;1;66;142;190;257;429;1
436;2;66;132;170;228;425;1
437;2;66;157;219;256;424;1
438;2;66;182;200;270;427;1
439;2;66;136;121;248;428;1
440;2;66;168;133;228;426;1
441;2;66;208;164;257;433;1
442;2;66;165;186;276;432;1
443;2;66;134;130;295;430;1
444;2;66;181;176;204;431;1
445;2;67;183;198;270;438;1
446;2;67;206;167;257;441;1
447;2;67;171;136;229;440;1
448;2;67;134;174;227;436;1
449;2;67;163;222;256;437;1
450;2;67;159;189;276;442;1
451;2;67;135;128;246;439;1
452;2;67;173;176;206;444;1
453;1;67;137;196;262;435;1
454;2;67;129;133;281;443;1
455;2;67;179;170;271;434;1
456;2;67;176;108;277;434;1
457;2;68;135;128;245;451;1
458;2;68;131;134;280;454;1
459;2;68;173;134;229;447;1
460;2;68;138;173;229;448;1
461;2;68;168;219;256;449;1
462;2;68;175;172;210;452;1
463;1;68;142;191;261;453;1
464;2;68;179;163;276;455;1
465;2;68;207;158;257;446;1
466;2;68;187;190;273;445;1
467;2;68;158;180;272;450;1
468;2;68;174;105;268;456;1
469;2;69;139;173;229;460;1
470;2;69;177;172;210;462;1
471;2;69;132;136;281;458;1
472;1;69;144;189;260;463;1
473;2;69;160;177;271;467;1
474;2;69;176;133;230;459;1
475;2;69;206;155;254;465;1
476;2;69;133;131;248;457;1
477;2;69;169;104;269;468;1
478;2;69;161;218;255;461;1
479;2;69;183;157;277;464;1
480;2;69;194;186;272;466;1
481;1;70;145;191;261;472;1
482;2;70;184;158;274;479;1
483;2;70;141;174;227;469;1
484;2;70;208;157;252;475;1
485;2;70;158;215;255;478;1
486;2;70;181;173;208;470;1
487;2;70;160;174;267;473;1
488;2;70;180;137;230;474;1
489;2;70;171;110;272;477;1
490;2;70;141;129;247;476;1
491;2;70;135;142;288;471;1
492;2;70;183;173;267;480;1
493;2;70;192;211;263;480;1
494;2;71;172;112;275;489;1
495;2;71;184;162;274;492;1
496;2;71;161;174;272;487;1
497;2;71;146;172;227;483;1
498;2;71;186;175;210;486;1
499;2;71;137;145;293;491;1
500;2;71;141;124;252;490;1
501;2;71;180;130;232;488;1
502;2;71;211;164;254;484;1
503;2;71;182;152;279;482;1
504;1;71;146;183;263;481;1
505;2;71;147;213;254;485;1
506;2;71;175;218;255;493;1
507;2;72;212;165;256;502;1
508;2;72;172;114;277;494;1
509;2;72;189;174;211;498;1
510;2;72;141;146;297;499;1
511;2;72;186;154;283;503;1
512;2;72;152;172;229;497;1
513;2;72;140;210;254;505;1
514;2;72;168;217;255;506;1
515;2;72;182;121;233;501;1
516;1;72;151;190;269;504;1
517;2;72;191;170;274;495;1
518;2;72;172;179;279;496;1
519;1;72;148;159;268;500;1
520;2;72;145;103;249;500;1
521;1;73;151;191;267;516;1
522;2;73;165;215;255;514;1
523;2;73;138;209;251;513;1
524;2;73;186;173;209;509;1
525;2;73;170;117;279;508;1
526;2;73;175;180;278;518;1
527;2;73;144;149;296;510;1
528;2;73;144;105;244;520;1
529;1;73;154;158;269;519;1
530;2;73;191;156;278;511;1
531;2;73;210;170;249;507;1
532;2;73;193;177;269;517;1
533;2;73;146;159;229;512;1
534;2;73;162;131;219;515;1
535;2;73;200;136;251;515;1
536;2;74;162;134;221;534;1
537;1;74;151;189;264;521;1
538;2;74;192;179;266;532;1
539;1;74;154;154;268;529;1
540;2;74;141;149;293;527;1
541;2;74;207;173;248;531;1
542;2;74;167;212;258;522;1
543;2;74;173;178;275;526;1
544;2;74;188;158;281;530;1
545;2;74;147;160;228;533;1
546;2;74;138;204;253;523;1
547;2;74;170;120;284;525;1
548;2;74;188;167;212;524;1
549;2;74;199;143;255;535;1
550;2;74;153;105;246;528;1
551;2;75;166;211;258;542;1
552;2;75;192;181;266;538;1
553;2;75;169;122;284;547;1
554;1;75;156;153;266;539;1
555;2;75;174;179;272;543;1
556;1;75;151;188;260;537;1
557;2;75;191;164;212;548;1
558;2;75;157;107;245;550;1
559;2;75;206;169;246;541;1
560;2;75;188;159;276;544;1
561;2;75;141;154;294;540;1
562;2;75;137;204;247;546;1
563;2;75;157;142;223;536;1
564;2;75;191;140;249;549;1
565;2;75;171;174;215;545;1
566;2;75;123;150;249;545;1
567;2;76;155;141;224;563;1
568;2;76;168;123;286;553;1
569;2;76;155;107;243;558;1
570;2;76;192;162;215;557;1
571;2;76;135;205;244;562;1
572;2;76;189;182;268;552;1
573;2;76;138;152;292;561;1
574;2;76;170;180;271;555;1
575;2;76;205;166;249;559;1
576;2;76;184;158;279;560;1
577;1;76;146;186;259;556;1
578;2;76;186;138;251;564;1
579;2;76;163;207;261;551;1
580;1;76;151;150;264;554;1
581;2;76;128;150;253;566;1
582;2;76;172;174;224;565;1
583;2;77;191;162;214;570;1
584;2;77;163;206;260;579;1
585;2;77;156;142;223;567;1
586;2;77;184;138;252;578;1
587;2;77;130;150;252;581;1
588;2;77;168;179;271;574;1
589;2;77;182;160;278;576;1
590;2;77;169;174;224;582;1
591;1;77;150;150;261;580;1
592;2;77;189;185;267;572;1
593;2;77;168;125;283;568;1
594;2;77;204;169;247;575;1
595;2;77;135;153;290;573;1
596;2;77;135;207;240;571;1
597;1;77;145;184;255;577;1
598;2;77;155;112;238;569;1
599;2;78;136;206;239;596;1
600;1;78;144;183;254;597;1
601;2;78;157;112;237;598;1
602;2;78;161;206;261;584;1
603;2;78;187;185;268;592;1
604;2;78;166;178;271;588;1
605;2;78;168;123;284;593;1
606;2;78;133;152;290;595;1
607;1;78;150;147;261;591;1
608;2;78;171;171;225;590;1
609;2;78;183;136;255;586;1
610;2;78;181;157;280;589;1
611;2;78;129;150;247;587;1
612;2;78;204;165;252;594;1
613;2;78;196;160;218;583;1
614;2;78;161;137;224;585;1
615;1;79;145;183;254;600;1
616;2;79;161;206;263;602;1
617;2;79;173;170;225;608;1
618;1;79;150;145;260;607;1
619;2;79;131;152;289;606;1
620;2;79;186;186;270;603;1
621;2;79;164;178;269;604;1
622;2;79;164;137;225;614;1
623;2;79;160;113;236;601;1
624;2;79;203;164;255;612;1
625;2;79;165;122;285;605;1
626;2;79;136;204;236;599;1
627;2;79;185;137;258;609;1
628;2;79;129;150;243;611;1
629;2;79;176;159;282;610;1
630;2;79;200;160;223;613;1
631;2;80;173;169;226;617;1
632;2;80;186;136;258;627;1
633;2;80;160;205;263;616;1
634;2;80;204;163;256;624;1
635;2;80;163;177;268;621;1
636;2;80;184;186;269;620;1
637;2;80;163;122;284;625;1
638;2;80;162;113;234;623;1
639;2;80;168;137;225;622;1
640;2;80;176;155;282;629;1
641;2;80;203;158;225;630;1
642;1;80;145;181;249;615;1
643;2;80;129;152;284;619;1
644;2;80;138;202;231;626;1
645;1;80;150;140;257;618;1
646;2;80;130;149;235;628;1
647;1;81;145;182;249;642;1
648;2;81;169;137;226;639;1
649;2;81;172;169;227;631;1
650;2;81;130;150;234;646;1
651;1;81;150;139;256;645;1
652;2;81;162;122;285;637;1
653;2;81;140;202;231;644;1
654;2;81;164;114;234;638;1
655;2;81;127;153;284;643;1
656;2;81;187;135;260;632;1
657;2;81;174;154;284;640;1
658;2;81;203;163;259;634;1
659;2;81;183;185;272;636;1
660;2;81;161;177;271;635;1
661;2;81;205;160;228;641;1
662;2;81;159;203;267;633;1
663;2;82;187;133;261;656;1
664;2;82;165;115;232;654;1
665;1;82;146;181;247;647;1
666;2;82;174;167;226;649;1
667;2;82;207;159;230;661;1
668;2;82;201;165;260;658;1
669;2;82;159;176;269;660;1
670;2;82;172;153;283;657;1
671;2;82;156;203;265;662;1
672;2;82;180;187;272;659;1
673;2;82;129;151;230;650;1
674;2;82;159;122;282;652;1
675;2;82;124;153;280;655;1
676;2;82;140;203;226;653;1
677;1;82;149;140;251;651;1
678;2;82;174;135;224;648;1
679;2;83;159;175;270;669;1
680;1;83;146;180;245;665;1
681;2;83;170;152;283;670;1
682;2;83;142;202;225;676;1
683;2;83;153;203;266;671;1
684;2;83;178;185;274;672;1
685;2;83;132;151;228;673;1
686;2;83;156;120;282;674;1
687;2;83;168;114;234;664;1
688;1;83;152;138;250;677;1
689;2;83;122;152;277;675;1
690;2;83;200;165;264;668;1
691;2;83;188;132;265;663;1
692;2;83;178;167;227;666;1
693;2;83;210;159;235;667;1
694;2;83;179;133;226;678;1
695;2;84;142;202;226;682;1
696;1;84;152;138;251;688;1
697;2;84;179;167;228;692;1
698;1;84;145;179;245;680;1
699;2;84;154;121;283;686;1
700;2;84;181;134;228;694;1
701;2;84;132;148;228;685;1
702;2;84;188;132;268;691;1
703;2;84;120;150;276;689;1
704;2;84;156;175;271;679;1
705;2;84;171;116;235;687;1
706;2;84;168;153;286;681;1
707;2;84;149;201;267;683;1
708;2;84;199;167;268;690;1
709;2;84;210;160;240;693;1
710;2;84;174;184;276;684;1
711;2;85;174;184;275;710;1
712;2;85;172;116;234;705;1
713;2;85;189;132;267;702;1
714;2;85;198;167;267;708;1
715;2;85;155;175;270;704;1
716;2;85;168;154;285;706;1
717;1;85;145;180;243;698;1
718;2;85;143;201;224;695;1
719;2;85;211;163;240;709;1
720;2;85;181;169;226;697;1
721;1;85;154;138;248;696;1
722;2;85;133;151;226;701;1
723;2;85;184;136;227;700;1
724;2;85;121;148;273;703;1
725;2;85;147;203;264;707;1
726;2;85;153;121;279;699;1
727;2;86;181;169;227;720;1
728;2;86;121;147;273;724;1
729;2;86;153;120;279;726;1
730;1;86;146;181;243;717;1
731;2;86;154;175;271;715;1
732;2;86;135;150;226;722;1
733;2;86;173;114;234;712;1
734;2;86;211;164;242;719;1
735;2;86;190;132;269;713;1
736;1;86;156;136;247;721;1
737;2;86;173;186;277;711;1
738;2;86;168;151;284;716;1
739;2;86;197;168;270;714;1
740;2;86;145;203;226;718;1
741;2;86;187;138;228;723;1
742;2;86;146;200;267;725;1
743;2;87;168;151;284;738;1
744;1;87;146;181;244;730;1
745;2;87;121;146;273;728;1
746;2;87;153;119;279;729;1
747;2;87;182;170;227;727;1
748;2;87;144;203;227;740;1
749;2;87;211;165;243;734;1
750;1;87;157;137;247;736;1
751;2;87;196;169;270;739;1
752;2;87;172;187;277;737;1
753;2;87;188;139;229;741;1
754;2;87;172;115;235;733;1
755;2;87;145;199;266;742;1
756;2;87;135;152;227;732;1
757;2;87;191;132;267;735;1
758;2;87;153;174;272;731;1
759;2;88;212;165;243;749;1
760;2;88;191;133;267;757;1
761;2;88;195;170;270;751;1
762;2;88;182;170;225;747;1
763;2;88;144;202;225;748;1
764;2;88;190;139;228;753;1
765;2;88;172;116;233;754;1
766;1;88;157;136;245;750;1
767;2;88;155;118;278;746;1
768;2;88;152;172;270;758;1
769;2;88;167;149;282;743;1
770;2;88;142;199;265;755;1
771;2;88;136;151;224;756;1
772;2;88;123;144;271;745;1
773;2;88;169;188;275;752;1
774;1;88;145;177;242;744;1
775;2;89;169;188;274;773;1
776;2;89;183;170;226;762;1
777;2;89;173;115;233;765;1
778;2;89;213;166;244;759;1
779;2;89;151;171;271;768;1
780;2;89;124;142;271;772;1
781;2;89;195;169;272;761;1
782;2;89;157;117;278;767;1
783;2;89;168;149;284;769;1
784;2;89;142;203;226;763;1
785;1;89;146;175;240;774;1
786;2;89;191;133;270;760;1
787;1;89;160;135;245;766;1
788;2;89;139;150;225;771;1
789;2;89;194;140;229;764;1
790;2;89;139;196;268;770;1
791;2;90;151;171;270;779;1
792;2;90;212;167;243;778;1
793;2;90;142;203;224;784;1
794;1;90;160;135;243;787;1
795;2;90;126;142;271;780;1
796;2;90;172;115;231;777;1
797;2;90;193;141;227;789;1
798;1;90;144;174;239;785;1
799;2;90;194;170;270;781;1
800;2;90;137;194;266;790;1
801;2;90;139;152;222;788;1
802;2;90;158;119;275;782;1
803;2;90;183;171;222;776;1
804;2;90;193;135;267;786;1
805;2;90;167;190;271;775;1
806;2;90;169;149;280;783;1
807;2;91;151;172;270;791;1
808;1;91;161;135;244;794;1
809;2;91;174;115;231;796;1
810;2;91;141;203;226;793;1
811;2;91;195;136;267;804;1
812;2;91;170;149;282;806;1
813;2;91;194;143;228;797;1
814;2;91;193;171;272;799;1
815;1;91;142;174;241;798;1
816;2;91;164;191;270;805;1
817;2;91;139;149;224;801;1
818;2;91;127;138;271;795;1
819;2;91;211;170;246;792;1
820;2;91;134;191;267;800;1
821;2;91;183;173;226;803;1
822;2;91;162;116;275;802;1
823;2;92;183;173;225;821;1
824;2;92;133;191;267;820;1
825;2;92;193;171;273;814;1
826;2;92;174;116;231;809;1
827;2;92;195;137;266;811;1
828;2;92;142;202;225;810;1
829;1;92;143;173;240;815;1
830;2;92;151;172;268;807;1
831;1;92;163;135;243;808;1
832;2;92;129;138;270;818;1
833;2;92;171;150;280;812;1
834;2;92;211;173;246;819;1
835;2;92;197;145;228;813;1
836;2;92;141;146;225;817;1
837;2;92;165;113;274;822;1
838;2;92;163;193;266;816;1
839;2;93;140;146;225;836;1
840;2;93;174;116;230;826;1
841;2;93;151;172;269;830;1
842;2;93;184;174;225;823;1
843;2;93;197;144;229;835;1
844;2;93;162;193;265;838;1
845;2;93;194;136;266;827;1
846;2;93;193;172;274;825;1
847;2;93;132;192;266;824;1
848;2;93;170;149;281;833;1
849;1;93;164;137;243;831;1
850;2;93;129;136;269;832;1
851;2;93;165;112;272;837;1
852;1;93;144;172;242;829;1
853;2;93;208;173;247;834;1
854;2;93;142;198;223;828;1
855;2;94;174;116;230;840;1
856;2;94;208;173;247;853;1
857;2;94;193;172;274;846;1
858;2;94;142;197;223;854;1
859;2;94;196;144;229;843;1
860;2;94;163;193;265;844;1
861;1;94;145;173;242;852;1
862;2;94;195;136;265;845;1
863;2;94;129;135;270;850;1
864;2;94;151;171;270;841;1
865;2;94;166;111;273;851;1
866;2;94;171;148;282;848;1
867;2;94;182;174;226;842;1
868;1;94;163;136;245;849;1
869;2;94;132;191;269;847;1
870;2;94;139;151;223;839;1
871;2;95;152;171;270;864;1
872;2;95;163;192;264;860;1
873;2;95;193;173;273;857;1
874;1;95;146;174;241;861;1
875;2;95;133;192;268;869;1
876;2;95;166;111;271;865;1
877;2;95;195;137;263;862;1
878;2;95;171;150;281;866;1
879;2;95;195;145;227;859;1
880;2;95;140;198;221;858;1
881;2;95;136;150;223;870;1
882;2;95;174;117;227;855;1
883;2;95;208;174;244;856;1
884;1;95;162;135;242;868;1
885;2;95;180;175;224;867;1
886;2;95;130;136;266;863;1
887;1;96;146;174;241;874;1
888;2;96;207;174;244;883;1
889;2;96;164;192;264;872;1
890;2;96;137;150;224;881;1
891;2;96;180;176;225;885;1
892;2;96;174;118;228;882;1
893;2;96;195;136;262;877;1
894;1;96;161;136;241;884;1
895;2;96;194;147;227;879;1
896;2;96;130;137;268;886;1
897;2;96;154;169;270;871;1
898;2;96;139;199;224;880;1
899;2;96;194;170;271;873;1
900;2;96;134;191;272;875;1
901;2;96;170;146;280;878;1
902;2;96;166;107;269;876;1
903;2;97;174;119;228;892;1
904;2;97;137;149;225;890;1
905;2;97;195;147;228;895;1
906;2;97;170;145;281;901;1
907;2;97;206;174;245;888;1
908;2;97;196;135;261;893;1
909;2;97;167;108;270;902;1
910;2;97;133;190;273;900;1
911;2;97;194;170;273;899;1
912;1;97;145;174;243;887;1
913;2;97;164;191;266;889;1
914;2;97;132;135;267;896;1
915;2;97;153;167;272;897;1
916;2;97;136;199;226;898;1
917;2;97;179;179;227;891;1
918;1;97;164;134;243;894;1
919;2;98;133;190;274;910;1
920;1;98;146;175;242;912;1
921;2;98;152;168;271;915;1
922;2;98;194;148;226;905;1
923;2;98;162;192;265;913;1
924;2;98;193;171;271;911;1
925;2;98;171;147;280;906;1
926;2;98;135;151;224;904;1
927;2;98;175;121;226;903;1
928;2;98;177;181;226;917;1
929;2;98;204;175;243;907;1
930;1;98;165;135;240;918;1
931;2;98;135;202;228;916;1
932;2;98;197;137;258;908;1
933;2;98;170;110;269;909;1
934;2;98;132;130;266;914;1
935;2;99;135;151;225;926;1
936;2;99;176;121;226;927;1
937;2;99;198;137;258;932;1
938;2;99;177;182;227;928;1
939;2;99;169;110;270;933;1
940;2;99;195;150;226;922;1
941;2;99;130;131;266;934;1
942;2;99;152;167;273;921;1
943;1;99;166;133;241;930;1
944;2;99;205;177;244;929;1
945;2;99;194;169;273;924;1
946;2;99;163;192;268;923;1
947;2;99;171;144;282;925;1
948;2;99;131;187;276;919;1
949;1;99;146;173;245;920;1
950;2;99;132;196;231;931;1
951;2;100;171;107;268;939;1
952;2;100;130;187;276;948;1
953;2;100;175;121;225;936;1
954;2;100;136;150;225;935;1
955;2;100;206;177;245;944;1
956;2;100;198;136;260;937;1
957;2;100;196;152;227;940;1
958;2;100;179;183;229;938;1
959;2;100;172;142;284;947;1
960;2;100;166;191;270;946;1
961;1;100;170;133;241;943;1
962;2;100;195;165;273;945;1
963;2;100;155;164;274;942;1
964;1;100;149;169;247;949;1
965;2;100;137;191;232;950;1
966;2;100;131;135;260;941;1
967;2;101;178;183;228;958;1
968;2;101;136;151;223;954;1
969;2;101;206;178;243;955;1
970;2;101;199;137;258;956;1
971;1;101;170;134;238;961;1
972;1;101;149;170;244;964;1
973;2;101;158;165;274;963;1
974;2;101;132;134;257;966;1
975;2;101;169;191;268;960;1
976;2;101;197;169;273;962;1
977;2;101;134;187;274;952;1
978;2;101;174;139;282;959;1
979;2;101;195;156;224;957;1
980;2;101;136;195;229;965;1
981;2;101;177;124;220;953;1
982;2;101;174;106;263;951;1
983;2;102;199;137;257;970;1
984;2;102;138;152;223;968;1
985;2;102;207;176;244;969;1
986;2;102;199;168;274;976;1
987;2;102;177;126;218;981;1
988;2;102;197;154;224;979;1
989;2;102;174;104;261;982;1
990;1;102;150;172;247;972;1
991;2;102;177;136;282;978;1
992;2;102;174;191;266;975;1
993;1;102;174;136;236;971;1
994;2;102;135;188;280;977;1
995;2;102;185;177;229;967;1
996;2;102;156;166;289;973;1
997;2;102;168;189;219;980;1
998;2;102;138;141;283;974;1
999;2;102;121;195;249;980;1
1000;2;102;143;117;242;974;1
1001;2;103;199;137;257;983;1
1002;2;103;177;137;282;991;1
1003;2;103;195;154;225;988;1
1004;2;103;205;175;244;985;1
1005;2;103;136;153;224;984;1
1006;2;103;197;166;275;986;1
1007;2;103;158;165;286;996;1
1008;2;103;175;123;220;987;1
1009;2;103;174;188;263;992;1
1010;1;103;172;139;235;993;1
1011;2;103;181;176;232;995;1
1012;2;103;144;122;236;1000;1
1013;2;103;134;196;280;994;1
1014;2;103;141;135;288;998;1
1015;2;103;120;190;256;999;1
1016;2;103;169;111;262;989;1
1017;2;103;162;180;221;997;1
1018;1;103;143;150;258;990;1
1019;1;103;137;189;228;990;1
1020;2;104;120;190;258;1015;1
1021;2;104;193;155;223;1003;1
1022;2;104;173;123;219;1008;1
1023;2;104;171;110;260;1016;1
1024;2;104;200;166;271;1006;1
1025;1;104;169;142;232;1010;1
1026;2;104;204;174;239;1004;1
1027;2;104;139;124;236;1012;1
1028;2;104;197;137;252;1001;1
1029;2;104;131;156;224;1005;1
1030;2;104;174;135;277;1002;1
1031;2;104;176;179;226;1011;1
1032;1;104;138;195;234;1019;1
1033;2;104;136;184;281;1013;1
1034;2;104;172;191;255;1009;1
1035;2;104;143;143;284;1007;1
1036;1;104;166;184;268;1007;1
1037;2;104;139;125;286;1014;1
1038;2;104;157;190;222;1017;1
1039;1;104;131;148;259;1018;1
1040;1;105;170;142;232;1025;1
1041;1;105;139;195;235;1032;1
1042;2;105;171;192;254;1034;1
1043;2;105;129;157;225;1029;1
1044;1;105;133;150;258;1039;1
1045;2;105;195;155;220;1021;1
1046;2;105;169;121;220;1022;1
1047;2;105;203;168;268;1024;1
1048;2;105;200;139;248;1028;1
1049;2;105;178;183;222;1031;1
1050;2;105;206;177;234;1026;1
1051;2;105;153;195;221;1038;1
1052;2;105;140;149;285;1035;1
1053;2;105;136;130;240;1027;1
1054;2;105;145;125;281;1037;1
1055;2;105;175;145;279;1030;1
1056;2;105;130;181;257;1033;1
1057;2;105;192;125;264;1023;1
1058;2;105;142;115;255;1023;1
1059;2;105;153;179;299;1033;1
1060;2;105;122;195;261;1020;1
1061;1;105;166;179;264;1036;1
1062;2;106;153;196;221;1051;1
1063;1;106;138;195;234;1041;1
1064;2;106;127;158;226;1043;1
1065;2;106;192;155;221;1045;1
1066;2;106;197;138;248;1048;1
1067;2;106;166;120;221;1046;1
1068;1;106;167;141;234;1040;1
1069;2;106;132;182;254;1056;1
1070;2;106;175;180;222;1049;1
1071;1;106;132;155;258;1044;1
1072;2;106;202;180;232;1050;1
1073;2;106;140;109;255;1058;1
1074;2;106;171;186;257;1042;1
1075;2;106;138;128;283;1054;1
1076;2;106;133;127;247;1053;1
1077;2;106;191;120;257;1057;1
1078;2;106;195;169;262;1047;1
1079;2;106;137;160;288;1052;1
1080;2;106;166;174;295;1059;1
1081;1;106;151;147;275;1055;1
1082;2;106;124;197;251;1060;1
1083;2;106;197;137;282;1055;1
1084;1;106;152;174;268;1061;1
1085;2;107;154;197;220;1062;1
1086;1;107;133;156;259;1071;1
1087;2;107;140;107;255;1073;1
1088;1;107;139;193;235;1063;1
1089;2;107;171;184;259;1074;1
1090;2;107;164;119;223;1067;1
1091;2;107;131;129;246;1076;1
1092;2;107;173;181;222;1070;1
1093;2;107;137;157;286;1079;1
1094;2;107;131;182;258;1069;1
1095;2;107;167;173;299;1080;1
1096;2;107;129;162;227;1064;1
1097;1;107;153;146;271;1081;1
1098;1;107;162;140;234;1068;1
1099;2;107;199;178;228;1072;1
1100;2;107;195;133;245;1066;1
1101;2;107;135;133;278;1075;1
1102;2;107;187;149;220;1065;1
1103;2;107;194;161;261;1078;1
1104;1;107;151;174;276;1084;1
1105;2;107;127;204;255;1082;1
1106;2;107;197;134;273;1083;1
1107;2;107;187;110;256;1077;1
1108;2;108;172;181;221;1092;1
1109;2;108;163;120;223;1090;1
1110;2;108;135;132;279;1101;1
1111;2;108;142;105;257;1087;1
1112;2;108;184;150;222;1102;1
1113;2;108;129;127;243;1091;1
1114;2;108;150;197;222;1085;1
1115;1;108;137;154;261;1086;1
1116;1;108;162;140;239;1098;1
1117;1;108;152;170;279;1104;1
1118;2;108;140;153;287;1093;1
1119;2;108;187;108;261;1107;1
1120;1;108;140;192;241;1088;1
1121;2;108;201;173;228;1099;1
1122;2;108;132;179;264;1094;1
1123;2;108;166;167;302;1095;1
1124;1;108;160;145;271;1097;1
1125;2;108;195;130;280;1106;1
1126;2;108;191;125;241;1100;1
1127;2;108;126;196;261;1105;1
1128;2;108;126;163;236;1096;1
1129;1;108;199;136;255;1103;1
1130;1;108;170;185;239;1089;1
1131;2;108;162;185;286;1089;1
1132;2;108;195;181;272;1103;1
1133;2;109;173;181;222;1108;1
1134;2;109;162;119;223;1109;1
1135;1;109;161;140;240;1116;1
1136;2;109;189;125;241;1126;1
1137;2;109;142;107;257;1111;1
1138;2;109;149;197;220;1114;1
1139;2;109;125;198;261;1127;1
1140;2;109;134;134;279;1110;1
1141;2;109;182;149;220;1112;1
1142;2;109;193;180;274;1132;1
1143;2;109;142;155;286;1118;1
1144;2;109;128;128;240;1113;1
1145;2;109;131;182;265;1122;1
1146;2;109;125;166;238;1128;1
1147;2;109;184;110;263;1119;1
1148;1;109;138;158;262;1115;1
1149;1;109;164;147;271;1124;1
1150;1;109;143;195;243;1120;1
1151;1;109;169;180;240;1130;1
1152;2;109;195;135;282;1125;1
1153;2;109;168;171;299;1123;1
1154;2;109;167;188;281;1131;1
1155;1;109;159;174;277;1117;1
1156;1;109;189;135;259;1129;1
1157;2;109;204;146;238;1121;1
1158;2;109;188;195;240;1121;1
1159;1;110;139;159;262;1148;1
1160;2;110;126;199;260;1139;1
1161;2;110;167;172;300;1153;1
1162;2;110;151;196;220;1138;1
1163;2;110;134;135;277;1140;1
1164;2;110;142;157;287;1143;1
1165;2;110;164;118;224;1134;1
1166;1;110;145;194;245;1150;1
1167;1;110;164;148;274;1149;1
1168;2;110;185;150;221;1141;1
1169;2;110;140;109;259;1137;1
1170;2;110;133;184;267;1145;1
1171;2;110;191;198;240;1158;1
1172;2;110;170;191;281;1154;1
1173;2;110;180;108;265;1147;1
1174;2;110;192;125;245;1136;1
1175;1;110;164;174;276;1155;1
1176;2;110;177;182;223;1133;1
1177;2;110;193;136;287;1152;1
1178;1;110;188;134;265;1156;1
1179;2;110;197;177;270;1142;1
1180;1;110;165;141;246;1135;1
1181;2;110;197;149;239;1157;1
1182;2;110;128;134;245;1144;1
1183;1;110;176;178;244;1151;1
1184;2;110;137;167;247;1146;1
1185;2;110;133;163;214;1146;1
1186;2;111;127;199;260;1160;1
1187;1;111;144;193;245;1166;1
1188;1;111;164;147;275;1167;1
1189;2;111;192;136;289;1177;1
1190;2;111;164;127;225;1165;1
1191;2;111;150;194;222;1162;1
1192;2;111;193;197;242;1171;1
1193;2;111;132;136;279;1163;1
1194;2;111;170;194;281;1172;1
1195;1;111;176;179;247;1183;1
1196;2;111;142;158;290;1164;1
1197;2;111;164;173;301;1161;1
1198;2;111;199;174;270;1179;1
1199;2;111;179;179;225;1176;1
1200;2;111;190;128;247;1174;1
1201;2;111;127;138;244;1182;1
1202;1;111;168;174;277;1175;1
1203;2;111;134;187;270;1170;1
1204;2;111;189;151;224;1168;1
1205;2;111;176;111;266;1173;1
1206;1;111;187;137;269;1178;1
1207;1;111;163;146;246;1180;1
1208;1;111;139;160;268;1159;1
1209;2;111;199;153;244;1181;1
1210;2;111;136;114;256;1169;1
1211;2;111;136;171;254;1184;1
1212;2;111;152;164;213;1185;1
1213;1;112;163;146;245;1207;1
1214;2;112;127;199;259;1186;1
1215;1;112;144;192;244;1187;1
1216;2;112;150;163;213;1212;1
1217;1;112;176;181;248;1195;1
1218;2;112;180;181;226;1199;1
1219;1;112;166;174;276;1202;1
1220;2;112;131;187;269;1203;1
1221;2;112;138;116;254;1210;1
1222;2;112;195;194;243;1192;1
1223;1;112;160;147;274;1188;1
1224;2;112;151;195;218;1191;1
1225;2;112;196;174;273;1198;1
1226;2;112;173;114;265;1205;1
1227;2;112;166;195;278;1194;1
1228;2;112;191;133;250;1200;1
1229;1;112;183;141;271;1206;1
1230;2;112;158;172;301;1197;1
1231;2;112;186;137;290;1189;1
1232;2;112;195;152;226;1204;1
1233;2;112;127;139;276;1193;1
1234;2;112;202;155;250;1209;1
1235;2;112;125;144;240;1201;1
1236;2;112;133;173;247;1211;1
1237;2;112;135;157;286;1196;1
1238;1;112;137;163;260;1208;1
1239;2;112;183;126;232;1190;1
1240;2;112;143;129;217;1190;1
1241;2;113;152;195;219;1224;1
1242;2;113;129;199;260;1214;1
1243;1;113;158;145;274;1223;1
1244;1;113;142;190;243;1215;1
1245;2;113;125;147;239;1235;1
1246;2;113;134;154;286;1237;1
1247;2;113;126;140;273;1233;1
1248;2;113;196;191;245;1222;1
1249;1;113;182;144;273;1229;1
1250;2;113;198;150;228;1232;1
1251;1;113;175;180;252;1217;1
1252;1;113;162;173;277;1219;1
1253;2;113;162;194;277;1227;1
1254;2;113;154;170;302;1230;1
1255;1;113;160;143;243;1213;1
1256;1;113;135;165;256;1238;1
1257;2;113;143;134;217;1240;1
1258;2;113;169;111;265;1226;1
1259;2;113;193;174;277;1225;1
1260;2;113;130;183;272;1220;1
1261;2;113;181;176;227;1218;1
1262;2;113;203;155;256;1234;1
1263;2;113;146;168;213;1216;1
1264;2;113;130;176;243;1236;1
1265;2;113;180;132;292;1231;1
1266;2;113;190;130;259;1228;1
1267;2;113;184;121;241;1239;1
1268;2;113;137;120;243;1221;1
1269;1;114;143;191;244;1244;1
1270;2;114;130;182;274;1260;1
1271;2;114;144;136;218;1257;1
1272;2;114;132;154;284;1246;1
1273;2;114;136;118;241;1268;1
1274;2;114;181;121;241;1267;1
1275;1;114;161;141;241;1255;1
1276;2;114;127;177;242;1264;1
1277;2;114;125;141;270;1247;1
1278;2;114;131;199;263;1242;1
1279;1;114;180;141;274;1249;1
1280;2;114;146;172;214;1263;1
1281;1;114;175;179;256;1251;1
1282;1;114;156;142;272;1243;1
1283;2;114;160;191;279;1253;1
1284;2;114;125;150;236;1245;1
1285;1;114;161;169;279;1252;1
1286;2;114;187;127;261;1266;1
1287;2;114;203;152;260;1262;1
1288;2;114;175;132;293;1265;1
1289;2;114;150;167;303;1254;1
1290;2;114;164;109;264;1258;1
1291;2;114;200;146;232;1250;1
1292;2;114;190;170;281;1259;1
1293;2;114;159;196;220;1241;1
1294;2;114;197;187;252;1248;1
1295;2;114;189;173;230;1261;1
1296;1;114;135;166;256;1256;1
1297;1;115;143;191;244;1269;1
1298;2;115;131;199;263;1278;1
1299;2;115;204;152;259;1287;1
1300;2;115;189;168;282;1292;1
1301;2;115;201;148;230;1291;1
1302;2;115;157;199;221;1293;1
1303;2;115;196;187;256;1294;1
1304;2;115;187;126;257;1286;1
1305;1;115;172;179;257;1281;1
1306;2;115;174;130;290;1288;1
1307;1;115;158;166;279;1285;1
1308;2;115;157;190;282;1283;1
1309;2;115;147;164;301;1289;1
1310;2;115;165;109;259;1290;1
1311;1;115;180;140;269;1279;1
1312;1;115;157;140;267;1282;1
1313;2;115;150;175;212;1280;1
1314;2;115;128;178;270;1270;1
1315;2;115;125;178;236;1276;1
1316;2;115;131;150;279;1272;1
1317;2;115;138;120;235;1273;1
1318;2;115;181;121;234;1274;1
1319;2;115;127;151;229;1284;1
1320;2;115;187;180;230;1295;1
1321;2;115;151;141;213;1271;1
1322;1;115;161;147;233;1275;1
1323;2;115;126;140;260;1277;1
1324;1;115;132;167;248;1296;1
1325;1;116;132;166;248;1324;1
1326;1;116;172;178;257;1305;1
1327;2;116;126;139;258;1323;1
1328;1;116;156;138;267;1312;1
1329;1;116;156;166;280;1307;1
1330;2;116;139;121;233;1317;1
1331;1;116;178;138;270;1311;1
1332;2;116;126;176;271;1314;1
1333;2;116;156;188;284;1308;1
1334;2;116;147;175;213;1313;1
1335;2;116;180;118;233;1318;1
1336;1;116;165;146;233;1322;1
1337;1;116;144;190;248;1297;1
1338;2;116;184;123;257;1304;1
1339;2;116;126;180;240;1315;1
1340;2;116;162;106;257;1310;1
1341;2;116;129;147;276;1316;1
1342;2;116;127;156;228;1319;1
1343;2;116;187;164;285;1300;1
1344;2;116;191;186;258;1303;1
1345;2;116;142;162;302;1309;1
1346;2;116;170;126;291;1306;1
1347;2;116;131;196;268;1298;1
1348;2;116;206;145;231;1301;1
1349;2;116;155;145;211;1321;1
1350;2;116;203;147;265;1299;1
1351;2;116;156;205;228;1302;1
1352;2;116;169;196;220;1320;1
1353;1;116;194;160;251;1320;1
1354;2;117;126;139;257;1327;1
1355;2;117;142;161;302;1345;1
1356;1;117;155;165;281;1329;1
1357;1;117;145;190;250;1337;1
1358;1;117;172;179;259;1326;1
1359;1;117;155;138;265;1328;1
1360;2;117;125;178;271;1332;1
1361;2;117;128;146;274;1341;1
1362;1;117;176;136;269;1331;1
1363;2;117;158;187;286;1333;1
1364;2;117;126;183;241;1339;1
1365;2;117;159;206;229;1351;1
1366;2;117;183;122;254;1338;1
1367;2;117;128;159;226;1342;1
1368;2;117;181;120;230;1335;1
1369;2;117;208;148;230;1348;1
1370;2;117;204;143;265;1350;1
1371;2;117;169;123;288;1346;1
1372;2;117;189;160;285;1343;1
1373;2;117;149;179;212;1334;1
1374;2;117;140;125;231;1330;1
1375;2;117;168;192;223;1352;1
1376;2;117;134;198;272;1347;1
1377;2;117;160;107;252;1340;1
1378;2;117;196;184;261;1344;1
1379;1;117;191;161;257;1353;1
1380;2;117;159;150;208;1349;1
1381;1;117;168;153;236;1336;1
1382;1;117;135;170;248;1325;1
1383;2;118;126;184;241;1364;1
1384;2;118;197;183;260;1378;1
1385;2;118;127;146;276;1361;1
1386;1;118;156;163;280;1356;1
1387;2;118;143;160;300;1355;1
1388;1;118;172;177;257;1358;1
1389;1;118;174;135;267;1362;1
1390;1;118;148;190;249;1357;1
1391;2;118;189;157;284;1372;1
1392;2;118;139;126;228;1374;1
1393;2;118;157;106;251;1377;1
1394;2;118;204;140;263;1370;1
1395;2;118;178;119;228;1368;1
1396;1;118;152;136;263;1359;1
1397;2;118;167;121;285;1371;1
1398;2;118;126;181;274;1360;1
1399;2;118;132;159;224;1367;1
1400;1;118;167;151;232;1381;1
1401;2;118;162;186;284;1363;1
1402;2;118;179;120;252;1366;1
1403;1;118;186;162;256;1379;1
1404;2;118;163;151;204;1380;1
1405;2;118;154;183;211;1373;1
1406;2;118;165;204;231;1365;1
1407;2;118;124;143;251;1354;1
1408;2;118;137;205;269;1376;1
1409;2;118;177;189;226;1375;1
1410;2;118;199;152;231;1369;1
1411;1;118;134;169;247;1382;1
1412;2;119;197;183;261;1384;1
1413;2;119;141;126;228;1392;1
1414;2;119;131;159;226;1399;1
1415;1;119;133;172;247;1411;1
1416;1;119;187;162;258;1403;1
1417;2;119;158;104;252;1393;1
1418;2;119;181;119;253;1402;1
1419;2;119;169;120;286;1397;1
1420;1;119;154;136;261;1396;1
1421;2;119;207;141;262;1394;1
1422;2;119;179;191;229;1409;1
1423;2;119;126;142;276;1385;1
1424;2;119;127;140;251;1407;1
1425;1;119;144;190;251;1390;1
1426;1;119;178;134;270;1389;1
1427;2;119;186;161;285;1391;1
1428;2;119;159;189;287;1401;1
1429;2;119;176;124;227;1395;1
1430;1;119;172;181;261;1388;1
1431;2;119;161;205;235;1406;1
1432;2;119;167;153;200;1404;1
1433;2;119;145;155;303;1387;1
1434;2;119;123;179;244;1383;1
1435;1;119;156;160;286;1386;1
1436;2;119;152;189;214;1405;1
1437;2;119;132;202;275;1408;1
1438;2;119;124;172;276;1398;1
1439;1;119;179;139;250;1400;1
1440;2;119;211;139;231;1410;1
1441;1;119;150;158;216;1400;1
1442;2;119;181;170;226;1410;1
1443;1;120;157;159;286;1435;1
1444;2;120;170;120;287;1419;1
1445;2;120;187;162;286;1427;1
1446;2;120;158;105;254;1417;1
1447;1;120;188;162;256;1416;1
1448;1;120;172;179;262;1430;1
1449;2;120;198;181;260;1412;1
1450;1;120;179;133;268;1426;1
1451;2;120;176;127;227;1429;1
1452;2;120;126;135;258;1424;1
1453;2;120;209;140;260;1421;1
1454;2;120;184;118;254;1418;1
1455;2;120;130;155;226;1414;1
1456;2;120;140;130;229;1413;1
1457;1;120;153;133;258;1420;1
1458;2;120;162;186;289;1428;1
1459;2;120;147;150;303;1433;1
1460;1;120;143;186;258;1425;1
1461;2;120;120;178;249;1434;1
1462;2;120;126;168;280;1438;1
1463;1;120;150;164;215;1441;1
1464;2;120;179;197;232;1422;1
1465;2;120;129;136;276;1423;1
1466;2;120;149;191;220;1436;1
1467;1;120;133;170;254;1415;1
1468;2;120;204;137;233;1440;1
1469;1;120;185;143;247;1439;1
1470;2;120;157;206;243;1431;1
1471;2;120;169;160;207;1432;1
1472;2;120;172;175;223;1442;1
1473;2;120;134;196;281;1437;1
1474;2;121;121;178;250;1461;1
1475;2;121;127;167;280;1462;1
1476;2;121;163;186;288;1458;1
1477;2;121;158;207;244;1470;1
1478;1;121;134;169;253;1467;1
1479;2;121;125;136;257;1452;1
1480;2;121;179;198;230;1464;1
1481;2;121;131;137;277;1465;1
1482;1;121;144;189;258;1460;1
1483;1;121;158;159;283;1443;1
1484;2;121;167;160;204;1471;1
1485;2;121;174;176;220;1472;1
1486;1;121;155;136;257;1457;1
1487;2;121;205;137;229;1468;1
1488;2;121;207;143;258;1453;1
1489;2;121;171;119;283;1444;1
1490;2;121;190;161;283;1445;1
1491;2;121;135;194;280;1473;1
1492;2;121;151;148;302;1459;1
1493;2;121;132;158;223;1455;1
1494;1;121;174;177;258;1448;1
1495;2;121;140;126;226;1456;1
1496;1;121;148;160;218;1463;1
1497;2;121;146;195;217;1466;1
1498;1;121;178;138;265;1450;1
1499;2;121;175;128;221;1451;1
1500;2;121;199;180;254;1449;1
1501;2;121;158;106;247;1446;1
1502;1;121;190;167;250;1447;1
1503;1;121;181;150;241;1469;1
1504;2;121;188;119;244;1454;1
1505;2;122;207;142;257;1488;1
1506;2;122;188;122;250;1504;1
1507;1;122;178;138;267;1498;1
1508;2;122;127;165;280;1475;1
1509;2;122;174;174;220;1485;1
1510;2;122;156;207;243;1477;1
1511;2;122;124;136;255;1479;1
1512;2;122;127;160;226;1493;1
1513;2;122;201;180;252;1500;1
1514;1;122;136;169;255;1478;1
1515;2;122;173;121;283;1489;1
1516;2;122;178;196;228;1480;1
1517;2;122;143;194;217;1497;1
1518;2;122;175;125;222;1499;1
1519;2;122;164;159;205;1484;1
1520;2;122;159;107;250;1501;1
1521;1;122;171;176;259;1494;1
1522;1;122;161;160;284;1483;1
1523;2;122;140;126;230;1495;1
1524;2;122;120;178;254;1474;1
1525;1;122;155;132;258;1486;1
1526;2;122;133;139;280;1481;1
1527;2;122;192;164;281;1490;1
1528;2;122;155;148;303;1492;1
1529;2;122;208;140;228;1487;1
1530;2;122;167;187;286;1476;1
1531;1;122;190;163;247;1502;1
1532;1;122;145;186;254;1482;1
1533;1;122;180;149;236;1503;1
1534;1;122;147;156;223;1496;1
1535;2;122;140;194;280;1491;1
1536;2;123;120;178;255;1524;1
1537;2;123;145;194;217;1517;1
1538;1;123;136;171;255;1514;1
1539;1;123;178;148;235;1533;1
1540;1;123;173;176;257;1521;1
1541;2;123;157;150;303;1528;1
1542;1;123;144;156;223;1534;1
1543;2;123;173;175;217;1509;1
1544;2;123;179;199;226;1516;1
1545;2;123;201;180;248;1513;1
1546;1;123;146;190;254;1532;1
1547;2;123;122;138;258;1511;1
1548;1;123;189;162;243;1531;1
1549;2;123;176;123;282;1515;1
1550;1;123;163;164;283;1522;1
1551;1;123;178;141;263;1507;1
1552;2;123;172;128;221;1518;1
1553;2;123;156;212;244;1510;1
1554;2;123;136;136;283;1526;1
1555;2;123;204;143;226;1529;1
1556;2;123;159;156;205;1519;1
1557;2;123;196;168;279;1527;1
1558;2;123;208;148;257;1505;1
1559;2;123;129;170;283;1508;1
1560;2;123;141;199;283;1535;1
1561;2;123;171;192;285;1530;1
1562;1;123;155;138;261;1525;1
1563;2;123;135;121;231;1523;1
1564;2;123;159;104;258;1520;1
1565;2;123;125;168;228;1512;1
1566;1;123;162;126;243;1506;1
1567;2;123;208;126;245;1506;1
1568;2;124;126;168;229;1565;1
1569;2;124;177;122;282;1549;1
1570;2;124;141;198;282;1560;1
1571;1;124;154;137;263;1562;1
1572;2;124;130;171;281;1559;1
1573;2;124;210;128;244;1567;1
1574;1;124;139;171;255;1538;1
1575;2;124;148;195;217;1537;1
1576;2;124;160;150;302;1541;1
1577;1;124;176;174;256;1540;1
1578;1;124;166;165;282;1550;1
1579;2;124;174;191;284;1561;1
1580;1;124;176;146;237;1539;1
1581;2;124;156;154;204;1556;1
1582;2;124;181;198;223;1544;1
1583;1;124;144;160;224;1542;1
1584;2;124;158;210;241;1553;1
1585;2;124;198;166;276;1557;1
1586;1;124;190;161;239;1548;1
1587;1;124;161;130;242;1566;1
1588;2;124;133;142;281;1554;1
1589;2;124;133;121;235;1563;1
1590;1;124;178;139;259;1551;1
1591;2;124;170;124;222;1552;1
1592;2;124;203;179;244;1545;1
1593;1;124;150;189;257;1546;1
1594;2;124;121;141;262;1547;1
1595;2;124;175;173;214;1543;1
1596;2;124;154;103;260;1564;1
1597;2;124;208;143;252;1558;1
1598;2;124;199;137;224;1555;1
1599;2;124;123;185;258;1536;1
1600;2;125;175;172;214;1595;1
1601;2;125;148;195;218;1575;1
1602;2;125;177;122;283;1569;1
1603;1;125;155;137;264;1571;1
1604;1;125;167;164;282;1578;1
1605;1;125;179;176;255;1577;1
1606;2;125;124;184;257;1599;1
1607;2;125;122;142;263;1594;1
1608;1;125;190;161;237;1586;1
1609;2;125;125;168;227;1568;1
1610;1;125;139;169;254;1574;1
1611;2;125;154;155;205;1581;1
1612;1;125;180;138;260;1590;1
1613;2;125;134;144;282;1588;1
1614;1;125;146;162;225;1583;1
1615;2;125;169;121;222;1591;1
1616;2;125;133;171;282;1572;1
1617;2;125;144;197;282;1570;1
1618;2;125;205;176;244;1592;1
1619;2;125;161;208;242;1584;1
1620;1;125;153;187;256;1593;1
1621;2;125;200;163;275;1585;1
1622;2;125;132;125;235;1589;1
1623;1;125;178;143;235;1580;1
1624;2;125;152;106;258;1596;1
1625;2;125;164;149;302;1576;1
1626;2;125;176;188;283;1579;1
1627;2;125;209;139;250;1597;1
1628;2;125;196;133;224;1598;1
1629;2;125;185;195;224;1582;1
1630;1;125;163;125;243;1587;1
1631;2;125;203;123;244;1573;1
1632;1;126;155;137;264;1603;1
1633;2;126;125;184;257;1606;1
1634;2;126;176;172;215;1600;1
1635;2;126;209;138;251;1627;1
1636;1;126;180;137;261;1612;1
1637;2;126;177;121;284;1602;1
1638;2;126;153;156;206;1611;1
1639;1;126;168;165;281;1604;1
1640;1;126;183;174;254;1605;1
1641;2;126;178;189;283;1626;1
1642;2;126;162;210;241;1619;1
1643;2;126;206;174;243;1618;1
1644;2;126;150;107;259;1624;1
1645;2;126;166;151;303;1625;1
1646;1;126;190;160;234;1608;1
1647;1;126;160;125;244;1630;1
1648;2;126;145;196;219;1601;1
1649;2;126;195;130;225;1628;1
1650;1;126;145;161;228;1614;1
1651;2;126;203;162;274;1621;1
1652;2;126;130;128;235;1622;1
1653;2;126;135;176;283;1616;1
1654;1;126;179;139;234;1623;1
1655;2;126;137;147;284;1613;1
1656;2;126;149;197;282;1617;1
1657;2;126;189;192;223;1629;1
1658;2;126;164;120;223;1615;1
1659;2;126;199;118;245;1631;1
1660;1;126;146;167;258;1610;1
1661;1;126;154;189;258;1620;1
1662;2;126;123;148;265;1607;1
1663;2;126;126;165;230;1609;1
1664;2;127;125;185;257;1633;1
1665;2;127;145;197;218;1648;1
1666;2;127;133;128;235;1652;1
1667;2;127;152;157;205;1638;1
1668;2;127;206;175;241;1643;1
1669;2;127;198;118;243;1659;1
1670;1;127;181;137;259;1636;1
1671;1;127;168;164;279;1639;1
1672;2;127;137;149;283;1655;1
1673;2;127;167;151;301;1645;1
1674;2;127;175;171;213;1634;1
1675;2;127;163;119;221;1658;1
1676;1;127;144;160;226;1650;1
1677;2;127;210;139;249;1635;1
1678;1;127;179;141;232;1654;1
1679;2;127;164;210;239;1642;1
1680;1;127;155;135;262;1632;1
1681;2;127;188;192;220;1657;1
1682;2;127;147;107;258;1644;1
1683;2;127;202;162;271;1651;1
1684;2;127;195;128;222;1649;1
1685;2;127;175;121;281;1637;1
1686;2;127;180;188;280;1641;1
1687;2;127;137;178;281;1653;1
1688;1;127;191;160;230;1646;1
1689;1;127;161;121;243;1647;1
1690;1;127;180;172;251;1640;1
1691;2;127;150;200;277;1656;1
1692;1;127;156;193;253;1661;1
1693;2;127;125;163;228;1663;1
1694;2;127;122;149;267;1662;1
1695;1;127;142;169;253;1660;1
1696;2;128;137;178;282;1687;1
1697;1;128;190;160;229;1688;1
1698;2;128;126;184;257;1664;1
1699;1;128;160;120;244;1689;1
1700;1;128;154;187;255;1692;1
1701;2;128;195;130;222;1684;1
1702;2;128;190;192;221;1681;1
1703;1;128;144;158;227;1676;1
1704;2;128;166;209;239;1679;1
1705;2;128;182;189;280;1686;1
1706;2;128;207;174;239;1668;1
1707;2;128;204;161;270;1683;1
1708;2;128;177;120;280;1685;1
1709;1;128;181;135;257;1670;1
1710;2;128;196;116;244;1669;1
1711;1;128;168;161;279;1671;1
1712;2;128;174;172;210;1674;1
1713;2;128;148;106;261;1682;1
1714;1;128;153;133;264;1680;1
1715;1;128;176;139;231;1678;1
1716;2;128;119;151;268;1694;1
1717;2;128;171;150;301;1673;1
1718;2;128;144;198;222;1665;1
1719;2;128;209;137;245;1677;1
1720;2;128;140;146;285;1672;1
1721;2;128;148;159;207;1667;1
1722;2;128;158;119;220;1675;1
1723;2;128;153;198;281;1691;1
1724;1;128;184;174;247;1690;1
1725;2;128;132;127;241;1666;1
1726;1;128;143;164;257;1695;1
1727;2;128;124;164;236;1693;1
1728;2;129;123;164;237;1727;1
1729;2;129;197;116;243;1710;1
1730;2;129;205;160;270;1707;1
1731;2;129;165;208;240;1704;1
1732;2;129;120;150;267;1716;1
1733;1;129;181;135;255;1709;1
1734;2;129;184;188;280;1705;1
1735;2;129;154;198;283;1723;1
1736;2;129;147;160;209;1721;1
1737;1;129;162;119;245;1699;1
1738;2;129;173;172;212;1712;1
1739;1;129;178;141;231;1715;1
1740;1;129;145;164;259;1726;1
1741;2;129;194;132;220;1701;1
1742;2;129;205;176;238;1706;1
1743;1;129;189;161;226;1697;1
1744;2;129;174;149;302;1717;1
1745;2;129;128;128;243;1725;1
1746;1;129;156;131;264;1714;1
1747;1;129;170;158;279;1711;1
1748;2;129;157;117;223;1722;1
1749;1;129;181;172;248;1724;1
1750;1;129;155;185;258;1700;1
1751;2;129;181;120;280;1708;1
1752;2;129;152;105;263;1713;1
1753;2;129;185;192;219;1702;1
1754;2;129;141;199;227;1718;1
1755;2;129;211;141;241;1719;1
1756;2;129;141;177;287;1696;1
1757;2;129;144;144;290;1720;1
1758;1;129;145;151;229;1703;1
1759;2;129;125;191;267;1698;1
1760;2;130;157;118;222;1748;1
1761;1;130;177;141;229;1739;1
1762;1;130;144;152;231;1758;1
1763;1;130;154;187;257;1750;1
1764;2;130;145;143;292;1757;1
1765;1;130;164;120;243;1737;1
1766;2;130;138;199;228;1754;1
1767;1;130;188;164;225;1743;1
1768;1;130;146;167;260;1740;1
1769;2;130;185;189;277;1734;1
1770;1;130;183;137;253;1733;1
1771;2;130;175;149;299;1744;1
1772;2;130;212;142;237;1755;1
1773;1;130;157;132;268;1746;1
1774;2;130;125;187;269;1759;1
1775;2;130;124;152;268;1732;1
1776;2;130;182;194;216;1753;1
1777;1;130;183;174;245;1749;1
1778;2;130;161;210;238;1731;1
1779;2;130;156;103;261;1752;1
1780;2;130;170;172;208;1738;1
1781;2;130;205;179;234;1742;1
1782;2;130;142;162;209;1736;1
1783;2;130;183;120;275;1751;1
1784;1;130;172;161;275;1747;1
1785;2;130;153;200;278;1735;1
1786;2;130;208;164;267;1730;1
1787;2;130;192;136;216;1741;1
1788;2;130;199;120;239;1729;1
1789;2;130;128;122;241;1745;1
1790;2;130;141;172;290;1756;1
1791;2;130;120;170;241;1728;1
1792;2;131;193;135;216;1787;1
1793;2;131;200;120;240;1788;1
1794;2;131;124;186;270;1774;1
1795;1;131;186;164;225;1767;1
1796;2;131;156;103;263;1779;1
1797;2;131;161;211;240;1778;1
1798;2;131;185;120;276;1783;1
1799;2;131;186;191;277;1769;1
1800;1;131;185;138;252;1770;1
1801;2;131;143;171;291;1790;1
1802;2;131;203;179;232;1781;1
1803;2;131;155;200;276;1785;1
1804;2;131;180;195;214;1776;1
1805;2;131;128;121;244;1789;1
1806;2;131;156;115;223;1760;1
1807;2;131;210;143;234;1772;1
1808;2;131;209;166;264;1786;1
1809;1;131;174;160;278;1784;1
1810;2;131;179;149;299;1771;1
1811;2;131;167;170;210;1780;1
1812;2;131;149;143;291;1764;1
1813;1;131;176;142;233;1761;1
1814;1;131;158;129;265;1773;1
1815;1;131;153;183;259;1763;1
1816;1;131;166;116;245;1765;1
1817;1;131;179;173;247;1777;1
1818;1;131;140;153;234;1762;1
1819;1;131;145;162;263;1768;1
1820;2;131;137;192;230;1766;1
1821;2;131;137;154;213;1782;1
1822;2;131;124;148;276;1775;1
1823;2;131;121;162;243;1791;1
1824;2;132;193;136;216;1792;1
1825;2;132;156;116;223;1806;1
1826;1;132;186;138;252;1800;1
1827;2;132;200;121;239;1793;1
1828;1;132;178;174;248;1817;1
1829;2;132;154;199;277;1803;1
1830;2;132;180;193;214;1804;1
1831;2;132;145;171;291;1801;1
1832;2;132;165;170;211;1811;1
1833;1;132;185;158;222;1795;1
1834;1;132;176;140;232;1813;1
1835;2;132;202;181;232;1802;1
1836;2;132;210;145;235;1807;1
1837;1;132;146;161;265;1819;1
1838;1;132;153;184;262;1815;1
1839;1;132;161;129;266;1814;1
1840;1;132;174;160;275;1809;1
1841;2;132;186;188;278;1799;1
1842;2;132;136;153;216;1821;1
1843;1;132;167;113;244;1816;1
1844;2;132;182;148;298;1810;1
1845;2;132;159;101;265;1796;1
1846;2;132;213;165;265;1808;1
1847;2;132;124;184;274;1794;1
1848;2;132;151;139;294;1812;1
1849;2;132;129;119;249;1805;1
1850;2;132;189;124;276;1798;1
1851;2;132;156;213;243;1797;1
1852;1;132;144;148;233;1818;1
1853;2;132;130;193;232;1820;1
1854;2;132;120;154;245;1823;1
1855;2;132;125;146;271;1822;1
1856;2;133;181;193;214;1830;1
1857;2;133;209;145;235;1836;1
1858;2;133;200;122;239;1827;1
1859;2;133;193;137;215;1824;1
1860;1;133;187;139;252;1826;1
1861;1;133;184;157;223;1833;1
1862;2;133;187;189;279;1841;1
1863;2;133;146;170;292;1831;1
1864;1;133;177;174;250;1828;1
1865;2;133;182;153;300;1844;1
1866;2;133;192;124;276;1850;1
1867;2;133;162;169;211;1832;1
1868;2;133;199;182;232;1835;1
1869;2;133;153;115;224;1825;1
1870;1;133;176;138;235;1834;1
1871;2;133;120;151;247;1854;1
1872;1;133;141;147;235;1852;1
1873;1;133;170;111;245;1843;1
1874;2;133;163;101;266;1845;1
1875;1;133;162;125;267;1839;1
1876;2;133;155;139;292;1848;1
1877;2;133;132;151;218;1842;1
1878;2;133;127;144;275;1855;1
1879;2;133;130;116;245;1849;1
1880;2;133;157;198;281;1829;1
1881;2;133;123;178;276;1847;1
1882;2;133;209;170;262;1846;1
1883;1;133;147;156;269;1837;1
1884;1;133;174;153;277;1840;1
1885;1;133;152;180;269;1838;1
1886;2;133;154;212;252;1851;1
1887;2;133;122;188;234;1853;1
1888;1;134;139;147;235;1872;1
1889;2;134;131;116;243;1879;1
1890;1;134;188;139;250;1860;1
1891;2;134;194;138;213;1859;1
1892;2;134;124;177;278;1881;1
1893;2;134;162;167;209;1867;1
1894;2;134;199;184;230;1868;1
1895;2;134;157;139;290;1876;1
1896;2;134;130;149;219;1877;1
1897;2;134;155;116;222;1869;1
1898;1;134;175;152;275;1884;1
1899;1;134;165;125;266;1875;1
1900;2;134;127;145;272;1878;1
1901;2;134;187;190;276;1862;1
1902;2;134;201;124;236;1858;1
1903;2;134;154;197;279;1880;1
1904;2;134;147;167;290;1863;1
1905;2;134;178;195;212;1856;1
1906;1;134;174;140;232;1870;1
1907;1;134;171;112;241;1873;1
1908;2;134;120;148;250;1871;1
1909;1;134;153;178;268;1885;1
1910;2;134;208;148;232;1857;1
1911;1;134;178;170;252;1864;1
1912;2;134;187;153;295;1865;1
1913;1;134;182;160;220;1861;1
1914;2;134;209;171;257;1882;1
1915;2;134;167;100;263;1874;1
1916;1;134;146;151;268;1883;1
1917;2;134;151;214;256;1886;1
1918;2;134;195;124;271;1866;1
1919;2;134;117;182;237;1887;1
1920;2;135;155;115;221;1897;1
1921;2;135;200;185;230;1894;1
1922;1;135;140;146;235;1888;1
1923;2;135;203;124;236;1902;1
1924;1;135;178;172;252;1911;1
1925;1;135;189;137;250;1890;1
1926;2;135;147;166;292;1904;1
1927;2;135;189;150;295;1912;1
1928;2;135;179;197;213;1905;1
1929;1;135;183;162;221;1913;1
1930;2;135;119;147;252;1908;1
1931;1;135;167;125;260;1899;1
1932;1;135;177;153;276;1898;1
1933;2;135;210;150;232;1910;1
1934;2;135;195;140;211;1891;1
1935;2;135;197;126;272;1918;1
1936;1;135;172;112;238;1907;1
1937;2;135;131;146;218;1896;1
1938;2;135;152;213;259;1917;1
1939;1;135;150;176;270;1909;1
1940;1;135;149;153;268;1916;1
1941;2;135;114;180;238;1919;1
1942;2;135;208;174;259;1914;1
1943;2;135;171;101;263;1915;1
1944;2;135;159;136;292;1895;1
1945;1;135;174;136;231;1906;1
1946;2;135;186;186;278;1901;1
1947;2;135;135;113;243;1889;1
1948;2;135;121;174;277;1892;1
1949;2;135;131;135;280;1900;1
1950;2;135;161;162;207;1893;1
1951;2;135;152;195;284;1903;1
1952;1;136;183;162;222;1929;1
1953;2;136;195;141;210;1934;1
1954;1;136;178;153;275;1932;1
1955;2;136;180;198;214;1928;1
1956;1;136;190;138;251;1925;1
1957;1;136;166;120;263;1931;1
1958;2;136;198;125;271;1935;1
1959;2;136;190;149;294;1927;1
1960;2;136;208;175;258;1942;1
1961;2;136;153;213;261;1938;1
1962;2;136;157;116;220;1920;1
1963;2;136;134;111;244;1947;1
1964;2;136;128;128;278;1949;1
1965;2;136;200;187;232;1921;1
1966;2;136;186;188;280;1946;1
1967;2;136;147;164;294;1926;1
1968;2;136;119;147;255;1930;1
1969;1;136;179;172;255;1924;1
1970;2;136;113;177;239;1941;1
1971;2;136;150;194;287;1951;1
1972;2;136;160;162;203;1950;1
1973;1;136;177;135;232;1945;1
1974;2;136;206;127;236;1923;1
1975;2;136;174;101;261;1943;1
1976;1;136;153;147;266;1940;1
1977;2;136;162;132;292;1944;1
1978;2;136;211;155;232;1933;1
1979;1;136;175;111;235;1936;1
1980;1;136;152;171;268;1939;1
1981;2;136;133;137;218;1937;1
1982;1;136;145;137;237;1922;1
1983;2;136;122;164;282;1948;1
1984;2;137;199;187;232;1965;1
1985;2;137;133;136;219;1981;1
1986;2;137;207;128;236;1974;1
1987;1;137;146;138;236;1982;1
1988;1;137;191;137;250;1956;1
1989;2;137;159;116;220;1962;1
1990;2;137;160;160;202;1972;1
1991;2;137;195;143;209;1953;1
1992;1;137;183;161;220;1952;1
1993;1;137;178;137;232;1973;1
1994;1;137;153;141;265;1976;1
1995;2;137;201;128;272;1958;1
1996;2;137;121;164;284;1983;1
1997;2;137;181;199;216;1955;1
1998;2;137;117;146;256;1968;1
1999;1;137;177;173;256;1969;1
2000;2;137;184;188;282;1966;1
2001;2;137;210;176;260;1960;1
2002;1;137;178;111;236;1979;1
2003;1;137;151;171;271;1980;1
2004;1;137;169;121;264;1957;1
2005;2;137;165;133;293;1977;1
2006;2;137;191;152;295;1959;1
2007;2;137;147;194;289;1971;1
2008;2;137;148;161;296;1967;1
2009;2;137;178;100;260;1975;1
2010;2;137;152;212;265;1961;1
2011;2;137;213;159;232;1978;1
2012;2;137;138;109;245;1963;1
2013;1;137;180;153;280;1954;1
2014;2;137;130;125;282;1964;1
2015;2;137;112;173;237;1970;1
2016;1;138;169;121;264;2004;1
2017;1;138;177;138;232;1993;1
2018;1;138;146;139;235;1987;1
2019;1;138;178;173;255;1999;1
2020;2;138;191;153;294;2006;1
2021;2;138;153;213;266;2010;1
2022;1;138;152;170;272;2003;1
2023;2;138;149;162;297;2008;1
2024;2;138;194;143;207;1991;1
2025;2;138;131;135;219;1985;1
2026;2;138;199;189;231;1984;1
2027;2;138;122;164;282;1996;1
2028;2;138;167;134;293;2005;1
2029;2;138;159;161;200;1990;1
2030;1;138;182;154;279;2013;1
2031;1;138;155;141;263;1994;1
2032;2;138;132;123;282;2014;1
2033;2;138;179;201;215;1997;1
2034;2;138;180;101;258;2009;1
2035;2;138;185;191;281;2000;1
2036;2;138;144;195;288;2007;1
2037;1;138;180;113;234;2002;1
2038;2;138;203;130;270;1995;1
2039;2;138;161;117;217;1989;1
2040;2;138;208;131;234;1986;1
2041;1;138;192;140;248;1988;1
2042;2;138;213;163;231;2011;1
2043;2;138;210;180;259;2001;1
2044;1;138;181;165;219;1992;1
2045;2;138;111;167;238;2015;1
2046;2;138;142;105;251;2012;1
2047;2;138;120;137;254;1998;1
2048;2;139;185;190;281;2035;1
2049;1;139;180;164;219;2044;1
2050;1;139;178;172;254;2019;1
2051;2;139;144;193;288;2036;1
2052;1;139;181;113;232;2037;1
2053;1;139;156;141;261;2031;1
2054;2;139;178;203;214;2033;1
2055;2;139;162;118;215;2039;1
2056;1;139;176;137;230;2017;1
2057;2;139;209;181;257;2043;1
2058;2;139;121;162;283;2027;1
2059;2;139;210;131;232;2040;1
2060;1;139;148;137;235;2018;1
2061;1;139;194;140;246;2041;1
2062;2;139;142;103;249;2046;1
2063;2;139;193;153;292;2020;1
2064;2;139;158;159;198;2029;1
2065;2;139;213;164;228;2042;1
2066;1;139;172;121;263;2016;1
2067;2;139;121;134;253;2047;1
2068;2;139;133;133;217;2025;1
2069;1;139;184;152;277;2030;1
2070;2;139;153;215;263;2021;1
2071;2;139;151;159;297;2023;1
2072;2;139;169;131;292;2028;1
2073;2;139;198;189;227;2026;1
2074;2;139;193;142;203;2024;1
2075;2;139;110;163;237;2045;1
2076;2;139;184;102;257;2034;1
2077;2;139;205;132;266;2038;1
2078;1;139;154;167;276;2022;1
2079;2;139;134;118;282;2032;1
2080;1;140;182;113;232;2052;1
2081;1;140;148;137;234;2060;1
2082;1;140;179;172;254;2050;1
2083;2;140;184;101;257;2076;1
2084;2;140;209;131;231;2059;1
2085;1;140;195;140;245;2061;1
2086;1;140;179;163;218;2049;1
2087;2;140;212;165;227;2065;1
2088;2;140;210;180;256;2057;1
2089;2;140;176;203;214;2054;1
2090;2;140;198;189;225;2073;1
2091;2;140;144;103;249;2062;1
2092;2;140;153;159;297;2071;1
2093;2;140;153;216;261;2070;1
2094;2;140;186;192;281;2048;1
2095;2;140;142;193;287;2051;1
2096;2;140;163;116;216;2055;1
2097;2;140;109;161;238;2075;1
2098;2;140;119;133;254;2067;1
2099;1;140;174;120;262;2066;1
2100;2;140;191;143;201;2074;1
2101;1;140;179;137;231;2056;1
2102;2;140;155;160;197;2064;1
2103;1;140;187;153;278;2069;1
2104;2;140;123;160;285;2058;1
2105;2;140;142;120;284;2079;1
2106;2;140;131;132;220;2068;1
2107;1;140;156;138;264;2053;1
2108;2;140;197;154;291;2063;1
2109;2;140;208;135;265;2077;1
2110;2;140;174;132;293;2072;1
2111;1;140;156;166;281;2078;1
2112;2;141;186;192;281;2094;1
2113;2;141;176;202;214;2089;1
2114;1;141;181;162;217;2086;1
2115;2;141;212;181;255;2088;1
2116;2;141;199;155;292;2108;1
2117;2;141;200;191;226;2090;1
2118;1;141;182;137;231;2101;1
2119;2;141;211;135;266;2109;1
2120;2;141;156;158;297;2092;1
2121;2;141;215;166;226;2087;1
2122;2;141;212;133;231;2084;1
2123;2;141;141;191;284;2095;1
2124;2;141;188;101;257;2083;1
2125;1;141;186;112;232;2080;1
2126;1;141;191;153;277;2103;1
2127;2;141;177;133;293;2110;1
2128;1;141;177;119;263;2099;1
2129;1;141;152;137;232;2081;1
2130;2;141;196;143;201;2100;1
2131;2;141;123;130;254;2098;1
2132;2;141;159;159;194;2102;1
2133;2;141;141;117;281;2105;1
2134;1;141;160;163;282;2111;1
2135;2;141;110;160;233;2097;1
2136;1;141;200;141;244;2085;1
2137;2;141;125;155;283;2104;1
2138;2;141;135;129;217;2106;1
2139;2;141;147;100;245;2091;1
2140;2;141;168;117;213;2096;1
2141;1;141;185;171;253;2082;1
2142;2;141;159;218;257;2093;1
2143;1;141;163;138;266;2107;1
2144;1;142;181;137;231;2118;1
2145;1;142;152;137;233;2129;1
2146;1;142;187;112;233;2125;1
2147;2;142;167;118;212;2140;1
2148;2;142;212;136;265;2119;1
2149;2;142;187;193;280;2112;1
2150;2;142;159;218;255;2142;1
2151;2;142;179;133;293;2127;1
2152;2;142;194;143;200;2130;1
2153;2;142;200;157;292;2116;1
2154;1;142;179;161;216;2114;1
2155;2;142;214;167;224;2121;1
2156;2;142;190;102;256;2124;1
2157;2;142;212;183;253;2115;1
2158;2;142;143;117;283;2133;1
2159;2;142;134;127;219;2138;1
2160;1;142;192;155;275;2126;1
2161;2;142;158;160;298;2120;1
2162;1;142;180;118;263;2128;1
2163;2;142;142;194;284;2123;1
2164;2;142;156;158;195;2132;1
2165;2;142;174;201;213;2113;1
2166;2;142;213;136;230;2122;1
2167;2;142;124;129;257;2131;1
2168;1;142;200;144;242;2136;1
2169;2;142;149;100;248;2139;1
2170;1;142;187;169;250;2141;1
2171;2;142;197;193;223;2117;1
2172;2;142;126;148;285;2137;1
2173;2;142;110;154;238;2135;1
2174;1;142;166;136;264;2143;1
2175;1;142;166;167;282;2134;1
2176;2;143;123;130;257;2167;1
2177;2;143;180;134;292;2151;1
2178;1;143;180;119;261;2162;1
2179;1;143;180;138;229;2144;1
2180;1;143;153;139;232;2145;1
2181;2;143;191;103;254;2156;1
2182;1;143;186;114;231;2146;1
2183;1;143;201;144;239;2168;1
2184;2;143;148;103;248;2169;1
2185;2;143;146;117;282;2158;1
2186;2;143;201;157;289;2153;1
2187;2;143;213;184;250;2157;1
2188;2;143;143;197;283;2163;1
2189;2;143;126;146;288;2172;1
2190;2;143;133;129;216;2159;1
2191;2;143;213;136;226;2166;1
2192;2;143;212;137;261;2148;1
2193;2;143;160;162;295;2161;1
2194;1;143;195;155;272;2160;1
2195;2;143;171;202;210;2165;1
2196;1;143;189;169;246;2170;1
2197;2;143;153;161;193;2164;1
2198;2;143;161;220;251;2150;1
2199;2;143;167;120;207;2147;1
2200;1;143;176;165;214;2154;1
2201;2;143;214;169;219;2155;1
2202;2;143;110;156;233;2173;1
2203;2;143;188;195;275;2149;1
2204;2;143;196;195;217;2171;1
2205;2;143;190;144;194;2152;1
2206;1;143;165;137;262;2174;1
2207;1;143;169;166;279;2175;1
2208;2;144;201;158;289;2186;1
2209;2;144;213;137;260;2192;1
2210;1;144;196;156;272;2194;1
2211;2;144;127;147;288;2189;1
2212;1;144;181;137;230;2179;1
2213;2;144;110;156;231;2202;1
2214;1;144;199;143;239;2183;1
2215;1;144;179;119;263;2178;1
2216;2;144;152;159;192;2197;1
2217;2;144;131;129;218;2190;1
2218;1;144;189;167;244;2196;1
2219;2;144;148;103;251;2184;1
2220;2;144;126;130;257;2176;1
2221;2;144;190;196;273;2203;1
2222;1;144;152;136;232;2180;1
2223;2;144;181;137;292;2177;1
2224;2;144;188;102;255;2181;1
2225;2;144;161;165;296;2193;1
2226;2;144;196;192;215;2204;1
2227;1;144;184;111;233;2182;1
2228;1;144;175;161;213;2200;1
2229;2;144;163;118;208;2199;1
2230;2;144;215;180;248;2187;1
2231;2;144;187;140;194;2205;1
2232;2;144;211;131;225;2191;1
2233;2;144;172;198;206;2195;1
2234;2;144;146;121;287;2185;1
2235;2;144;215;162;218;2201;1
2236;2;144;150;200;284;2188;1
2237;2;144;167;222;246;2198;1
2238;1;144;170;167;275;2207;1
2239;1;144;165;136;259;2206;1
2240;2;145;163;118;207;2229;1
2241;2;145;196;193;215;2226;1
2242;1;145;184;111;232;2227;1
2243;2;145;211;130;224;2232;1
2244;2;145;189;102;256;2224;1
2245;2;145;216;179;247;2230;1
2246;2;145;203;158;289;2208;1
2247;2;145;150;160;192;2216;1
2248;1;145;174;160;213;2228;1
2249;1;145;154;135;232;2222;1
2250;2;145;147;101;251;2219;1
2251;2;145;213;135;261;2209;1
2252;1;145;181;118;263;2215;1
2253;2;145;180;137;294;2223;1
2254;1;145;200;141;238;2214;1
2255;2;145;168;223;244;2237;1
2256;2;145;163;164;297;2225;1
2257;2;145;185;140;192;2231;1
2258;2;145;170;198;204;2233;1
2259;1;145;191;165;245;2218;1
2260;2;145;131;126;219;2217;1
2261;1;145;197;153;272;2210;1
2262;2;145;128;147;291;2211;1
2263;2;145;125;127;256;2220;1
2264;1;145;179;134;229;2212;1
2265;2;145;193;194;274;2221;1
2266;2;145;154;200;286;2236;1
2267;2;145;214;158;216;2235;1
2268;2;145;110;151;231;2213;1
2269;1;145;175;166;274;2238;1
2270;2;145;147;115;288;2234;1
2271;1;145;166;132;259;2239;1
2272;2;146;184;140;192;2257;1
2273;2;146;211;130;223;2243;1
2274;1;146;183;111;232;2242;1
2275;1;146;200;142;238;2254;1
2276;2;146;154;201;286;2266;1
2277;1;146;178;133;229;2264;1
2278;1;146;192;164;245;2259;1
2279;2;146;190;101;256;2244;1
2280;2;146;214;135;260;2251;1
2281;2;146;202;159;290;2246;1
2282;2;146;181;138;295;2253;1
2283;2;146;163;118;205;2240;1
2284;2;146;126;147;291;2262;1
2285;1;146;174;158;213;2248;1
2286;2;146;196;194;213;2241;1
2287;2;146;131;124;220;2260;1
2288;2;146;217;177;247;2245;1
2289;2;146;147;113;289;2270;1
2290;1;146;177;168;274;2269;1
2291;1;146;183;117;265;2252;1
2292;1;146;196;151;274;2261;1
2293;2;146;163;161;297;2256;1
2294;1;146;154;132;231;2249;1
2295;2;146;167;223;241;2255;1
2296;2;146;193;195;271;2265;1
2297;2;146;153;101;250;2250;1
2298;2;146;168;196;201;2258;1
2299;2;146;213;154;214;2267;1
2300;2;146;148;161;197;2247;1
2301;2;146;112;148;226;2268;1
2302;2;146;112;136;261;2263;1
2303;1;146;166;133;260;2271;1
2304;2;146;139;111;254;2263;1
2305;2;147;196;194;213;2286;1
2306;2;147;202;159;290;2281;1
2307;2;147;213;154;215;2299;1
2308;2;147;211;130;222;2273;1
2309;1;147;178;132;229;2277;1
2310;2;147;167;223;240;2295;1
2311;2;147;126;146;291;2284;1
2312;2;147;111;148;227;2301;1
2313;1;147;201;141;238;2275;1
2314;2;147;162;160;298;2293;1
2315;2;147;216;135;260;2280;1
2316;1;147;155;130;231;2294;1
2317;2;147;218;179;247;2288;1
2318;2;147;183;139;190;2272;1
2319;2;147;182;136;294;2282;1
2320;1;147;176;156;213;2285;1
2321;1;147;194;164;243;2278;1
2322;2;147;166;195;199;2298;1
2323;1;147;185;110;230;2274;1
2324;2;147;195;196;273;2296;1
2325;2;147;163;119;202;2283;1
2326;2;147;131;121;219;2287;1
2327;2;147;193;101;255;2279;1
2328;1;147;180;167;275;2290;1
2329;2;147;154;199;289;2276;1
2330;2;147;150;113;291;2289;1
2331;2;147;147;159;194;2300;1
2332;1;147;187;118;264;2291;1
2333;1;147;199;154;273;2292;1
2334;2;147;109;132;262;2302;1
2335;1;147;170;137;265;2303;1
2336;2;147;160;96;244;2297;1
2337;2;147;144;106;248;2304;1
2338;2;148;146;159;194;2331;1
2339;2;148;195;197;273;2324;1
2340;2;148;183;140;189;2318;1
2341;2;148;164;119;201;2325;1
2342;2;148;212;130;221;2308;1
2343;1;148;185;109;229;2323;1
2344;2;148;168;222;240;2310;1
2345;2;148;155;93;244;2336;1
2346;1;148;188;117;264;2332;1
2347;1;148;156;129;230;2316;1
2348;2;148;166;194;197;2322;1
2349;2;148;197;196;213;2305;1
2350;1;148;195;164;241;2321;1
2351;2;148;194;101;253;2327;1
2352;2;148;218;136;260;2315;1
2353;2;148;126;147;293;2311;1
2354;2;148;184;136;295;2319;1
2355;2;148;214;153;213;2307;1
2356;2;148;200;159;292;2306;1
2357;1;148;204;141;238;2313;1
2358;2;148;217;181;249;2317;1
2359;2;148;160;159;300;2314;1
2360;2;148;108;131;259;2334;1
2361;2;148;108;150;227;2312;1
2362;1;148;201;151;273;2333;1
2363;1;148;177;154;210;2320;1
2364;1;148;179;129;227;2309;1
2365;2;148;156;119;293;2330;1
2366;1;148;184;167;274;2328;1
2367;2;148;131;124;215;2326;1
2368;2;148;156;194;288;2329;1
2369;1;148;173;131;243;2335;1
2370;1;148;171;139;281;2335;1
2371;2;148;142;107;247;2337;1
2372;2;149;166;194;196;2348;1
2373;2;149;195;198;273;2339;1
2374;2;149;184;140;188;2340;1
2375;2;149;164;118;200;2341;1
2376;1;149;187;116;264;2346;1
2377;2;149;130;123;214;2367;1
2378;2;149;127;146;294;2353;1
2379;2;149;166;222;240;2344;1
2380;2;149;146;157;193;2338;1
2381;2;149;216;153;214;2355;1
2382;2;149;155;91;245;2345;1
2383;2;149;220;136;261;2352;1
2384;1;149;203;151;274;2362;1
2385;2;149;107;151;229;2361;1
2386;2;149;195;100;255;2351;1
2387;2;149;201;161;293;2356;1
2388;2;149;158;160;301;2359;1
2389;2;149;200;196;214;2349;1
2390;2;149;215;130;220;2342;1
2391;2;149;160;119;293;2365;1
2392;1;149;180;152;209;2363;1
2393;2;149;186;137;298;2354;1
2394;1;149;185;105;229;2343;1
2395;1;149;195;160;241;2350;1
2396;1;149;180;125;225;2364;1
2397;1;149;158;126;227;2347;1
2398;2;149;220;178;252;2358;1
2399;1;149;209;141;240;2357;1
2400;1;149;176;144;281;2370;1
2401;2;149;148;196;287;2368;1
2402;1;149;189;162;273;2366;1
2403;2;149;139;102;249;2371;1
2404;1;149;176;129;241;2369;1
2405;2;149;108;132;259;2360;1
2406;2;150;186;136;298;2393;1
2407;2;150;201;196;215;2389;1
2408;2;150;138;101;249;2403;1
2409;1;150;188;115;264;2376;1
2410;2;150;126;146;293;2378;1
2411;2;150;159;159;302;2388;1
2412;2;150;164;118;198;2375;1
2413;2;150;215;130;218;2390;1
2414;2;150;184;141;186;2374;1
2415;2;150;195;99;257;2386;1
2416;2;150;222;136;262;2383;1
2417;2;150;145;156;191;2380;1
2418;2;150;167;196;195;2372;1
2419;2;150;131;121;213;2377;1
2420;1;150;178;143;283;2400;1
2421;2;150;163;94;248;2382;1
2422;1;150;181;126;222;2396;1
2423;1;150;188;104;228;2394;1
2424;2;150;219;155;214;2381;1
2425;2;150;198;197;271;2373;1
2426;1;150;205;148;272;2384;1
2427;1;150;158;124;223;2397;1
2428;1;150;184;152;205;2392;1
2429;2;150;202;166;294;2387;1
2430;2;150;161;222;237;2379;1
2431;2;150;155;115;292;2391;1
2432;1;150;211;137;235;2399;1
2433;2;150;108;144;227;2385;1
2434;2;150;219;185;250;2398;1
2435;1;150;195;162;233;2395;1
2436;2;150;129;188;284;2401;1
2437;2;150;170;207;277;2401;1
2438;1;150;182;126;238;2404;1
2439;1;150;193;157;271;2402;1
2440;2;150;107;132;256;2405;1
2441;2;151;202;196;215;2407;1
2442;2;151;223;137;261;2416;1
2443;2;151;195;99;255;2415;1
2444;2;151;219;156;212;2424;1
2445;2;151;158;158;300;2411;1
2446;2;151;164;116;196;2412;1
2447;1;151;186;104;226;2423;1
2448;2;151;215;129;215;2413;1
2449;2;151;159;91;246;2421;1
2450;2;151;124;146;290;2410;1
2451;2;151;184;141;182;2414;1
2452;2;151;217;182;248;2434;1
2453;1;151;189;114;260;2409;1
2454;2;151;158;223;240;2430;1
2455;2;151;133;121;209;2419;1
2456;2;151;146;158;187;2417;1
2457;1;151;213;136;231;2432;1
2458;1;151;177;141;279;2420;1
2459;2;151;187;138;294;2406;1
2460;2;151;201;195;268;2425;1
2461;1;151;181;126;217;2422;1
2462;1;151;184;152;199;2428;1
2463;2;151;175;207;276;2437;1
2464;1;151;196;160;227;2435;1
2465;2;151;201;169;287;2429;1
2466;1;151;158;124;216;2427;1
2467;1;151;205;144;266;2426;1
2468;2;151;110;144;220;2433;1
2469;2;151;130;184;290;2436;1
2470;2;151;175;203;198;2418;1
2471;2;151;172;121;291;2431;1
2472;2;151;133;119;281;2431;1
2473;1;151;180;125;234;2438;1
2474;1;151;192;151;262;2439;1
2475;2;151;137;106;244;2408;1
2476;2;151;107;131;250;2440;1
2477;2;152;158;158;300;2445;1
2478;2;152;194;97;255;2443;1
2479;2;152;129;184;288;2469;1
2480;2;152;225;138;260;2442;1
2481;1;152;186;152;197;2462;1
2482;2;152;126;148;290;2450;1
2483;2;152;218;129;215;2448;1
2484;2;152;219;184;249;2452;1
2485;2;152;205;197;214;2441;1
2486;1;152;189;103;225;2447;1
2487;2;152;166;113;196;2446;1
2488;2;152;187;142;180;2451;1
2489;1;152;208;142;264;2467;1
2490;2;152;204;196;265;2460;1
2491;1;152;200;162;225;2464;1
2492;1;152;159;125;211;2466;1
2493;2;152;205;167;284;2465;1
2494;1;152;183;125;212;2461;1
2495;2;152;224;158;214;2444;1
2496;1;152;189;108;258;2453;1
2497;2;152;181;204;200;2470;1
2498;2;152;178;211;272;2463;1
2499;2;152;191;143;295;2459;1
2500;2;152;148;163;183;2456;1
2501;2;152;174;128;291;2471;1
2502;2;152;134;123;200;2455;1
2503;2;152;115;145;211;2468;1
2504;2;152;150;219;233;2454;1
2505;2;152;186;173;292;2465;1
2506;2;152;174;94;231;2449;1
2507;1;152;192;147;254;2474;1
2508;2;152;142;99;256;2449;1
2509;1;152;182;124;234;2473;1
2510;1;152;180;139;273;2458;1
2511;1;152;214;134;234;2457;1
2512;2;152;131;120;284;2472;1
2513;2;152;137;108;234;2475;1
2514;2;152;106;132;244;2476;1
2515;2;153;194;97;255;2478;1
2516;2;153;135;123;200;2502;1
2517;1;153;199;162;225;2491;1
2518;1;153;189;104;224;2486;1
2519;2;153;174;127;292;2501;1
2520;2;153;158;157;299;2477;1
2521;2;153;128;185;287;2479;1
2522;2;153;218;131;215;2483;1
2523;2;153;226;138;258;2480;1
2524;1;153;160;126;209;2492;1
2525;1;153;184;127;213;2494;1
2526;2;153;204;196;216;2485;1
2527;1;153;187;109;257;2496;1
2528;2;153;147;165;185;2500;1
2529;2;153;165;113;199;2487;1
2530;2;153;219;183;252;2484;1
2531;2;153;127;151;291;2482;1
2532;1;153;183;154;197;2481;1
2533;2;153;185;145;181;2488;1
2534;2;153;193;146;296;2499;1
2535;2;153;203;195;269;2490;1
2536;1;153;206;139;261;2489;1
2537;2;153;174;214;270;2498;1
2538;2;153;224;164;216;2495;1
2539;2;153;179;96;233;2506;1
2540;2;153;176;207;204;2497;1
2541;2;153;181;174;300;2505;1
2542;2;153;111;150;220;2503;1
2543;2;153;135;97;247;2508;1
2544;2;153;217;161;275;2493;1
2545;2;153;169;218;234;2504;1
2546;1;153;182;137;274;2510;1
2547;2;153;125;208;233;2504;1
2548;2;153;105;136;243;2514;1
2549;1;153;179;122;232;2509;1
2550;1;153;192;145;252;2507;1
2551;1;153;212;132;235;2511;1
2552;2;153;134;111;280;2512;1
2553;2;153;138;111;235;2513;1
2554;2;154;192;146;296;2534;1
2555;2;154;158;157;300;2520;1
2556;2;154;127;153;291;2531;1
2557;2;154;180;172;301;2541;1
2558;2;154;130;186;289;2521;1
2559;2;154;201;192;271;2535;1
2560;2;154;171;212;272;2537;1
2561;2;154;214;157;275;2544;1
2562;1;154;201;140;263;2536;1
2563;2;154;191;100;259;2515;1
2564;2;154;169;220;240;2545;1
2565;2;154;213;132;219;2522;1
2566;1;154;185;107;229;2518;1
2567;2;154;221;136;263;2523;1
2568;2;154;161;116;205;2529;1
2569;1;154;177;126;217;2525;1
2570;1;154;181;113;262;2527;1
2571;2;154;216;163;220;2538;1
2572;2;154;136;101;255;2543;1
2573;2;154;178;146;187;2533;1
2574;2;154;116;152;228;2542;1
2575;2;154;214;170;273;2530;1
2576;2;154;169;203;208;2540;1
2577;2;154;195;193;219;2526;1
2578;1;154;176;156;204;2532;1
2579;1;154;190;160;230;2517;1
2580;2;154;171;98;238;2539;1
2581;2;154;143;166;196;2528;1
2582;2;154;118;200;246;2547;1
2583;2;154;132;123;217;2516;1
2584;1;154;153;132;224;2524;1
2585;2;154;215;184;231;2530;1
2586;1;154;174;125;239;2549;1
2587;1;154;178;137;275;2546;1
2588;1;154;181;146;254;2550;1
2589;1;154;206;134;238;2551;1
2590;2;154;132;119;283;2552;1
2591;2;154;174;127;292;2519;1
2592;2;154;137;117;241;2553;1
2593;2;154;109;139;250;2548;1
2594;2;155;220;136;264;2567;1
2595;1;155;202;140;264;2562;1
2596;2;155;176;147;187;2573;1
2597;2;155;211;131;219;2565;1
2598;2;155;214;163;219;2571;1
2599;2;155;190;147;296;2554;1
2600;1;155;184;106;231;2566;1
2601;2;155;204;191;271;2559;1
2602;1;155;174;155;205;2578;1
2603;2;155;216;185;228;2585;1
2604;2;155;158;115;207;2568;1
2605;2;155;130;122;220;2583;1
2606;1;155;178;111;264;2570;1
2607;1;155;174;125;218;2569;1
2608;2;155;170;215;269;2560;1
2609;1;155;151;131;228;2584;1
2610;2;155;138;102;259;2572;1
2611;2;155;176;174;300;2557;1
2612;1;155;191;155;232;2579;1
2613;2;155;186;99;261;2563;1
2614;2;155;212;174;274;2575;1
2615;2;155;128;151;286;2556;1
2616;2;155;141;169;201;2581;1
2617;2;155;170;219;234;2564;1
2618;2;155;209;155;278;2561;1
2619;2;155;117;150;234;2574;1
2620;2;155;166;99;242;2580;1
2621;2;155;193;189;214;2577;1
2622;2;155;125;181;288;2558;1
2623;2;155;113;194;243;2582;1
2624;2;155;161;198;205;2576;1
2625;2;155;150;162;296;2555;1
2626;1;155;208;130;238;2589;1
2627;1;155;179;140;259;2588;1
2628;1;155;174;138;279;2587;1
2629;2;155;170;127;296;2591;1
2630;2;155;132;118;285;2590;1
2631;1;155;172;126;239;2586;1
2632;2;155;138;117;241;2592;1
2633;2;155;112;137;253;2593;1
2634;2;156;221;136;264;2594;1
2635;2;156;131;118;285;2630;1
2636;2;156;212;131;218;2597;1
2637;1;156;185;105;231;2600;1
2638;2;156;169;216;269;2608;1
2639;1;156;192;154;231;2612;1
2640;2;156;175;174;301;2611;1
2641;2;156;177;149;187;2596;1
2642;2;156;166;97;243;2620;1
2643;2;156;190;145;297;2599;1
2644;2;156;215;165;218;2598;1
2645;1;156;152;130;226;2609;1
2646;2;156;171;220;232;2617;1
2647;2;156;187;100;263;2613;1
2648;1;156;177;113;265;2606;1
2649;2;156;159;197;203;2624;1
2650;2;156;206;190;269;2601;1
2651;2;156;161;114;206;2604;1
2652;2;156;191;186;214;2621;1
2653;1;156;174;152;203;2602;1
2654;2;156;209;155;282;2618;1
2655;1;156;204;143;266;2595;1
2656;2;156;122;178;288;2622;1
2657;2;156;168;123;295;2629;1
2658;2;156;150;157;296;2625;1
2659;1;156;178;124;218;2607;1
2660;2;156;217;182;232;2603;1
2661;2;156;137;165;200;2616;1
2662;1;156;205;128;243;2626;1
2663;2;156;144;100;263;2610;1
2664;2;156;218;174;265;2614;1
2665;2;156;133;125;209;2605;1
2666;2;156;109;182;241;2623;1
2667;2;156;123;140;280;2615;1
2668;2;156;112;168;233;2619;1
2669;2;156;124;128;227;2619;1
2670;1;156;168;124;240;2631;1
2671;1;156;174;137;281;2628;1
2672;1;156;180;139;255;2627;1
2673;2;156;139;115;241;2632;1
2674;2;156;112;134;254;2633;1
2675;2;157;174;174;300;2640;1
2676;2;157;137;165;198;2661;1
2677;1;157;176;152;202;2653;1
2678;2;157;213;131;216;2636;1
2679;2;157;216;180;232;2660;1
2680;2;157;221;137;262;2634;1
2681;2;157;216;166;216;2644;1
2682;2;157;206;192;267;2650;1
2683;2;157;145;98;261;2663;1
2684;1;157;204;143;263;2655;1
2685;2;157;209;158;281;2654;1
2686;2;157;170;217;266;2638;1
2687;1;157;192;152;228;2639;1
2688;2;157;168;97;240;2642;1
2689;2;157;164;113;204;2651;1
2690;2;157;158;197;199;2649;1
2691;2;157;174;220;229;2646;1
2692;2;157;191;146;293;2643;1
2693;1;157;188;107;228;2637;1
2694;2;157;187;103;259;2647;1
2695;1;157;183;124;217;2659;1
2696;2;157;219;174;260;2664;1
2697;2;157;180;152;184;2641;1
2698;1;157;210;130;241;2662;1
2699;1;157;179;115;259;2648;1
2700;2;157;138;122;205;2665;1
2701;2;157;106;179;235;2666;1
2702;1;157;157;128;220;2645;1
2703;2;157;130;116;277;2635;1
2704;2;157;168;118;288;2657;1
2705;2;157;121;170;287;2656;1
2706;2;157;105;157;233;2668;1
2707;2;157;155;143;299;2658;1
2708;2;157;205;192;220;2652;1
2709;2;157;111;143;269;2667;1
2710;2;157;141;140;292;2667;1
2711;2;157;174;185;199;2652;1
2712;2;157;146;176;297;2658;1
2713;1;157;173;137;275;2671;1
2714;2;157;141;111;238;2673;1
2715;1;157;179;135;253;2672;1
2716;2;157;125;121;226;2669;1
2717;1;157;172;122;240;2670;1
2718;2;157;110;132;251;2674;1
2719;2;158;121;170;288;2705;1
2720;2;158;210;158;282;2685;1
2721;2;158;106;179;233;2701;1
2722;2;158;156;197;198;2690;1
2723;2;158;170;97;239;2688;1
2724;2;158;130;114;276;2703;1
2725;1;158;190;106;227;2693;1
2726;1;158;205;144;261;2684;1
2727;2;158;220;172;261;2696;1
2728;2;158;208;194;267;2682;1
2729;2;158;139;120;203;2700;1
2730;2;158;175;219;227;2691;1
2731;2;158;216;130;216;2678;1
2732;2;158;216;165;219;2681;1
2733;2;158;169;115;287;2704;1
2734;2;158;177;173;301;2675;1
2735;1;158;177;149;200;2677;1
2736;1;158;184;126;214;2695;1
2737;2;158;219;179;234;2679;1
2738;2;158;148;96;259;2683;1
2739;2;158;217;137;261;2680;1
2740;2;158;195;145;292;2692;1
2741;2;158;143;179;298;2712;1
2742;2;158;156;140;302;2707;1
2743;2;158;184;150;184;2697;1
2744;2;158;168;112;202;2689;1
2745;1;158;176;136;273;2713;1
2746;2;158;107;143;266;2709;1
2747;1;158;160;124;221;2702;1
2748;2;158;207;187;220;2708;1
2749;2;158;106;152;231;2706;1
2750;2;158;168;219;261;2686;1
2751;2;158;143;135;294;2710;1
2752;2;158;137;159;194;2676;1
2753;1;158;185;137;248;2715;1
2754;2;158;145;104;239;2714;1
2755;1;158;171;116;261;2699;1
2756;2;158;180;177;195;2711;1
2757;1;158;209;120;248;2698;1
2758;1;158;208;149;230;2698;1
2759;2;158;176;103;273;2694;1
2760;2;158;206;111;247;2694;1
2761;2;158;109;132;246;2718;1
2762;2;158;129;125;225;2716;1
2763;1;158;172;122;240;2717;1
2764;1;158;192;156;226;2687;1
2765;2;159;146;103;240;2754;1
2766;2;159;205;109;247;2760;1
2767;2;159;128;113;275;2724;1
2768;2;159;144;136;296;2751;1
2769;2;159;150;95;257;2738;1
2770;2;159;171;116;289;2733;1
2771;2;159;123;172;289;2719;1
2772;2;159;171;219;260;2750;1
2773;2;159;146;180;299;2741;1
2774;2;159;105;145;264;2746;1
2775;2;159;168;114;199;2744;1
2776;2;159;139;122;200;2729;1
2777;2;159;217;139;258;2739;1
2778;2;159;212;155;282;2720;1
2779;2;159;139;158;191;2752;1
2780;2;159;219;132;217;2731;1
2781;1;159;193;104;226;2725;1
2782;2;159;219;169;263;2727;1
2783;2;159;220;179;238;2737;1
2784;1;159;178;150;196;2735;1
2785;2;159;179;220;229;2730;1
2786;1;159;186;139;244;2753;1
2787;1;159;204;148;261;2726;1
2788;2;159;108;183;231;2721;1
2789;2;159;199;146;289;2740;1
2790;2;159;208;192;221;2748;1
2791;1;159;213;149;228;2758;1
2792;1;159;181;135;271;2745;1
2793;2;159;174;93;239;2723;1
2794;2;159;209;190;271;2728;1
2795;1;159;165;124;218;2747;1
2796;1;159;214;120;247;2757;1
2797;2;159;183;173;301;2734;1
2798;2;159;162;198;197;2722;1
2799;2;159;185;181;195;2756;1
2800;2;159;190;153;184;2743;1
2801;1;159;190;130;214;2736;1
2802;2;159;109;152;224;2749;1
2803;2;159;163;145;302;2742;1
2804;1;159;174;108;257;2755;1
2805;2;159;168;99;273;2759;1
2806;2;159;219;174;216;2732;1
2807;1;159;195;151;225;2764;1
2808;1;159;186;116;261;2755;1
2809;2;159;129;123;225;2762;1
2810;1;159;173;117;235;2763;1
2811;2;159;110;129;246;2761;1
2812;2;160;143;136;297;2768;1
2813;1;160;190;130;212;2801;1
2814;2;160;173;219;260;2772;1
2815;2;160;221;169;264;2782;1
2816;2;160;185;173;300;2797;1
2817;2;160;207;108;246;2766;1
2818;2;160;164;144;300;2803;1
2819;1;160;180;150;194;2784;1
2820;2;160;128;111;273;2767;1
2821;2;160;171;114;287;2770;1
2822;2;160;186;179;193;2799;1
2823;2;160;221;131;219;2780;1
2824;2;160;175;92;237;2793;1
2825;2;160;212;152;282;2778;1
2826;2;160;148;182;298;2773;1
2827;2;160;104;145;261;2774;1
2828;2;160;108;153;221;2802;1
2829;2;160;182;219;228;2785;1
2830;2;160;147;94;258;2769;1
2831;1;160;195;106;224;2781;1
2832;1;160;216;120;244;2796;1
2833;2;160;165;197;195;2798;1
2834;2;160;109;183;227;2788;1
2835;2;160;224;181;238;2783;1
2836;2;160;172;115;197;2775;1
2837;2;160;142;160;188;2779;1
2838;2;160;142;119;198;2776;1
2839;2;160;194;156;185;2800;1
2840;2;160;210;195;225;2790;1
2841;2;160;172;101;270;2805;1
2842;2;160;123;176;287;2771;1
2843;1;160;218;147;230;2791;1
2844;1;160;199;154;221;2807;1
2845;2;160;144;102;233;2765;1
2846;1;160;169;127;212;2795;1
2847;1;160;205;144;258;2787;1
2848;1;160;195;118;263;2808;1
2849;2;160;194;137;287;2789;1
2850;2;160;226;147;249;2777;1
2851;2;160;227;156;226;2806;1
2852;1;160;163;100;249;2804;1
2853;2;160;206;179;208;2806;1
2854;2;160;198;185;283;2794;1
2855;2;160;209;190;250;2794;1
2856;2;160;207;123;267;2777;1
2857;2;160;131;124;220;2809;1
2858;1;160;173;115;233;2810;1
2859;1;160;184;132;268;2792;1
2860;1;160;192;130;251;2786;1
2861;1;160;184;140;231;2786;1
2862;2;160;111;128;241;2811;1
2863;2;161;164;197;195;2833;1
2864;2;161;181;219;228;2829;1
2865;2;161;128;110;273;2820;1
2866;2;161;212;153;282;2825;1
2867;2;161;143;135;297;2812;1
2868;2;161;142;161;187;2837;1
2869;2;161;208;108;245;2817;1
2870;1;161;162;99;249;2852;1
2871;2;161;104;146;262;2827;1
2872;2;161;122;175;287;2842;1
2873;2;161;165;144;301;2818;1
2874;2;161;184;174;301;2816;1
2875;2;161;229;156;225;2851;1
2876;2;161;109;184;225;2834;1
2877;2;161;142;101;233;2845;1
2878;2;161;176;92;235;2824;1
2879;2;161;145;94;257;2830;1
2880;2;161;172;219;258;2814;1
2881;2;161;184;180;192;2822;1
2882;2;161;222;129;220;2823;1
2883;1;161;215;121;242;2832;1
2884;2;161;196;154;185;2839;1
2885;2;161;169;113;289;2821;1
2886;2;161;221;172;263;2815;1
2887;2;161;170;113;199;2836;1
2888;2;161;224;179;235;2835;1
2889;1;161;221;148;232;2843;1
2890;2;161;146;185;297;2826;1
2891;1;161;196;109;227;2831;1
2892;2;161;208;198;222;2840;1
2893;2;161;228;150;252;2850;1
2894;2;161;140;115;200;2838;1
2895;1;161;177;150;190;2819;1
2896;2;161;202;177;205;2853;1
2897;2;161;110;153;216;2828;1
2898;1;161;209;141;256;2847;1
2899;2;161;174;97;268;2841;1
2900;2;161;190;133;287;2849;1
2901;1;161;195;113;266;2848;1
2902;2;161;213;123;269;2856;1
2903;2;161;213;192;245;2855;1
2904;2;161;205;183;284;2854;1
2905;1;161;211;157;218;2844;1
2906;1;161;188;146;218;2844;1
2907;2;161;107;131;240;2862;1
2908;2;161;128;124;223;2857;1
2909;1;161;174;119;233;2858;1
2910;1;161;181;121;266;2859;1
2911;1;161;195;124;257;2860;1
2912;1;161;193;127;212;2813;1
2913;1;161;164;129;212;2846;1
2914;1;161;181;137;226;2861;1
2915;2;162;169;113;288;2885;1
2916;2;162;144;135;297;2867;1
2917;2;162;127;111;273;2865;1
2918;2;162;185;174;300;2874;1
2919;2;162;208;108;243;2869;1
2920;2;162;165;146;301;2873;1
2921;2;162;110;151;217;2897;1
2922;1;162;196;110;225;2891;1
2923;2;162;175;92;233;2878;1
2924;2;162;140;100;233;2877;1
2925;2;162;107;132;238;2907;1
2926;2;162;103;146;260;2871;1
2927;2;162;174;96;266;2899;1
2928;2;162;162;197;193;2863;1
2929;2;162;143;96;257;2879;1
2930;2;162;198;156;184;2884;1
2931;2;162;213;151;280;2866;1
2932;2;162;184;181;189;2881;1
2933;2;162;202;180;203;2896;1
2934;2;162;172;222;256;2880;1
2935;2;162;213;121;266;2902;1
2936;1;162;174;151;188;2895;1
2937;1;162;218;149;230;2889;1
2938;2;162;216;194;246;2903;1
2939;2;162;230;151;249;2893;1
2940;2;162;223;174;262;2886;1
2941;2;162;193;132;285;2900;1
2942;2;162;221;131;216;2882;1
2943;2;162;207;200;218;2892;1
2944;2;162;225;181;231;2888;1
2945;1;162;216;123;238;2883;1
2946;1;162;211;137;257;2898;1
2947;1;162;161;98;244;2870;1
2948;2;162;138;119;197;2894;1
2949;2;162;226;158;221;2875;1
2950;1;162;196;111;261;2901;1
2951;2;162;121;183;282;2872;1
2952;2;162;144;190;292;2890;1
2953;2;162;176;220;222;2864;1
2954;2;162;205;190;280;2904;1
2955;2;162;187;140;291;2900;1
2956;2;162;112;192;223;2876;1
2957;2;162;141;170;186;2868;1
2958;1;162;181;143;212;2906;1
2959;2;162;174;107;205;2887;1
2960;1;162;214;165;211;2905;1
2961;1;162;162;130;208;2913;1
2962;2;162;125;126;219;2908;1
2963;1;162;172;116;234;2909;1
2964;1;162;180;118;261;2910;1
2965;1;162;195;122;250;2911;1
2966;1;162;189;130;204;2912;1
2967;1;162;178;133;224;2914;1
2968;2;163;224;175;262;2940;1
2969;2;163;215;149;280;2931;1
2970;2;163;170;113;285;2915;1
2971;2;163;204;191;277;2954;1
2972;1;163;221;150;228;2937;1
2973;2;163;230;157;221;2949;1
2974;2;163;216;120;263;2935;1
2975;2;163;164;143;298;2920;1
2976;2;163;229;180;229;2944;1
2977;2;163;220;192;245;2938;1
2978;2;163;211;200;215;2943;1
2979;2;163;186;176;296;2918;1
2980;2;163;234;154;247;2939;1
2981;2;163;176;93;262;2927;1
2982;1;163;218;161;210;2960;1
2983;2;163;227;132;216;2942;1
2984;2;163;145;135;291;2916;1
2985;2;163;190;181;187;2932;1
2986;2;163;174;221;250;2934;1
2987;2;163;129;109;267;2917;1
2988;2;163;208;181;200;2933;1
2989;2;163;214;106;240;2919;1
2990;1;163;169;129;204;2961;1
2991;2;163;181;218;217;2953;1
2992;1;163;166;96;239;2947;1
2993;1;163;180;149;184;2936;1
2994;2;163;145;94;250;2929;1
2995;1;163;188;143;209;2958;1
2996;1;163;203;109;222;2922;1
2997;2;163;180;90;227;2923;1
2998;1;163;198;106;255;2950;1
2999;2;163;121;182;274;2951;1
3000;2;163;106;142;253;2926;1
3001;2;163;141;191;284;2952;1
3002;2;163;146;98;227;2924;1
3003;2;163;182;110;200;2959;1
3004;2;163;111;129;229;2925;1
3005;1;163;218;142;251;2946;1
3006;2;163;150;168;180;2957;1
3007;2;163;209;155;182;2930;1
3008;2;163;184;149;297;2955;1
3009;2;163;170;192;186;2928;1
3010;2;163;199;115;272;2941;1
3011;2;163;119;192;213;2956;1
3012;2;163;148;119;188;2948;1
3013;2;163;118;145;200;2921;1
3014;1;163;195;132;199;2966;1
3015;2;163;136;127;213;2962;1
3016;1;163;176;115;229;2963;1
3017;1;163;182;114;257;2964;1
3018;1;163;221;123;238;2945;1
3019;1;163;200;122;244;2965;1
3020;1;163;186;131;221;2967;1
3021;2;164;170;112;284;2970;1
3022;2;164;163;144;297;2975;1
3023;2;164;176;93;260;2981;1
3024;2;164;150;120;189;3012;1
3025;2;164;179;89;225;2997;1
3026;2;164;215;104;241;2989;1
3027;2;164;217;147;280;2969;1
3028;2;164;144;133;289;2984;1
3029;2;164;150;167;177;3006;1
3030;2;164;237;153;246;2980;1
3031;2;164;205;194;276;2971;1
3032;1;164;223;148;226;2972;1
3033;1;164;206;111;222;2996;1
3034;1;164;196;103;255;2998;1
3035;2;164;227;175;260;2968;1
3036;2;164;172;191;183;3009;1
3037;2;164;223;190;244;2977;1
3038;2;164;127;110;264;2987;1
3039;2;164;196;114;274;3010;1
3040;2;164;145;94;246;2994;1
3041;2;164;213;154;182;3007;1
3042;2;164;216;121;267;2974;1
3043;2;164;120;182;270;2999;1
3044;2;164;215;201;214;2978;1
3045;2;164;231;131;215;2983;1
3046;2;164;232;179;226;2976;1
3047;2;164;188;147;297;3008;1
3048;1;164;169;94;236;2992;1
3049;2;164;210;179;196;2988;1
3050;2;164;139;193;280;3001;1
3051;2;164;106;145;249;3000;1
3052;2;164;186;219;217;2991;1
3053;1;164;199;129;197;3014;1
3054;2;164;176;223;246;2986;1
3055;2;164;235;157;218;2973;1
3056;2;164;195;180;184;2985;1
3057;2;164;149;100;222;3002;1
3058;1;164;186;146;184;2993;1
3059;2;164;188;183;294;2979;1
3060;2;164;121;144;191;3013;1
3061;2;164;125;195;206;3011;1
3062;1;164;222;134;247;3005;1
3063;1;164;197;139;211;2995;1
3064;2;164;195;100;215;3003;1
3065;2;164;172;121;188;3003;1
3066;1;164;225;122;236;3018;1
3067;2;164;139;127;213;3015;1
3068;1;164;178;113;227;3016;1
3069;1;164;183;113;257;3017;1
3070;1;164;217;160;210;2982;1
3071;1;164;201;122;244;3019;1
3072;1;164;174;127;203;2990;1
3073;2;164;116;125;230;3004;1
3074;1;164;189;129;221;3020;1
3075;2;165;216;120;267;3042;1
3076;2;165;171;191;182;3036;1
3077;1;165;168;93;236;3048;1
3078;2;165;197;115;274;3039;1
3079;2;165;170;111;285;3021;1
3080;2;165;236;156;217;3055;1
3081;2;165;148;99;221;3057;1
3082;2;165;224;189;243;3037;1
3083;2;165;175;92;261;3023;1
3084;2;165;195;180;182;3056;1
3085;2;165;142;133;289;3028;1
3086;2;165;151;169;177;3029;1
3087;2;165;217;201;213;3044;1
3088;2;165;105;145;247;3051;1
3089;1;165;198;127;196;3053;1
3090;2;165;206;196;275;3031;1
3091;2;165;152;120;191;3024;1
3092;2;165;139;195;278;3050;1
3093;2;165;123;145;189;3060;1
3094;2;165;210;179;193;3049;1
3095;2;165;232;129;213;3045;1
3096;2;165;234;180;224;3046;1
3097;2;165;188;144;297;3047;1
3098;1;165;199;103;254;3034;1
3099;2;165;230;175;259;3035;1
3100;2;165;189;220;218;3052;1
3101;1;165;227;124;238;3066;1
3102;2;165;143;92;244;3040;1
3103;1;165;208;108;222;3033;1
3104;1;165;225;151;226;3032;1
3105;1;165;199;140;208;3063;1
3106;2;165;218;105;243;3026;1
3107;2;165;239;150;245;3030;1
3108;2;165;161;147;298;3022;1
3109;2;165;180;223;244;3054;1
3110;2;165;183;87;226;3025;1
3111;2;165;118;184;266;3043;1
3112;2;165;217;142;280;3027;1
3113;2;165;214;149;181;3041;1
3114;2;165;187;188;292;3059;1
3115;2;165;129;197;202;3061;1
3116;2;165;192;93;214;3064;1
3117;2;165;178;125;182;3065;1
3118;1;165;178;146;175;3058;1
3119;1;165;214;139;230;3062;1
3120;1;165;196;153;191;3058;1
3121;1;165;174;130;199;3072;1
3122;1;165;182;108;255;3069;1
3123;1;165;204;115;241;3071;1
3124;1;165;231;139;263;3062;1
3125;1;165;212;156;205;3070;1
3126;2;165;138;125;213;3067;1
3127;1;165;178;110;226;3068;1
3128;2;165;128;109;264;3038;1
3129;2;165;113;126;228;3073;1
3130;1;165;189;127;220;3074;1
3131;2;166;216;120;266;3075;1
3132;2;166;184;87;225;3110;1
3133;2;166;118;185;265;3111;1
3134;2;166;217;141;279;3112;1
3135;2;166;141;132;289;3085;1
3136;2;166;180;223;242;3109;1
3137;1;166;169;93;234;3077;1
3138;2;166;142;92;242;3102;1
3139;2;166;176;92;259;3083;1
3140;2;166;138;196;276;3092;1
3141;2;166;162;146;296;3108;1
3142;2;166;146;99;219;3081;1
3143;1;166;225;149;224;3104;1
3144;2;166;139;127;201;3126;1
3145;2;166;218;203;211;3087;1
3146;2;166;188;222;216;3100;1
3147;1;166;203;115;238;3123;1
3148;2;166;224;190;240;3082;1
3149;2;166;239;149;242;3107;1
3150;1;166;230;139;260;3124;1
3151;2;166;197;118;273;3078;1
3152;2;166;231;174;256;3099;1
3153;1;166;225;122;236;3101;1
3154;2;166;218;103;240;3106;1
3155;2;166;130;200;200;3115;1
3156;2;166;210;179;189;3094;1
3157;2;166;232;128;209;3095;1
3158;2;166;171;115;285;3079;1
3159;1;166;175;129;195;3121;1
3160;1;166;200;141;204;3105;1
3161;1;166;209;107;218;3103;1
3162;2;166;233;179;220;3096;1
3163;2;166;206;199;272;3090;1
3164;2;166;104;148;244;3088;1
3165;2;166;122;143;185;3093;1
3166;1;166;197;100;251;3098;1
3167;2;166;154;170;173;3086;1
3168;2;166;194;180;177;3084;1
3169;1;166;199;154;195;3120;1
3170;2;166;237;156;212;3080;1
3171;2;166;189;141;293;3097;1
3172;1;166;212;154;200;3125;1
3173;2;166;174;123;180;3117;1
3174;1;166;197;130;191;3089;1
3175;2;166;189;94;209;3116;1
3176;1;166;174;143;171;3118;1
3177;2;166;185;194;289;3114;1
3178;2;166;211;146;175;3113;1
3179;2;166;169;177;174;3076;1
3180;2;166;157;106;202;3091;1
3181;2;166;148;141;180;3091;1
3182;1;166;180;111;220;3127;1
3183;1;166;183;111;251;3122;1
3184;2;166;127;110;264;3128;1
3185;2;166;112;125;225;3129;1
3186;1;166;213;137;228;3119;1
3187;1;166;194;129;219;3130;1
3188;1;167;197;101;251;3166;1
3189;2;167;232;129;209;3157;1
3190;2;167;239;148;241;3149;1
3191;2;167;232;178;219;3162;1
3192;1;167;196;130;219;3187;1
3193;2;167;178;92;260;3139;1
3194;2;167;173;123;178;3173;1
3195;2;167;218;104;242;3154;1
3196;2;167;209;148;176;3178;1
3197;2;167;129;110;262;3184;1
3198;2;167;197;121;273;3151;1
3199;2;167;185;221;215;3146;1
3200;2;167;119;181;265;3133;1
3201;2;167;185;89;227;3132;1
3202;2;167;220;201;211;3145;1
3203;2;167;181;194;289;3177;1
3204;2;167;218;118;266;3131;1
3205;2;167;132;203;200;3155;1
3206;1;167;201;143;206;3160;1
3207;2;167;226;188;238;3148;1
3208;2;167;182;225;243;3136;1
3209;2;167;194;183;176;3168;1
3210;2;167;220;141;279;3134;1
3211;2;167;203;199;275;3163;1
3212;1;167;183;114;248;3183;1
3213;1;167;222;153;224;3143;1
3214;2;167;235;158;208;3170;1
3215;2;167;142;196;277;3140;1
3216;1;167;196;126;190;3174;1
3217;2;167;146;138;181;3181;1
3218;2;167;105;153;244;3164;1
3219;2;167;234;172;256;3152;1
3220;2;167;188;137;291;3171;1
3221;1;167;196;153;191;3169;1
3222;1;167;174;142;175;3176;1
3223;2;167;149;104;220;3142;1
3224;1;167;225;140;258;3150;1
3225;1;167;168;98;235;3137;1
3226;2;167;148;93;241;3138;1
3227;1;167;226;127;237;3153;1
3228;2;167;141;123;199;3144;1
3229;2;167;215;178;189;3156;1
3230;1;167;208;110;212;3161;1
3231;1;167;176;113;224;3182;1
3232;2;167;150;167;171;3167;1
3233;2;167;161;141;296;3141;1
3234;2;167;140;138;286;3135;1
3235;2;167;169;111;280;3158;1
3236;2;167;158;100;198;3180;1
3237;1;167;209;137;234;3186;1
3238;2;167;116;125;217;3185;1
3239;1;167;212;159;206;3172;1
3240;1;167;196;122;235;3147;1
3241;2;167;189;100;200;3175;1
3242;2;167;119;153;191;3165;1
3243;1;167;168;121;201;3159;1
3244;2;167;174;161;169;3179;1
3245;2;167;166;203;182;3179;1
